"login","zip"
"000426","16000"
"000327","16000"
"005322","16000"
"687444","NULL"
"500000","NULL"
"004224","16310"
"700000","NULL"
"800000","NULL"
"000921","16000"
"015915","NULL"
"110000","NULL"
"130000","NULL"
"140000","NULL"
"006024","16000"
"000624","16000"
"024321","16000"
"001128","NULL"
"025122","NULL"
"004125","16440"
"009813","16000"
"014124","16000"
"027219","16160"
"260000","16000"
"005421","16000"
"280000","16800"
"290000","16240"
"022620","16000"
"029514","16400"
"000822","16000"
"001326","16000"
"350000","16000"
"380000","16000"
"004223","16800"
"004323","16800"
"410000","16000"
"546777","NULL"
"453788","16200"
"022125","16000"
"001227","NULL"
"978964","16410"
"001029","NULL"
"049679","16470"
"078945","NULL"
"789048","16000"
"000723","NULL"
"067896","NULL"
"068795","NULL"
"786540","NULL"
"064578","NULL"
"978634","NULL"
"789455","16000"
"016815","NULL"
"013026","NULL"
"025914","16000"
"958605","16000"
"987548","16800"
"002028","16800"
"645678","17360"
"029712","16430"
"112347","16320"
"006618","16000"
"645789","16570"
"348874","16000"
"054678","16000"
"005520","16160"
"008220","16600"
"000525","NULL"
"000228","16000"
"033519","16800"
"034419","16000"
"354788","16000"
"123457","16200"
"012027","16000"
"123754","16450"
"000129","16000"
"005124","16000"
"450666","16590"
"345897","16000"
"784412","16000"
"005223","16000"
"030027","16000"
"029910","24340"
"029811","16000"
"029415","16400"
"029613","16710"
"029316","16000"
"029217","16600"
"029118","16000"
"029019","16000"
"028713","16000"
"028020","16400"
"028911","16000"
"028812","16000"
"027912","16000"
"028515","16600"
"027714","16710"
"027813","16710"
"028614","16000"
"025023","16100"
"024915","16430"
"027615","16000"
"028416","16000"
"560777","16000"
"037515","16500"
"020820","16410"
"028317","16000"
"021027","16000"
"028218","16800"
"020919","16000"
"024123","16000"
"027516","16430"
"025419","16000"
"028119","16000"
"020721","16400"
"027318","16430"
"020622","16400"
"027120","16800"
"023025","16000"
"022917","16000"
"027021","16000"
"024717","16410"
"020523","16000"
"024816","16000"
"025320","16000"
"026913","16000"
"023916","16000"
"022719","16000"
"026814","16310"
"022818","16230"
"025221","16000"
"026022","16000"
"024618","16000"
"026715","16000"
"023817","16000"
"024519","16730"
"025815","16600"
"026616","16000"
"025716","16000"
"022521","16000"
"026319","16000"
"023124","16410"
"026517","16000"
"022026","NULL"
"026418","16000"
"024420","16430"
"026220","16000"
"025617","NULL"
"026121","16000"
"023718","16000"
"024024","NULL"
"020424","16000"
"025518","16000"
"023520","16330"
"020325","16400"
"020226","16000"
"023322","16000"
"023223","16000"
"020127","16000"
"021621","16000"
"021918","16730"
"020028","16000"
"015123","16000"
"456450","16000"
"013224","16170"
"013125","16000"
"015321","16000"
"012819","16000"
"012918","16000"
"012720","16000"
"012522","16710"
"012621","16600"
"012423","16000"
"012324","16000"
"012225","16000"
"012126","16000"
"031125","16600"
"032124","16710"
"032223","16000"
"030126","16000"
"030225","16000"
"030423","16000"
"030522","16000"
"030621","16190"
"030720","16000"
"030819","16800"
"030918","16000"
"031026","NULL"
"014520","16230"
"015222","16000"
"021720","16000"
"021522","16000"
"019911","16000"
"016419","16000"
"019812","16000"
"017022","16440"
"016518","NULL"
"016617","16000"
"016716","16000"
"019614","16400"
"016914","16000"
"019713","16410"
"021423","16000"
"021324","16000"
"018516","16000"
"021126","16000"
"019317","16000"
"019515","16000"
"014718","16800"
"019020","NULL"
"019416","16000"
"016221","16440"
"016122","16000"
"018714","16000"
"016320","16000"
"019218","16000"
"018813","16000"
"018615","16000"
"018219","16000"
"017517","16000"
"018417","NULL"
"019119","16000"
"018318","NULL"
"017913","16000"
"017814","16430"
"018120","16000"
"018021","16710"
"014817","NULL"
"014619","16600"
"017715","NULL"
"014322","16000"
"014421","16000"
"015024","16000"
"014916","16250"
"017418","16000"
"017319","16430"
"014223","16000"
"017220","16000"
"014025","16000"
"017121","16710"
"016023","16340"
"015816","16000"
"015717","16340"
"013620","16000"
"015618","16270"
"013917","16000"
"015519","16000"
"013818","16470"
"013719","16600"
"015420","16400"
"013323","16000"
"013422","16340"
"022422","16000"
"022224","16000"
"022323","16730"
"023421","16330"
"003225","16000"
"003126","16430"
"003918","16000"
"003324","16000"
"032322","16000"
"003621","16800"
"003819","16000"
"003720","16000"
"018912","16000"
"023619","16000"
"013521","16260"
"032619","16000"
"032520","16410"
"002721","16000"
"645067","NULL"
"002622","16000"
"002523","16710"
"002325","16440"
"002226","16410"
"003027","16000"
"002919","16000"
"005025","16000"
"033024","16000"
"032718","16000"
"032817","16000"
"032916","16000"
"033420","16000"
"003522","16000"
"033321","16430"
"033123","16440"
"003423","16730"
"505554","16000"
"021225","16600"
"024222","16000"
"034023","16000"
"033915","16340"
"033717","16000"
"033618","16000"
"033816","95170"
"033222","16150"
"027417","16400"
"002424","16440"
"031323","16570"
"036219","16000"
"037119","16000"
"036714","16000"
"036615","16000"
"031620","16410"
"036813","16000"
"031818","16000"
"031521","16000"
"008319","16000"
"036318","16000"
"036516","16000"
"037020","16000"
"037218","16160"
"037317","16600"
"037416","16000"
"037614","16500"
"044517","16320"
"040506","16000"
"031719","16000"
"032025","16000"
"036120","16000"
"034122","NULL"
"038910","16000"
"034320","16000"
"034221","16000"
"045678","16240"
"036912","16000"
"078954","16000"
"000000","16000"
"036417","16110"
"032421","16000"
"034617","16000"
"002127","16000"
"001920","16000"
"001524","16000"
"031224","16000"
"007716","16410"
"135554","NULL"
"987955","NULL"
"789555","NULL"
"007617","16170"
"007419","16380"
"067890","NULL"
"008022","NULL"
"008121","NULL"
"008517","16000"
"450789","NULL"
"789675","NULL"
"789789","NULL"
"008814","33200"
"645077","NULL"
"038118","16000"
"008715","16000"
"008616","16600"
"008418","16330"
"008913","16000"
"007518","16410"
"007815","16800"
"006816","16000"
"007320","16000"
"007221","16710"
"007122","16000"
"007023","16000"
"006915","16300"
"006717","16000"
"006519","16000"
"006420","16000"
"006321","16250"
"005817","16440"
"005718","16440"
"006222","16400"
"006123","79340"
"005619","16000"
"007914","16700"
"010227","16000"
"009912","16560"
"010029","16160"
"009021","16000"
"010128","16600"
"544223","NULL"
"009318","16340"
"457887","NULL"
"645788","NULL"
"405678","NULL"
"054645","NULL"
"645055","NULL"
"456788","16410"
"037713","16310"
"035517","16160"
"035715","16490"
"035220","16000"
"035616","16410"
"035121","16000"
"035022","16000"
"034815","16000"
"034914","16000"
"035418","16000"
"775666","NULL"
"065478","NULL"
"009120","16000"
"787865","16590"
"009219","16590"
"654666","NULL"
"036021","16250"
"009417","16000"
"037812","16380"
"037911","16800"
"038019","16490"
"038217","16570"
"038316","16000"
"038415","16000"
"035913","16350"
"564565","16000"
"038613","16000"
"038712","16320"
"038811","16000"
"602313","16000"
"001821","16600"
"041619","16340"
"009615","16120"
"009516","16000"
"039018","16000"
"039117","16000"
"039315","16000"
"039414","16000"
"039612","16410"
"463355","16000"
"456077","16000"
"002820","16000"
"001722","16290"
"001623","16000"
"001425","16300"
"039711","16260"
"557895","16590"
"221054","NULL"
"546796","NULL"
"045417","79170"
"009714","16320"
"041817","16000"
"041718","16710"
"044814","16000"
"044715","16000"
"042222","16000"
"042024","16000"
"042123","16600"
"039909","16140"
"046119","16730"
"042519","16220"
"042717","16000"
"042618","16000"
"042420","16710"
"042321","17490"
"756153","16000"
"045714","16230"
"045813","16800"
"645520","16000"
"046911","16160"
"578456","16000"
"069587","16000"
"043320","16160"
"654322","16600"
"043221","16000"
"043122","16400"
"041916","16590"
"011820","16000"
"045814","16800"
"043518","16440"
"043419","16440"
"043617","16000"
"043716","16290"
"043815","16400"
"047118","16390"
"031917","16710"
"039216","16400"
"010623","16230"
"010425","16400"
"010524","16220"
"010326","16400"
"045615","24000"
"045715","16230"
"047217","16800"
"011622","16000"
"011721","16190"
"041421","16000"
"048315","16160"
"046218","16230"
"046317","16230"
"048216","16170"
"048117","16160"
"043914","16000"
"044022","16000"
"044121","16000"
"044220","16410"
"044319","16440"
"044418","16400"
"645687","16440"
"050916","16000"
"047316","16000"
"047415","16000"
"047514","16800"
"048414","16000"
"077119","17270"
"048711","16000"
"048612","16340"
"456555","166400"
"041223","16000"
"057909","16710"
"041322","16120"
"062725","16470"
"059412","16400"
"545644","16430"
"011028","16000"
"010920","16000"
"010722","16000"
"011226","16000"
"011127","16000"
"010821","16710"
"468612","16000"
"044913","16800"
"048513","16000"
"044616","16000"
"030324","16430"
"058017","16800"
"161122","16800"
"060024","16430"
"602046","16400"
"678645","NULL"
"045021","16000"
"011325","16000"
"011523","16400"
"011424","16000"
"046416","16460"
"281412","16100"
"043023","16100"
"048018","16100"
"042816","16100"
"042915","16100"
"321654","16100"
"047811","16100"
"052914","16370"
"053022","16100"
"101214","16100"
"590644","16000"
"803864","16100"
"060204","16000"
"827748","16100"
"057810","16100"
"572869","17520"
"056910","16300"
"687631","16710"
"654321","16130"
"417157","16100"
"974881","16100"
"919922","16100"
"480234","16100"
"804104","16800"
"191297","16000"
"094921","16000"
"967649","16300"
"056460","33300"
"737763","16300"
"582311","16300"
"439680","16800"
"902528","16000"
"099869","16000"
"030498","16300"
"914686","16100"
"780649","16160"
"203040","16000"
"203140","16800"
"223040","16100"
"233040","16100"
"431349","16000"
"844213","16300"
"262728","16560"
"233227","16710"
"050520","16000"
"050619","16600"
"050322","16000"
"326710","16000"
"265771","16710"
"075158","16440"
"084950","16440"
"128835","16000"
"050223","16000"
"770300","16000"
"051615","16230"
"050718","16340"
"050124","16000"
"215232","NULL"
"058611","Mansle"
"149018","16430"
"813725","16400"
"969389","16000"
"104272","16000"
"542129","16000"
"004422","86180"
"004620","16000"
"011919","16160"
"263864","16000"
"336699","16000"
"346699","16000"
"336698","16210"
"946818","16000"
"237363","16160"
"051420","16000"
"051321","16000"
"051222","16000"
"059016","16160"
"777025","16000"
"476583","16100"
"286634","16000"
"582926","16000"
"888747","16000"
"194666","16000"
"917188","16000"
"398665","16000"
"069611","16560"
"093022","16330"
"999431","16000"
"629791","16100"
"406354","16190"
"080213","16250"
"081799","16000"
"883325","16370"
"636965","16000"
"932540","16000"
"965478","16000"
"051123","NULL"
"777444","16000"
"553640","16480"
"981630","16210"
"221092","16210"
"100610","16210"
"366522","16410"
"711556","16100"
"153081","16390"
"837617","16620"
"850050","16620"
"056613","16100"
"556202","16160"
"850039","16160"
"850040","16560"
"850041","16800"
"850042","16430"
"850043","16410"
"850044","16600"
"850045","16710"
"850046","16600"
"850047","16340"
"850048","16560"
"850049","16600"
"850092","16310"
"850051","16570"
"850052","16410"
"850053","16430"
"850054","16440"
"850055","16000"
"850056","16000"
"850057","16400"
"850058","16430"
"850059","16000"
"850060","16110"
"850061","16000"
"850062","16730"
"850063","16710"
"850064","16710"
"850065","16230"
"850066","16730"
"850067","16330"
"850068","16000"
"850069","16600"
"850070","16340"
"850071","16710"
"850072","16660"
"850073","16430"
"850074","16600"
"850075","16150"
"850076","16500"
"850077","86460"
"850078","87720"
"850079","16500"
"850080","16260"
"850081","16270"
"850082","16500"
"850083","16350"
"850084","79190"
"850085","16230"
"850086","16290"
"850087","16700"
"850088","16330"
"850089","16460"
"850090","16700"
"850091","16700"
"961260","16210"
"317857","16210"
"850001","16470"
"850002","16430"
"850003","16000"
"850004","16730"
"850005","16290"
"850006","16100"
"850007","16440"
"850008","16290"
"850009","16400"
"850010","16260"
"850011","16600"
"850012","16220"
"850013","16470"
"850014","16200"
"850015","16130"
"850016","16000"
"850017","16700"
"850019","16230"
"850020","16560"
"850021","16400"
"850022","16600"
"850023","24360"
"850024","16330"
"850025","16000"
"850026","16470"
"850027","16100"
"850028","16560"
"850029","16600"
"850030","16430"
"850031","16710"
"850032","16000"
"850033","16000"
"850035","16730"
"850036","16000"
"850037","16000"
"850038","16710"
"770375","16190"
"189565","16480"
"804975","16480"
"807546","16480"
"058215","NULL"
"676588","16000"
"525831","16190"
"891686","16210"
"870552","16000"
"696867","16320"
"050817","16000"
"050421","16000"
"885443","16100"
"323435","16000"
"699715","16000"
"354248","16000"
"054647","16450"
"693471","16700"
"424116","16260"
"271412","16230"
"056019","NULL"
"056316","16000"
"056118","16000"
"052419","16000"
"058116","16730"
"303185","16140"
"902021","16600"
"471165","16600"
"016600","16600"
"635043","16220"
"304152","16000"
"405566","16440"
"280890","16440"
"503232","16700"
"056217","16700"
"055119","16700"
"055218","16700"
"950313","16210"
"562336","16700"
"995588","16700"
"170326","16730"
"614507","16480"
"314774","16160"
"055317","16000"
"751353","16000"
"571887","16460"
"162816","16700"
"063349","16000"
"402133","16150"
"053220","16000"
"053121","16300"
"454970","16730"
"677639","16400"
"813929","16000"
"022236","16700"
"965765","16290"
"055313","16100"
"100686","16380"
"263814","16410"
"613131","16120"
"909446","16440"
"857260","16000"
"943017","16400"
"039513","16410"
"130680","16400"
"052221","16000"
"052320","16000"
"056712","16600"
"056811","16000"
"166424","16440"
"245633","16000"
"209598","16430"
"746686","16340"
"684512","16000"
"636363","16000"
"390985","16100"
"646153","16800"
"401044","16000"
"135790","16000"
"702292","16300"
"985626","16000"
"055416","16470"
"052518","16400"
"805045","16100"
"260480","16100"
"163921","16100"
"765602","16130"
"289132","16400"
"289133","16400"
"720096","16130"
"271711","16330"
"753923","16170"
"186241","16100"
"423650","16100"
"410704","16710"
"229656","16700"
"416655","16450"
"247739","16400"
"151015","16400"
"631420","31100"
"186223","17210"
"098193","16700"
"199346","16000"
"966722","16000"
"154491","16300"
"776082","16800"
"952333","16000"
"738349","16230"
"927703","16000"
"776081","16400"
"741852","16000"
"928372","16000"
"245052","16000"
"947263","16800"
"958923","16800"
"028942","16000"
"929014","16000"
"956065","16000"
"253058","16000"
"204261","16000"
"943004","16000"
"382064","16000"
"783952","16300"
"094749","16000"
"747534","16430"
"920642","16000"
"453615","16000"
"905174","16000"
"329541","16380"
"040074","16130"
"063757","16000"
"761877","16100"
"852311","16290"
"202224","16000"
"221522","16000"
"493081","16000"
"981641","16000"
"742249","16310"
"981555","16120"
"373552","16000"
"921658","16000"
"735615","16000"
"497110","16100"
"716721","16430"
"200517","16000"
"285611","16600"
"792062","16300"
"279523","16000"
"548244","16000"
"747748","16100"
"953670","16000"
"216173","16000"
"157039","16000"
"093229","16000"
"943131","16000"
"951791","16000"
"200897","16000"
"055515","16730"
"666630","16430"
"150865","16600"
"161167","16430"
"568312","16000"
"548695","16000"
"623441","16000"
"184461","16000"
"941195","16000"
"197735","16730"
"070261","16000"
"829161","16000"
"384549","16000"
"215568","16600"
"915419","16000"
"255631","16400"
"926067","16000"
"381529","16000"
"950243","16000"
"920634","16000"
"943135","16000"
"953640","16000"
"071855","16560"
"281912","16600"
"913357","16470"
"689894","16400"
"093566","16000"
"334548","16730"
"964896","16000"
"697772","16600"
"951393","16800"
"992163","16340"
"058654","16290"
"681342","16600"
"224141","16340"
"951877","16800"
"655373","16600"
"563535","16600"
"065812","16430"
"159784","16000"
"697911","16000"
"709011","16400"
"604567","16400"
"359874","16000"
"589614","16000"
"158746","16000"
"178651","16000"
"156357","16470"
"865219","16000"
"573651","16400"
"687435","16000"
"851369","16000"
"919089","16000"
"366850","16000"
"922163","16000"
"935700","16410"
"644240","16730"
"069634","16000"
"001204","16000"
"732650","16730"
"053517","16000"
"053418","16000"
"053319","16000"
"777016","16160"
"932838","16000"
"390629","16000"
"288269","16440"
"804622","16000"
"865001","16000"
"486186","16000"
"181022","16600"
"774068","16600"
"061489","16600"
"615397","16730"
"816275","16000"
"825125","16000"
"477991","16000"
"881818","16410"
"042212","16000"
"654990","16000"
"352446","16730"
"674951","16000"
"933172","16430"
"840472","16000"
"960471","16000"
"404806","16000"
"408839","16000"
"678159","16600"
"747061","16800"
"458219","16570"
"037931","16710"
"561675","16290"
"722210","16000"
"002547","16340"
"177676","16100"
"591861","16000"
"538458","16000"
"148254","16000"
"532754","16000"
"571082","16400"
"050867","16400"
"622675","16440"
"850692","16000"
"478310","16000"
"033824","16220"
"148639","16600"
"921288","16000"
"997247","16470"
"246558","16800"
"619815","16000"
"461444","16600"
"607370","16000"
"360858","16260"
"614056","16440"
"192868","16120"
"902538","16400"
"909397","16000"
"123733","16600"
"736023","16190"
"817232","16590"
"866026","24360"
"097901","16400"
"395458","16440"
"924372","16000"
"572517","16320"
"320745","16560"
"975214","16600"
"070680","16730"
"133606","16400"
"562260","16440"
"300868","16110"
"727545","16400"
"291059","16230"
"351139","16000"
"543614","16000"
"288306","16120"
"497889","16000"
"732113","79110"
"565148","16440"
"688453","16160"
"692950","16110"
"182853","16430"
"600494","24430"
"589365","16170"
"727014","16000"
"433940","16000"
"572160","16600"
"071145","16730"
"318908","16000"
"294283","16560"
"151346","16000"
"725010","16250"
"278294","16600"
"051347","16000"
"144392","16230"
"847092","16400"
"698852","16000"
"207031","16000"
"440505","1600p"
"402956","16410"
"357484","16000"
"612773","16320"
"950319","16600"
"967128","16009"
"296801","16410"
"171985","16130"
"743798","16330"
"531024","16000"
"069079","16230"
"619809","16000"
"197297","16000"
"225120","16430"
"219832","16000"
"366765","16600"
"515113","16800"
"458177","16410"
"991462","16290"
"357935","16600"
"070197","16800"
"539442","16000"
"681699","16710"
"949862","16600"
"640600","16600"
"261956","16000"
"855827","16000"
"076350","16160"
"792349","16220"
"521714","16170"
"269129","16330"
"148774","16000"
"295896","16600"
"680001","16290"
"935005","16000"
"601518","16320"
"334961","16600"
"332203","16430"
"816515","16800"
"342310","16730"
"037282","16800"
"247176","16000"
"938426","16110"
"279040","16110"
"540228","16000"
"639956","16440"
"225935","16730"
"257717","16440"
"653760","16710"
"868509","16340"
"467095","16440"
"436667","16000"
"188872","16430"
"030357","16000"
"396064","16710"
"440324","16600"
"649768","16000"
"647867","16000"
"726109","16800"
"201224","16440"
"521461","16000"
"629525","16600"
"833600","16470"
"867855","16000"
"586899","16590"
"545992","16440"
"365289","16710"
"694842","16000"
"947819","16320"
"414450","16000"
"871079","16430"
"441493","16710"
"832238","16800"
"564553","16340"
"785534","16560"
"438591","16000"
"771360","16430"
"830383","16400"
"587694","16160"
"658242","16330"
"315714","16000"
"044292","16340"
"355908","16140"
"249986","16440"
"292835","16160"
"944028","16600"
"475387","16710"
"086321","16230"
"945804","16160"
"495591","16800"
"687058","16330"
"029464","16170"
"442405","16000"
"116017","16800"
"024688","16600"
"686817","16000"
"656342","16220"
"816729","16000"
"240632","16600"
"214596","16340"
"575237","16600"
"594740","16330"
"183356","16160"
"401051","16000"
"477398","16000"
"736532","16410"
"242289","16430"
"737535","16160"
"414020","16800"
"794608","16730"
"527860","17210"
"533822","16320"
"438058","16160"
"962902","16000"
"157250","16000"
"112505","16000"
"349624","16600"
"510689","16000"
"148071","17100"
"412733","16430"
"674843","16410"
"929954","16560"
"456967","16360"
"048552","16440"
"585462","16120"
"542670","16000"
"487281","16800"
"595499","16430"
"479259","16120"
"168265","16440"
"332119","16590"
"750586","16430"
"233064","16200"
"615598","16160"
"381281","16000"
"095670","16430"
"950933","16000"
"148819","16000"
"149809","16000"
"619275","16110"
"036195","16110"
"811293","16440"
"683654","16290"
"311963","16110"
"948644","16120"
"148427","16560"
"385235","16140"
"810285","16460"
"775483","16730"
"903809","16000"
"344965","16200"
"788066","16410"
"886277","16000"
"451421","16000"
"831440","16000"
"052336","16440"
"624661","16410"
"052459","16190"
"298617","16440"
"552231","16400"
"559283","16250"
"358804","16710"
"548018","16250"
"976442","16600"
"427843","16600"
"949221","GOND PONTOUVRE"
"841962","16000"
"885063","16110"
"664725","16710"
"098978","16290"
"012227","16570"
"452888","16290"
"489296","16730"
"870008","16140"
"365535","16730"
"877903","16440"
"426081","16000"
"025878","16320"
"662929","16000"
"768528","16000"
"090410","16600"
"707299","16000"
"269779","16160"
"331191","16730"
"041162","16000"
"155331","16000"
"619032","16000"
"103044","16400"
"434657","16600"
"075144","16400"
"536610","16430"
"991350","16000"
"055713","16570"
"884717","16000"
"860737","16710"
"052350","16710"
"567158","16000"
"021477","16430"
"791998","16000"
"242147","16470"
"372964","16400"
"220112","16000"
"382420","16590"
"901869","16000"
"155488","16600"
"603796","16000"
"818801","16800"
"911339","16600"
"045836","16000"
"703538","16570"
"535149","16400"
"345267","16710"
"212260","16110"
"956995","16710"
"664128","16600"
"948505","16710"
"828925","16000"
"880900","16430"
"052199","16410"
"415315","16170"
"899588","16730"
"222988","16220"
"961834","16000"
"226520","16600"
"491291","16340"
"601876","16290"
"388688","16470"
"737928","16330"
"457282","16600"
"763268","16560"
"221862","16710"
"365269","16000"
"682128","16120"
"951026","16160"
"189827","16000"
"605420","16450"
"701593","16290"
"688592","16410"
"744301","16440"
"700469","16400"
"338167","16400"
"086426","16009"
"326989","16000"
"174483","16000"
"896978","16200"
"683526","16600"
"769062","16320"
"905766","16000"
"419043","16340"
"127215","16730"
"117404","16000"
"645428","16440"
"537021","16000"
"494957","16600"
"500263","16430"
"406089","16000"
"544855","16470"
"519362","16730"
"467964","16000"
"163309","16570"
"053742","16000"
"642207","16800"
"374046","16800"
"858750","16440"
"589872","16570"
"350325","16000"
"954354","16710"
"357468","16000"
"067916","16800"
"494636","16400"
"180490","16160"
"839363","16000"
"846301","16730"
"919687","16160"
"849284","16170"
"267519","16340"
"672280","16730"
"875161","16600"
"365228","16000"
"853135","16400"
"618224","16000"
"851515","16430"
"572883","16800"
"586281","16000"
"256739","16290"
"414178","16120"
"256605","16410"
"413158","16340"
"050609","16160"
"792014","16000"
"677653","16380"
"765215","16710"
"987275","16730"
"137851","16000"
"213328","16600"
"144127","16290"
"603377","16600"
"635742","16000"
"879715","16000"
"417264","16340"
"800152","16290"
"950299","16400"
"280111","16110"
"144126","16440"
"630288","16470"
"047381","16400"
"116922","16440"
"242955","16160"
"866094","16000"
"314562","16000"
"273186","16800"
"443616","16380"
"301772","16410"
"398450","16160"
"932222","16220"
"668563","16440"
"663885","16230"
"819622","16160"
"326900","16440"
"669356","16600"
"510566","16330"
"478186","16440"
"361518","16380"
"938219","16730"
"359576","16730"
"272822","16410"
"926455","16600"
"358686","16000"
"368589","16160"
"522119","16000"
"127184","16230"
"108411","16800"
"110586","16600"
"070427","16730"
"015063","160000"
"793226","16400"
"209628","16600"
"331476","16600"
"961436","16000"
"657381","16000"
"568916","16380"
"594836","16600"
"736644","16000"
"386398","16220"
"331838","16120"
"047810","16570"
"244858","16000"
"140603","16800"
"043945","16000"
"506881","16000"
"805556","16560"
"138191","16440"
"708345","16000"
"748248","16000"
"164201","16710"
"295809","16570"
"076081","16000"
"939213","16400"
"634741","16000"
"682318","16590"
"967714","16000"
"790082","16000"
"681748","16000"
"797380","16470"
"114679","16730"
"784293","16730"
"676300","16800"
"170768","16160"
"961658","16600"
"428651","16600"
"573081","16590"
"891810","16120"
"132165","16410"
"480458","16600"
"941959","16710"
"173713","16000"
"623063","16440"
"147816","16710"
"707219","16330"
"124487","16000"
"211082","16000"
"864946","16440"
"418373","16000"
"216465","16730"
"723929","16400"
"009231","16220"
"343966","16400"
"374041","16400"
"273537","16730"
"204634","16290"
"629874","16440"
"428915","16380"
"366156","16000"
"107429","16320"
"062280","16000"
"178099","16110"
"832625","16110"
"919133","16000"
"834855","16000"
"497234","16440"
"476445","16590"
"936010","16400"
"065297","16000"
"489571","16000"
"326245","16000"
"156482","16330"
"508553","16400"
"211416","16600"
"518790","16600"
"332561","16600"
"144058","16600"
"262441","16410"
"336006","16710"
"175704","16160"
"687592","16000"
"332232","16000"
"646299","16100"
"352682","16600"
"690896","16000"
"349843","16300"
"447576","16800"
"929932","16440"
"208321","16600"
"882262","16800"
"790776","16 800"
"423919","16800"
"315345","16600"
"735390","16110"
"804499","16000"
"475909","16800"
"392857","16440"
"598770","16710"
"472300","16710"
"315682","16430"
"368262","16800"
"077141","16320"
"481778","16000"
"962263","16000"
"027588","16120"
"794704","16000"
"108444","16440"
"866630","16560"
"061115","16600"
"866591","16800"
"059070","16590"
"074007","16340"
"184546","16560"
"811440","16730"
"003604","16000"
"507741","16290"
"610387","16730"
"938210","16560"
"439618","16730"
"420103","16430"
"387751","16410"
"675764","16470"
"350275","16430"
"035059","16560"
"574853","16000"
"424474","16730"
"730120","16000"
"747468","16700"
"883466","16600"
"659071","16400"
"162064","16730"
"425629","16560"
"459095","16200"
"250250","16160"
"524524","16400"
"881331","16730"
"700477","16730"
"222734","16440"
"208374","16440"
"890818","16220"
"095005","16400"
"322445","16340"
"771379","16730"
"280204","16800"
"804212","16110"
"399251","16290"
"848362","16800"
"794898","16160"
"670179","16110"
"320652","16330"
"520966","16600"
"363757","16430"
"680865","16710"
"341412","16410"
"112283","16250"
"346316","16600"
"752068","16800"
"028762","16440"
"539624","16410"
"000068","16430"
"827036","16590"
"426546","16400"
"797128","16730"
"300622","16410"
"291277","16270"
"702667","16000"
"823449","16340"
"754197","16730"
"891668","16600"
"404003","16000"
"830733","16600"
"142798","16700"
"647645","16000"
"883068","16710"
"417331","16560"
"363573","16600"
"474530","16600"
"416473","16160"
"648981","16000"
"468246","16410"
"034841","16410"
"268672","16730"
"709176","16000"
"784735","16400"
"382911","16440"
"667406","16110"
"692424","16000"
"289643","16000"
"108590","16000"
"213382","16000"
"197938","16410"
"950140","16410"
"090838","16290"
"319259","16600"
"489248","16800"
"985475","16000"
"418152","16000"
"935151","16000"
"851657","16410"
"980869","16250"
"821701","16560"
"357103","16000"
"290935","16400"
"542716","16000"
"314967","16440"
"618492","16290"
"508921","16410"
"376995","16430"
"794652","16730"
"262815","16730"
"184855","16260"
"623858","16000"
"308590","16330"
"646124","16380"
"740745","16290"
"970575","16140"
"404058","16400"
"249971","16160"
"002778","16000"
"251066","16400"
"767566","16000"
"244461","16410"
"731191","16000"
"454052","16160"
"143416","86100"
"224596","16000"
"116263","16230"
"238333","16560"
"095609","16440"
"548356","16800"
"461204","16600"
"854026","16800"
"977538","16260"
"489350","16600"
"533028","16440"
"939597","16230"
"941955","16000"
"104757","16710"
"244404","16000"
"219738","16160"
"146054","16110"
"837070","16000"
"072929","16600"
"845910","16000"
"554970","16000"
"770779","16000"
"586075","16300"
"123941","16000"
"049522","16470"
"047964","16000"
"658505","16600"
"048154","16410"
"763043","16300"
"595443","16800"
"324628","16380"
"080303","SAINT-PROJET SAINT-CONSTANT"
"139511","16600"
"038684","16400"
"417770","16600"
"132813","16200"
"495371","16320"
"762706","16000"
"893570","16430"
"483603","16440"
"065654","16590"
"223933","16400"
"855852","16430"
"024316","16600"
"591058","16400"
"915166","16440"
"165680","16410"
"546643","16000"
"395075","16300"
"384885","16000"
"600202","16430"
"655502","16170"
"421785","16340"
"882130","16160"
"687701","16380"
"014703","16400"
"346971","16000"
"927639","16340"
"745790","16400"
"915387","16410"
"972400","16000"
"495383","16730"
"100759","16400"
"383023","16160"
"351624","16000"
"249137","16730"
"564097","16430"
"870850","16470"
"214258","16310"
"913036","16800"
"061699","16120"
"875455","16290"
"289553","16000"
"787304","16120"
"587245","16600"
"521771","16000"
"234055","16340"
"830611","16730"
"636490","16730"
"934459","16340"
"854549","16730"
"355064","16430"
"265517","16600"
"094900","16430"
"579587","16600"
"108520","16600"
"729541","16000"
"516845","16600"
"730966","16000"
"861367","16000"
"325399","16110"
"432937","16410"
"008366","16000"
"492039","16410"
"799646","16800"
"849508","24410"
"386170","16230"
"174782","16160"
"555262","16440"
"049786","16440"
"561496","16410"
"735729","16000"
"799832","16400"
"758825","16410"
"452495","16600"
"176394","16600"
"710755","16170"
"552581","16000"
"652192","16720"
"711763","16430"
"429170","16100"
"369080","16290"
"724653","86000"
"509750","16600"
"504393","16600"
"957627","16710"
"554446","16600"
"717464","16730"
"836160","16000"
"702625","16440"
"578444","16430"
"223357","16340"
"063464","16470"
"911752","16400"
"049834","16710"
"991109","16430"
"733130","16430"
"571938","16000"
"383795","16000"
"829429","16600"
"413149","16110"
"611195","16590"
"418630","16440"
"633707","16600"
"306564","16130"
"597216","16470"
"638281","16800"
"395409","16600"
"334157","16710"
"011947","16000"
"668290","16410"
"221912","16120"
"341866","16710"
"409123","16560"
"589366","16440"
"141587","16730"
"975910","16800"
"041758","16000"
"596342","16600"
"591646","16600"
"593064","16600"
"018022","16600"
"366517","16590"
"231990","16440"
"191260","16560"
"033783","16400"
"113936","16730"
"413203","16120"
"698399","16730"
"540559","16560"
"255753","160000"
"382888","16000"
"645719","16410"
"570563","16410"
"145139","16600"
"630679","16340"
"061110","16600"
"161089","16000"
"589324","16290"
"541015","16440"
"164691","16600"
"531156","16000"
"868833","16000"
"982811","16800"
"374341","16000"
"682879","16590"
"378259","16590"
"951764","16600"
"800198","16410"
"090184","16590"
"245976","16600"
"018907","16000"
"847016","16160"
"562680","16410"
"530671","16600"
"978165","16000"
"565331","16410"
"638497","24340"
"151706","16290"
"006905","16410"
"894048","16440"
"705261","16000"
"280083","16430"
"771427","16340"
"538550","16600"
"312550","16600"
"785918","16000"
"658968","16470"
"540724","16600"
"294946","16600"
"285747","17260"
"996249","16600"
"191943","16400"
"164002","16600"
"412221","16600"
"018810","16290"
"461167","16290"
"530003","16000"
"681998","16160"
"300235","16310"
"293640","16410"
"378070","16800"
"093014","16000"
"038940","16170"
"860288","16160"
"146792","16330"
"018681","16800"
"030067","16440"
"766716","16110"
"562135","16000"
"763567","16000"
"030039","16440"
"369862","16230"
"629077","16430"
"588107","16600"
"891096","16340"
"692087","16440"
"270793","16590"
"346307","16000"
"428207","16380"
"295114","16000"
"733443","16600"
"443869","16000"
"518829","16200"
"875773","16000"
"566437","16110"
"048767","16410"
"036459","16710"
"974607","16600"
"577530","16600"
"714680","16730"
"082494","16000"
"556735","16330"
"332404","16380"
"183152","16620"
"944052","16310"
"337876","16220"
"347338","16000"
"810413","16440"
"410614","16000"
"977324","16440"
"250553","16800"
"050612","16440"
"589561","16000"
"558927","16000"
"564115","16440"
"065725","16590"
"091164","16600"
"528791","16470"
"907258","16290"
"361118","16400"
"534362","16600"
"870815","16160"
"527204","16000"
"810267","16000"
"218394","16400"
"046848","16000"
"286587","16290"
"508398","16000"
"069529","16220"
"624936","16000"
"507686","16000"
"338042","16400"
"693107","16600"
"380060","16600"
"427277","16300"
"774342","16000"
"712311","16600"
"363311","16600"
"255890","16600"
"867857","16000"
"927990","16410"
"801710","16000"
"714449","16440"
"767948","16410"
"758491","16440"
"717194","16290"
"075190","16410"
"065494","16470"
"760984","16025"
"797822","16000"
"510649","16330"
"885793","16270"
"954809","16110"
"579048","16110"
"329840","16160"
"817517","16400"
"965874","16000"
"328068","16730"
"820377","16160"
"737735","16160"
"718820","16600"
"106495","16000"
"488783","16000"
"237090","16600"
"860800","16320"
"173995","16190"
"383013","16590"
"704789","16600"
"314820","16290"
"429866","16000"
"600010","16160"
"070431","16000"
"667552","16250"
"568609","16000"
"547109","16800"
"185045","16600"
"210065","16440"
"190252","16430"
"649508","16330"
"713816","16440"
"110626","16600"
"876337","16440"
"385780","16000"
"302008","16410"
"274571","16000"
"413835","16590"
"766350","16340"
"215903","16400"
"722178","16600"
"026554","16170"
"735775","86000"
"004001","16250"
"015545","16600"
"464974","16110"
"872711","16230"
"150685","16800"
"692610","16000"
"891542","16600"
"930568","16000"
"207025","16000"
"116885","16290"
"402482","16560"
"002305","16570"
"336644","16000"
"300559","16430"
"016569","16710"
"384837","16730"
"208753","16160"
"918658","16340"
"784171","16000"
"297495","16410"
"994767","16000"
"532647","16410"
"344916","rue basse"
"699082","16250"
"482334","16410"
"378658","16410"
"723434","16710"
"137044","17460"
"025807","16400"
"631492","16300"
"928561","16590"
"498442","16440"
"649287","16560"
"569155","16730"
"090094","16340"
"071458","16000"
"951352","16600"
"438737","16590"
"928679","16600"
"698195","16000"
"274580","16730"
"533761","16430"
"434087","16590"
"254779","16400"
"526165","16160"
"533307","16340"
"839013","16250"
"944978","16170"
"544833","16000"
"104499","16000"
"668303","16340"
"893961","16160"
"300739","16440"
"151076","16440"
"284602","16160"
"285586","16000"
"983188","16440"
"590551","16440"
"415511","16440"
"524477","16000"
"304755","16440"
"425314","16800"
"990772","16410"
"721775","16330"
"571369","16330"
"894995","16710"
"553660","16800"
"842287","16440"
"712355","16570"
"931467","16000"
"597263","16410"
"092840","16000"
"028809","16470"
"163206","16000"
"509574","16800"
"362191","16000"
"911937","16000"
"766330","16400"
"054798","16720"
"859368","16200"
"397152","16440"
"316200","16600"
"503334","16290"
"260159","16710"
"576482","16200"
"168855","16600"
"990813","16120"
"965553","16710"
"334813","16000"
"893397","24300"
"256547","16110"
"224869","16000"
"355103","16590"
"915573","16590"
"117920","16000"
"378839","16400"
"620744","16600"
"282797","16600"
"444798","16000"
"991268","16000"
"282651","16000"
"426269","16000"
"896633","16710"
"059165","16710"
"445188","16400"
"262108","16000"
"421644","16440"
"964050","16000"
"872780","16430"
"954281","16230"
"936874","16600"
"553387","16600"
"005355","16400"
"044124","16400"
"451863","16410"
"259987","les villas du festival"
"146335","16430"
"785803","16400"
"063981","16590"
"467102","16800"
"244960","16230"
"048101","16730"
"447955","16730"
"277160","16800"
"718282","16000"
"440483","16430"
"094675","16000"
"841497","16000"
"212719","16440"
"003018","16000"
"646368","16230"
"840101","16000"
"937701","16800"
"770736","16600"
"664116","16000"
"573362","16000"
"611963","16410"
"444362","16470"
"249850","16000"
"497782","16200"
"530109","16470"
"325344","16440"
"384084","16600"
"912754","16440"
"309360","16440"
"598059","16250"
"898979","16000"
"466234","16410"
"202604","16000"
"462462","16730"
"489539","16380"
"076615","16000"
"876092","16470"
"211549","16440"
"934136","16430"
"342123","16290"
"834756","16430"
"083096","16430"
"643862","16260"
"788490","16380"
"847023","16110"
"110572","16440"
"020816","16290"
"362765","16400"
"735008","168000"
"609288","16120"
"002683","16000"
"238781","16730"
"068039","16290"
"513757","16440"
"882331","16800"
"916909","16200"
"073506","16000"
"580178","16600"
"184714","16410"
"575124","16400"
"196911","16430"
"533535","16000"
"653264","16590"
"230912","16470"
"086936","16000"
"456104","16000"
"020790","rue du colombage"
"010220","16410"
"803148","16730"
"380236","16600"
"634141","16340"
"777085","16800"
"620864","16000"
"290487","16570"
"469064","16000"
"366196","16590"
"062953","16710"
"503597","16100"
"801523","16800"
"269135","16160"
"988715","16340"
"615682","16000"
"694689","16290"
"274790","16120"
"195093","16000"
"568459","16270"
"954324","16000"
"864429","16000"
"861017","16440"
"056562","16440"
"191370","16400"
"311949","16290"
"822106","16440"
"820722","16110"
"229686","16730"
"584618","16600"
"208303","16160"
"145702","16200"
"302016","16000"
"528117","16000"
"973246","16710"
"527237","16400"
"866003","16 160"
"059433","16210"
"055123","16440"
"958400","16440"
"492738","16340"
"653593","16000"
"771648","16000"
"393015","16110"
"227474","16000"
"964158","16440"
"977229","16160"
"048549","16400"
"591671","16710"
"293381","16200"
"816779","16710"
"187834","16000"
"644982","16440"
"389394","16130"
"846810","16000"
"670894","16290"
"110553","16600"
"335016","16000"
"505532","16710"
"333463","16710"
"799029","16710"
"759400","16290"
"865844","16710"
"055471","rue Albert Duchaigne"
"851112","16170"
"017774","16000"
"119269","16570"
"845114","16310"
"335074","16430"
"935249","16000"
"430350","16000"
"835801","16720"
"570930","16160"
"302631","16600"
"975958","16000"
"302950","16200"
"079381","16600"
"258894","24410"
"913219","16440"
"097801","16400"
"602539","16160"
"931666","16000"
"918342","16000"
"957511","16400"
"189458","16000"
"423157","16290"
"641439","16400"
"207187","16570"
"654352","16290"
"117659","16730"
"328038","16410"
"358759","16410"
"475160","16410"
"377319","16440"
"673185","16000"
"115061","16600"
"527487","16160"
"921498","16190"
"673111","16400"
"991541","16400"
"079480","16730"
"202633","16120"
"348186","16800"
"458730","16000"
"952816","16430"
"854088","16330"
"637401","16440"
"418044","16000"
"443577","16000"
"897479","16000"
"050576","16560"
"936747","16730"
"185581","16730"
"072935","16000"
"622991","16000"
"405313","16600"
"511401","16250"
"744096","16410"
"549728","16430"
"778246","16800"
"123655","16000"
"772590","16440"
"094825","16440"
"547539","16600"
"700002","16560"
"578649","16440"
"602154","16000"
"673811","16590"
"012275","16000"
"250355","16290"
"327153","16460"
"729290","16710"
"911648","16000"
"446393","16410"
"166338","16380"
"956435","16430"
"860750","16000"
"662753","16000"
"745330","16200"
"855109","16710"
"822312","16440"
"721773","16430"
"310973","16340"
"661543","16000"
"694007","16140"
"067932","16110"
"026863","16160"
"782737","17100"
"801430","16710"
"124465","16000"
"304904","16430"
"713893","16000"
"878874","16730"
"897582","16120"
"482295","16600"
"991618","16430"
"094834","16730"
"270332","16380"
"185945","16710"
"657999","16290"
"870643","16410"
"656367","16400"
"124581","16600"
"324468","16600"
"847969","16410"
"867045","16430"
"880029","16590"
"602023","16560"
"397703","16340"
"783821","16000"
"089353","16710"
"445807","16330"
"189695","16000"
"632172","16600"
"731245","16410"
"041552","16410"
"303050","16600"
"438067","16000"
"082137","16340"
"102770","16800"
"645163","16000"
"125080","16290"
"862003","16590"
"114882","16400"
"723363","24340"
"759426","16250"
"502947","16000"
"714124","16190"
"631157","16190"
"920051","16000"
"795713","16290"
"987190","16290"
"989089","16000"
"092022","16000"
"214013","16400"
"418552","16410"
"158336","16730"
"198333","24490"
"860881","24490"
"228471","16730"
"015400","16000"
"914517","16440"
"992735","16600"
"630076","16440"
"294249","16560"
"634556","16730"
"534549","16160"
"082087","16410"
"504125","16800"
"126874","16710"
"526996","16710"
"140263","16440"
"322632","16430"
"419477","86180"
"194851","16600"
"892305","16710"
"098294","16300"
"893405","16430"
"039116","16340"
"719612","16430"
"080535","16560"
"370107","16730"
"534504","16710"
"249090","16000"
"239557","16120"
"691489","16230"
"833277","16440"
"255282","16000"
"699731","16120"
"578292","16200"
"150746","16430"
"572395","16600"
"541785","16380"
"228053","16730"
"393542","16440"
"910572","16730"
"843994","16800"
"082052","16000"
"293174","16600"
"504987","16160"
"776386","16000"
"795760","86000"
"050614","16000"
"662672","16710"
"240430","16170"
"593445","16290"
"938704","16730"
"101510","16440"
"515505","16330"
"962854","16110"
"118512","16160"
"515569","16290"
"059659","16400"
"042927","16320"
"788462","16800"
"450657","16800"
"688063","16000"
"324353","16000"
"815719","16130"
"133883","16160"
"196010","16410"
"692845","16800"
"113264","16110"
"128194","16600"
"869000","16340"
"763038","16430"
"273788","16000"
"390312","16000"
"035928","16170"
"799041","16000"
"546836","16440"
"965092","16730"
"022634","16710"
"330328","16600"
"049592","16600"
"267812","16430"
"803799","16000"
"580923","16400"
"107405","16730"
"323043","16590"
"466226","16120"
"765718","16440"
"073786","16730"
"161239","16340"
"643637","16330"
"958653","16000"
"571046","16340"
"410253","16160"
"336593","16730"
"834652","16290"
"151237","16730"
"452765","16160"
"521325","16800"
"435206","16000"
"597445","16330"
"918919","16600"
"674591","16000"
"204099","16000"
"603487","16340"
"475129","16400"
"512363","16440"
"447851","16440"
"354264","16600"
"511570","16710"
"312201","16430"
"601620","16300"
"908219","16320"
"542783","16730"
"436690","16300"
"515478","16440"
"796864","16300"
"685655","16160"
"267861","16419"
"650534","16590"
"621139","16000"
"488741","16100"
"147515","16000"
"337533","16730"
"598451","16710"
"126030","16160"
"210103","16170"
"936404","16730"
"075311","16730"
"363013","16470"
"029445","16110"
"150649","16000"
"942659","16410"
"678059","16710"
"766766","16470"
"294325","16300"
"067822","16000"
"552540","16230"
"051536","16000"
"160440","16710"
"468275","16710"
"022092","16290"
"822477","16800"
"517026","86180"
"570436","16440"
"359074","16710"
"149053","16470"
"905397","16120"
"610287","16200"
"274266","16400"
"915076","16730"
"406028","16430"
"712841","16230"
"588213","16400"
"616161","16590"
"006646","16400"
"797954","16340"
"760974","16590"
"568987","1659"
"240407","16600"
"670815","16600"
"304763","16440"
"650733","16710"
"557256","16560"
"476756","16440"
"025563","16250"
"011870","1660"
"168360","16000"
"351910","16340"
"874937","16000"
"239259","16440"
"333081","16160"
"711142","16440"
"146648","16410"
"590427","16440"
"952850","16110"
"647915","16110"
"220151","16430"
"676202","16600"
"622979","16000"
"767046","16600"
"610815","16730"
"950959","16800"
"953223","16600"
"100698","16000"
"255072","16800"
"030481","1680"
"900059","16120"
"276403","16440"
"528685","16590"
"266948","16220"
"900561","16440"
"408603","16560"
"912145","16190"
"047307","16000"
"266210","16730"
"200524","16730"
"324932","16400"
"361734","16730"
"816786","16800"
"625803","16440"
"935907","16600"
"106353","16250"
"051404","16440"
"295588","16600"
"406568","16730"
"821176","16400"
"880318","16600"
"701543","16730"
"105947","16400"
"336425","16340"
"062745","16800"
"622613","16440"
"123320","16710"
"608508","16160"
"364296","16000"
"993433","16600"
"310276","16410"
"942687","16120"
"328054","16110"
"937428","16800"
"822655","16160"
"019503","16470"
"419261","16440"
"079596","16000"
"504647","24340"
"140378","16440"
"712965","16000"
"544393","16430"
"223170","16410"
"381328","16170"
"898132","16000"
"340103","16590"
"656937","16400"
"020509","16800"
"674538","16440"
"582615","16440"
"443157","16330"
"787077","16730"
"225372","16170"
"339040","16400"
"290376","16400"
"950624","16330"
"907817","16440"
"946186","16600"
"781375","16440"
"760857","16000"
"193416","16440"
"388232","16600"
"964026","16160"
"612030","16290"
"049068","16000"
"367935","16200"
"471002","16290"
"615154","16730"
"361568","16330"
"838732","16600"
"282269","16590"
"293459","16160"
"607207","24320"
"978586","16340"
"652006","16560"
"466328","16430"
"492582","16430"
"297559","16600"
"967376","16410"
"281691","16000"
"899589","16440"
"407526","16120"
"691574","16000"
"358598","16000"
"270094","16000"
"604271","16600"
"222714","16430"
"033785","16290"
"799856","16800"
"380015","16380"
"724674","16800"
"126083","16560"
"821325","16000"
"965043","16000"
"400143","16000"
"983976","16470"
"348167","16410"
"765546","16290"
"343141","16000"
"386795","16410"
"798682","16600"
"713538","16710"
"815718","16170"
"877325","16000"
"146854","NULL"
"978321","16110"
"380404","16000"
"519226","16000"
"251370","16600"
"481180","16340"
"786463","16340"
"956222","16160"
"308129","16730"
"637696","16590"
"414859","16590"
"699118","16300"
"303746","16400"
"289231","16590"
"108056","16000"
"284650","16000"
"822344","16470"
"339087","16000"
"597012","16600"
"206100","16000"
"034242","16470"
"041562","16000"
"621062","16410"
"645211","16380"
"218090","16000"
"898930","16000"
"743553","16110"
"348893","16440"
"362209","16190"
"817751","16200"
"610912","16340"
"586591","16600"
"359362","16430"
"207826","16340"
"739719","16400"
"485064","16730"
"203843","16710"
"275450","16600"
"302735","16140"
"995374","16000"
"291513","16600"
"108472","16600"
"656295","16600"
"481276","16430"
"719646","16570"
"577161","16340"
"278465","16330"
"913181","16110"
"691210","16000"
"785591","16110"
"507927","16230 "
"528425","16600"
"711255","16470"
"723672","16340"
"560370","16340"
"556050","16110"
"098880","16160"
"644805","16000"
"337591","16440"
"871378","16000"
"737019","16110"
"755667","16340"
"874231","16560"
"499100","16440"
"223744","16440"
"101874","16800"
"736776","16800"
"061894","16110"
"686737","16600"
"291796","16110"
"723485","16160"
"864006","16340"
"546921","16600"
"833267","16560"
"777002","16000"
"155077","16600"
"107308","16410"
"401747","16710"
"998883","16430"
"179944","16250"
"818068","16410"
"382034","16290"
"161027","16160"
"678566","16400"
"897590","16000"
"441389","16000"
"022692","16410"
"889078","16000"
"306295","16710"
"349921","16380"
"009788","16800"
"636561","16200"
"608165","16600"
"464530","16320"
"903413","16250"
"725302","16290"
"715814","16440"
"278882","16600"
"723556","16440"
"400214","16250"
"098367","16160"
"298459","16800"
"819114","16160"
"198311","16000"
"917737","16110"
"954339","16600"
"903547","16000"
"251920","16410"
"877664","16000"
"712905","16600"
"041273","16000"
"437792","16160"
"240499","16730"
"093120","16000"
"104243","16600"
"918886","16290"
"854776","24320"
"904408","16500"
"585545","16000"
"629517","16590"
"266155","16570"
"150831","16430"
"955428","16560"
"272362","16230"
"353174","16470"
"533955","16000"
"808001","16400"
"567762","16600"
"051192","16560"
"789833","16710"
"504450","16340"
"265990","16600"
"422590","16460"
"598203","16430"
"895724","16600"
"698817","16600"
"274269","16400"
"635409","16470"
"146471","16400"
"072947","16400"
"017619","16590"
"428726","16440"
"267662","16440"
"944869","16120"
"064869","16400"
"545576","16440"
"234117","16800"
"183767","16600"
"087955","16330"
"959509","16000"
"016251","16400"
"437647","16560"
"869837","16000"
"713841","16000"
"150940","16430"
"550088","16000"
"181579","16330"
"591253","16440"
"222530","16000"
"130843","16600"
"433918","16000"
"217795","16410"
"918674","16000"
"717324","16000"
"172728","16290"
"417316","16000"
"277032","16440"
"421843","16430"
"793974","16000"
"534889","16700"
"221103","16800"
"052361","16800"
"923454","16000"
"743002","16230"
"634770","16600"
"197704","16710"
"589466","16710"
"259169","16000"
"678396","16440"
"859073","16000"
"487901","16400"
"452619","16710"
"001365","16959"
"572466","16730"
"880674","16600"
"995959","16200"
"464197","16110"
"180581","16330"
"466901","16400"
"213849","16250"
"871529","16600"
"071185","16600"
"859324","16710"
"130595","16800"
"024311","16730"
"921978","16000"
"463738","16430"
"427074","16600"
"814236","16300"
"275256","16190"
"219426","16130"
"745594","16110"
"855224","16600"
"989308","16320"
"667651","16470"
"754385","16590"
"969486","16400"
"096141","16430"
"869420","16000"
"514543","16710"
"941939","16570"
"806510","16000"
"271285","16380"
"152319","16410"
"981161","16590"
"028985","16110"
"496032","16000"
"544538","16320"
"859496","16590"
"675133","16110"
"404793","16430"
"401353","16160"
"343678","16440"
"660137","16000"
"479737","16160"
"358950","16160"
"397517","16000"
"186675","16260"
"231125","16600"
"741446","16000"
"583666","16600"
"972505","16240"
"720325","16410"
"323773","16800"
"602172","16000"
"029455","16440"
"955269","16000"
"454715","16000"
"028959","16230"
"639872","16590"
"005003","16590"
"345845","16000"
"515834","16340"
"701663","16460"
"793319","16730"
"760709","16470"
"633219","16000"
"688562","16600"
"754078","16400"
"789526","16190"
"028449","16130"
"355593","16110"
"992037","16110"
"973689","16410"
"574208","16160"
"913050","87600"
"337588","16440"
"191076","16110"
"608102","17210"
"935282","16410"
"571294","16160"
"776652","16600"
"724199","16600"
"061488","16230"
"580489","16430"
"527040","16440"
"126328","16560"
"343438","16400"
"619127","16000"
"900837","16000"
"823303","16410"
"865556","16200"
"324054","16200"
"533106","16390"
"622093","16330"
"450253","16270"
"550984","16000"
"008920","16200"
"767275","16470"
"115035","16200"
"805879","16590"
"213313","16000"
"116858","16400"
"142536","16400"
"852936","16410"
"219742","16000"
"924369","16190"
"572361","16730"
"466600","16440"
"102761","16340"
"251693","33138"
"641700","16000"
"016002","16120"
"908550","16290"
"769918","16600"
"342371","16470"
"328323","16000"
"080541","86400"
"833740","16290"
"898178","16470"
"694507","16000"
"236162","16400"
"077973","16400"
"279333","16440"
"405273","16330"
"866723","16340"
"426181","16400"
"031667","16120"
"349289","16600"
"814321","16340"
"020499","16710"
"328884","16340"
"667162","16730"
"294193","16110"
"047407","16800"
"016505","16000"
"685453","16400"
"178148","16470"
"177389","16200"
"234484","16200"
"095603","16600"
"597366","16590"
"577438","16440"
"726986","16440"
"573075","16120"
"462052","16800"
"607109","16330"
"433963","16160"
"336150","16120"
"180232","16000"
"156389","16330"
"581484","16430"
"259269","16000"
"349783","16600"
"028402","16730"
"505009","16000"
"128896","16000"
"801908","16600"
"046515","16290"
"089988","16170"
"193917","16430"
"101231","16000"
"361725","16560"
"157163","16600"
"306280","16730"
"179405","16410"
"312193","16590"
"050895","16570"
"464320","16430"
"394930","16400"
"203191","16710"
"785060","16400"
"621310","16600"
"589424","16600"
"510803","16600"
"436636","16000"
"061461","16590"
"147904","16440"
"513932","16600"
"601019","16000"
"338917","16000"
"500601","16000"
"067468","16400"
"145842","16000"
"950686","16710"
"834577","16430"
"870830","16710"
"573924","16 600"
"723964","16600"
"568679","16380"
"172938","16590"
"375153","16000"
"862121","16220"
"375759","16430"
"621493","16140"
"466642","16430"
"179662","16340"
"293806","16600"
"492524","16430"
"549056","16600"
"630102","16590"
"750755","16600"
"828644","16590"
"770876","16600"
"882455","16120"
"295217","16230"
"179197","16800"
"284764","16410"
"749046","16590"
"633402","16800"
"902474","17490"
"784346","16730"
"792615","16000"
"709829","16110"
"546465","16000"
"126382","16430"
"508366","16230"
"553437","16000"
"925618","16470"
"254326","16110"
"384402","16800"
"845634","16440"
"239836","16600"
"764698","16000"
"569656","16430"
"608795","16310"
"744228","16430"
"236032","16600"
"809551","16600"
"532345","16000"
"184713","16730"
"381802","16000"
"043618","16440"
"699983","17100"
"764297","86000"
"213981","16230"
"099603","16330"
"040455","16410"
"362662","16710"
"283883","16110"
"813258","16600"
"098155","16730"
"894927","16250"
"664430","16470"
"472328","16600"
"580556","16590"
"335819","16000"
"444833","16430"
"699837","16000"
"471486","16160"
"076393","16110"
"547516","16600"
"775473","16000"
"335898","16000"
"254924","16140"
"392707","16600"
"337566","16400"
"601626","16440"
"366463","16290"
"041697","16000"
"548346","16710"
"530212","16000"
"818438","16000"
"681503","16560"
"780415","16300"
"754129","16290"
"244154","16710"
"885871","16250"
"850671","17130"
"356472","86000"
"571658","16600"
"924122","16560"
"173705","16570"
"763830","16410"
"970430","16440"
"162273","16710"
"161695","16120"
"033949","16410"
"769434","16000"
"142932","16160"
"705629","16000"
"608078","16400"
"838196","16230"
"831939","16160"
"735828","16730"
"862170","16730"
"016902","16730"
"202954","16250"
"107185","16000"
"468668","16290"
"521187","16400"
"278590","16230"
"540697","16400"
"102076","16430"
"629015","16410"
"226125","16320"
"761779","16440"
"910942","16440"
"500310","16340"
"578560","16440"
"439196","16800"
"620990","16430"
"989569","16330"
"599974","16000"
"030144","16440"
"994503","16600"
"656797","16160"
"975907","16430"
"128327","16730"
"127959","16400"
"152185","16400"
"203289","16200"
"173005","16740"
"418734","16590"
"087605","16470"
"539804","16200"
"690344","16000"
"950262","16430"
"297488","16710"
"251307","16000"
"421682","16000"
"747043","16440"
"479180","16400"
"469609","16120"
"802225","16800"
"927407","16400"
"860772","16440"
"853218","16380"
"697352","16110"
"469003","16000"
"113903","24410"
"521423","33000"
"990797","16470"
"175435","16440"
"268690","16000"
"265247","16170"
"758935","16170"
"747098","16340"
"779343","16730"
"427060","16440"
"626046","16600"
"885948","16440"
"460188","16440"
"948918","16000"
"260541","16730"
"682817","16000"
"357267","16470"
"738807","16340"
"179923","16600"
"954999","16590"
"940834","17210"
"769117","16600"
"344998","16440"
"077809","16270"
"419930","16000"
"489069","16400"
"425261","16430"
"596642","16600"
"565772","16560"
"264622","16600"
"652041","16600"
"553385","16600"
"985678","16560"
"919609","16710"
"932263","16000"
"339137","16000"
"878429","16440"
"725003","16400"
"086971","16730"
"155771","16730"
"426076","16710"
"986806","16340"
"800219","16000"
"839036","16000"
"468455","16410"
"413673","16590"
"502431","16000"
"247509","16440"
"641654","16000"
"564004","16220"
"211037","16000"
"150277","16000"
"238743","16000"
"467913","16000"
"522800","16600"
"178950","16000"
"462011","16000"
"709982","16110"
"888613","16200"
"479350","16330"
"239133","16220"
"892445","16440"
"718011","16600"
"409955","16470"
"622878","16170"
"399669","16000"
"066028","16000"
"104296","24660"
"522100","24660"
"963387","16700"
"388916","16240"
"180152","16570"
"724091","16140"
"309820","16170"
"491917","16700"
"814659","17500"
"983723","16200"
"738913","16140"
"050446","16140"
"403409","16460"
"569762","16400"
"927806","64110"
"902565","17460"
"287240","16000"
"451679","16170"
"507417","16170"
"460153","16140"
"890382","16700"
"692734","16230"
"855252","16700"
"467705","16170"
"202067","16700"
"505378","79110"
"087997","16140"
"572040","16330"
"510232","16240"
"709209","16140"
"875449","16170"
"278535","16140"
"494076","16700"
"537948","16700"
"567616","16230"
"927599","16140"
"618091","79110"
"522085","16700"
"177839","16140"
"264963","16140"
"895057","16240"
"636702","16240"
"421560","16570"
"926247","16000"
"493819","16330"
"649425","161040"
"991834","16200"
"865182","16140"
"813795","16230"
"696135","16730"
"102091","16240"
"489454","16230"
"047595","16730"
"664840","16110"
"958086","16800"
"381898","16410"
"058265","24660"
"521612","16330"
"611876","16400"
"975099","16400"
"721374","16000"
"514708","16160"
"335712","16110"
"709528","16570"
"957132","16000"
"551758","16440"
"838619","16600"
"838267","33800"
"373890","16000"
"734591","16000"
"968896","16000"
"380856","16600"
"615188","16160"
"514762","16400"
"333010","16220"
"634891","16710"
"778217","16000"
"110235","16730"
"733295","16710"
"322479","16000"
"628489","16710"
"048666","16710"
"791005","16000"
"218638","16000"
"755846","16710"
"350883","16230"
"835330","16000"
"540778","16160"
"868161","16110"
"286479","16600"
"339578","16110"
"972465","16800"
"130260","16590"
"949140","16000"
"959492","16430"
"232135","16000"
"516623","16160"
"966074","16000"
"570285","16430"
"287878","16400"
"176208","16410"
"012419","16000"
"874269","16440"
"069199","16800"
"991415","16230"
"149586","16730"
"760663","16120"
"368740","16570"
"481692","16400"
"435954","16380"
"915770","16440"
"740160","16220"
"200445","86210"
"262510","16110"
"752417","33000"
"831088","16440"
"802453","16400"
"186617","16470"
"274122","16730"
"629958","16260"
"223850","16000"
"165678","16260"
"343007","16730"
"821799","16730"
"306118","16730"
"466431","16120"
"807199","16000"
"536369","16400"
"407678","16000"
"433889","16440"
"872941","16200"
"851559","16730"
"073900","16570"
"331772","16560"
"388372","16750"
"242049","16380"
"321974","16250"
"430270","16170"
"131552","16400"
"093915","16600"
"279864","16440"
"180677","16200"
"174503","16000"
"878514","16440"
"618671","16430"
"599356","16120"
"033307","16730"
"849838","16400"
"602378","16300"
"455693","16450"
"089753","16110"
"981034","16230"
"311372","16430"
"460027","RESIDENCE LES CREUSILLES"
"140148","16710"
"014721","16710"
"011542","16000"
"555011","16410"
"338260","16440"
"554708","16400"
"336702","16440"
"731572","17490"
"392153","16440"
"572810","16560"
"894350","16000"
"641013","16000"
"318397","16410"
"074040","16440"
"350199","16730"
"450705","16440"
"075409","16600"
"764522","16190"
"112745","16710"
"766489","16460"
"201371","16330"
"158171","16000"
"732358","16260"
"915807","16710"
"449845","16440"
"712993","16710"
"141121","16400"
"156690","16000"
"780943","16560"
"959080","16000"
"561861","16120"
"313264","16450"
"472153","16290"
"192934","16430"
"549012","16380"
"660396","16000"
"528971","16110"
"963627","16800"
"577895","16110"
"928526","16730"
"662094","16600"
"974221","16110"
"183556","16440"
"054100","16800"
"609906","16250"
"124336","16410"
"957569","16570"
"466242","16600"
"585311","16000"
"068222","16000"
"530092","16330"
"115718","16000"
"082702","16590"
"392734","16410"
"046856","16120"
"768894","16570"
"468341","16460"
"929718","16400"
"804519","16600"
"633271","16000"
"901089","16000"
"576565","16800"
"383398","16410"
"041780","17520"
"853791","16410"
"987268","16410"
"180120","16410"
"840383","16590"
"051965","16710"
"032747","16200"
"260507","16400"
"855521","16000"
"917874","16000"
"998413","16440"
"963107","16600"
"186105","16600"
"104810","16440"
"821161","16600"
"049132","16000"
"279500","16000"
"111335","16410"
"103980","16000"
"909083","16410"
"510579","16400"
"829554","16160"
"055741","16100 "
"568480","16430"
"348391","16590"
"799518","16590"
"287569","16100"
"238385","16170"
"051898","16400"
"718337","16440"
"013263","16400"
"099096","16290"
"148464","16400"
"572774","16250"
"108959","16160"
"967403","16440"
"030987","16410"
"008383","86190"
"497657","16600"
"420611","16000"
"461550","16110"
"800086","16340"
"770036","16400"
"260638","16600"
"159236","16440"
"419452","86400"
"764680","16000"
"724907","16120"
"368811","17470"
"828566","16430"
"430994","16340"
"591200","16000"
"736998","16000"
"841769","16430"
"786319","16000"
"904501","16380"
"855392","16440"
"815095","16590"
"334152","16710"
"478970","16000"
"675681","16730"
"370020","16230"
"334879","16330"
"028358","16430"
"289609","16330"
"775212","16730"
"653939","16410"
"864430","16560"
"166803","16000"
"530929","16430"
"658421","16470"
"558233","16400"
"469990","16410"
"101547","16290"
"766566","16600"
"019099","16800"
"266393","16800"
"494223","16600"
"459303","16170"
"745886","16000"
"850235","16000"
"852927","16000"
"776295","16000"
"073233","16000"
"642230","16000"
"738191","16000"
"338985","16450"
"350466","16340"
"240145","16560"
"078224","16600"
"976189","16340"
"262359","16000"
"311447","16410"
"930006","16250"
"430417","16400"
"821864","16410"
"835537","16410"
"591334","16710"
"893080","16000"
"612968","16400"
"542639","16590"
"533813","16570"
"109095","16440"
"475024","16430"
"748147","16000"
"478914","16710"
"638424","16440"
"548587","16600"
"862187","16000"
"164661","16700"
"721915","16430"
"605099","16600"
"116746","16730"
"735766","16400"
"497663","16400"
"275143","16340"
"892498","16230"
"272723","16000"
"425888","16410"
"525959","16220"
"780825","16730"
"417763","16730"
"640231","16000"
"843526","16440"
"688946","16590"
"907187","16590"
"021076","16560"
"572056","16290"
"994470","16800"
"425748","86400"
"895343","16110"
"681919","16120"
"396290","16160"
"046387","16430"
"325450","86700"
"516554","16430"
"647167","16560"
"586226","16000"
"439381","16590"
"716056","16000"
"011873","16470"
"178658","16410"
"964338","16320"
"757618","16000"
"421524","16600"
"344399","16320"
"352162","16000"
"499552","16570"
"655749","16430"
"777314","16000"
"481001","16430"
"689788","16200"
"213786","16000"
"143086","16440"
"369906","16410"
"553240","16440"
"360205","16170"
"666842","16000"
"478380","16440"
"157569","16170"
"572536","16400"
"852273","16190"
"539256","16230"
"746848","16110"
"016075","16600"
"783981","16120"
"556694","16190"
"257984","16320"
"378608","16400"
"434851","16200"
"509228","16300"
"688525","16400"
"903892","16710"
"212176","16710"
"225783","16710"
"101924","16730"
"693406","16410"
"538354","86360"
"743232","16120"
"399429","16000"
"069341","16400"
"056904","16160"
"175080","16730"
"001862","16410"
"811964","16410"
"038432","16110"
"878496","16000"
"299013","16800"
"906724","16590"
"387325","16160"
"485702","16600"
"656854","16600"
"316181","16120"
"737428","16400"
"654181","16000"
"482544","16120"
"864412","16400"
"761982","16400"
"012540","16380"
"419249","16600"
"526546","16600"
"031814","16400"
"929798","16400"
"812582","16000"
"100872","16200"
"022268","16470"
"384841","16220"
"923338","16430"
"907155","16440"
"537095","16220"
"869421","16000"
"925172","16320"
"174244","16600"
"642227","16400"
"078860","16440"
"873077","16430"
"015565","16430"
"581387","16000"
"793332","16710"
"436885","16000"
"811477","16400"
"348049","16430"
"270814","16000"
"234656","16330"
"872561","16800"
"445403","16000"
"295031","16600"
"220909","16800"
"436911","16730"
"008750","16430"
"273219","16120"
"093473","16600"
"897451","16000"
"729582","16800"
"701866","16410"
"549128","16600"
"518987","16000"
"671505","16110"
"088346","16730"
"239356","16000"
"559095","16730"
"079583","16410"
"273413","16600"
"345717","16340"
"648303","16260"
"339941","16590"
"498667","16160"
"298611","16310"
"385829","16410"
"435982","16330"
"038668","16440"
"325670","16440"
"801420","16440"
"875605","16710"
"096235","16450"
"869737","16250"
"866840","16000"
"584989","16440"
"193564","16000"
"836761","16160"
"352546","16000"
"457162","16730"
"592705","16450"
"101599","16110"
"368935","16560"
"462515","16340"
"257981","16730"
"324063","16000"
"738317","16800"
"411875","16590"
"788571","16170"
"151908","16000"
"571265","16330"
"240266","16430"
"509674","16160"
"004934","16000"
"991410","16400"
"189064","16250"
"603143","16410"
"954005","16400"
"766390","16110"
"541688","16730"
"159408","16000"
"516522","16000"
"883925","16410"
"003668","16260"
"859926","16400"
"220775","16220"
"853698","16400"
"314110","16400"
"828869","16170"
"710147","16710"
"520607","16000"
"445993","16000"
"220048","16560"
"944184","16600"
"096300","16730"
"632560","16000"
"244233","16440"
"534826","16800"
"793811","16330"
"459250","16000"
"868857","16600"
"828077","16600"
"388901","16730"
"487836","16000"
"466537","16400"
"552366","16000"
"909205","16000"
"720197","16440"
"846034","16120"
"783458","16800"
"103901","16220"
"081759","16410"
"023535","16800"
"858266","16410"
"856762","16730"
"361574","16560"
"789005","16460"
"317123","16000"
"776722","16000"
"362974","16600"
"816075","16110"
"954419","16440"
"043671","16400"
"685078","16240"
"365208","16440"
"630896","16600"
"508158","16430"
"550757","16730"
"513688","16590"
"731038","16340"
"979342","16710"
"840531","16440"
"004187","16290"
"318655","16230"
"041505","16430"
"907097","16170"
"103558","16000"
"759365","16160"
"924210","16000"
"740222","16730"
"110980","16560"
"037568","16170"
"786539","16000"
"273226","16400"
"776030","16290"
"876568","16480"
"148807","16440"
"344179","16600"
"530724","16600"
"672209","16000"
"314169","16440"
"409784","33240"
"473953","16000"
"933735","16600"
"211579","16400"
"820615","16000"
"350711","16600"
"688880","16000"
"149301","16600"
"151221","16410"
"660303","16000"
"665204","16440"
"742130","16170"
"759270","16410"
"905341","16440"
"921979","16710"
"397521","16800"
"610189","16340"
"442748","16000"
"587392","16320"
"676883","16000"
"145206","16410"
"656059","16430"
"101139","16600"
"631867","16170"
"412089","16600"
"510183","16470"
"131074","16340"
"574431","16320"
"856523","NULL"
"441684","NULL"
"125493","NULL"
"679124","NULL"
"358381","16600"
"195500","16410"
"014562","16560"
"509955","16250"
"890418","16600"
"959387","16000"
"202713","16000"
"948080","16730"
"889649","16410"
"596113","16016"
"978614","16130"
"494555","16500"
"733938","16016"
"900927","16130"
"267280","16016"
"508861","16016"
"175763","16016"
"966177","16016"
"384904","16016"
"657759","16016"
"800712","16130"
"399223","16230"
"621865","16016"
"530987","16016"
"780167","16016"
"424125","16016"
"361697","16016"
"712673","16016"
"997321","16016"
"382718","16016"
"375943","16016"
"042735","16016"
"182860","16016"
"043096","16016"
"132404","16016"
"268843","16130"
"185470","16130"
"165090","16130"
"484806","16130"
"265169","16016"
"675963","16016"
"948110","16016"
"374912","16500"
"413044","16130"
"411437","16016"
"716606","16016"
"609193","16130"
"388485","16016"
"053665","16130"
"919750","16130"
"456539","16130"
"190912","16016"
"437010","16016"
"879855","16130"
"479507","16130"
"402162","16016"
"260406","16016"
"414527","16016"
"329909","16500"
"821472","16016"
"598278","16016"
"352064","16016"
"147523","16130"
"142714","16016"
"612870","16016"
"980685","16016"
"426441","16016"
"507934","16016"
"887616","16016"
"250983","16130"
"295433","16500"
"205354","16016"
"921021","16016"
"755184","16016"
"706661","16016"
"202522","16130"
"554333","16016"
"100037","16130"
"372961","16500"
"525238","16016"
"875736","16016"
"561777","16500"
"254380","16016"
"336663","16016"
"487498","16016"
"023325","16130"
"855991","16130"
"817889","16230"
"782211","16016"
"642578","16016"
"246367","16016"
"857401","16130"
"879246","16130"
"600590","16016"
"307955","16016"
"741111","16016"
"860633","16016"
"695742","16500"
"563411","16016"
"436514","16016"
"925859","NULL"
"066633","NULL"
"900075","NULL"
"396167","NULL"
"955907","NULL"
"855324","NULL"
"930917","NULL"
"521619","NULL"
"219106","NULL"
"358202","NULL"
"693497","NULL"
"292382","NULL"
"845265","16730"
"251070","16000"
"843767","16260"
"332585","16410"
"460098","16710"
"704389","16000"
"104673","16000"
"830877","16400"
"907199","16730"
"995688","16340"
"072713","16110"
"259100","16470"
"095205","16600"
"222388","16290"
"287938","16000"
"784726","16000"
"907515","16600"
"440912","16290"
"904859","16710"
"148514","16380"
"526200","86100"
"392762","16730"
"075583","16800"
"948291","16000"
"416288","16470"
"573007","16470"
"693348","16400"
"030001","16130"
"257783","16100"
"489597","16000"
"925127","16000"
"822712","16570"
"540383","16320"
"184242","16290"
"369839","16230"
"872916","16710"
"222613","16120"
"006105","16730"
"735989","16730"
"844808","16000"
"669576","16160"
"579485","16730"
"192330","16470"
"067443","16110"
"102113","16160"
"914815","16000"
"813037","16440"
"506185","16000"
"897835","16000"
"322506","16380"
"630105","16440"
"817538","16160"
"014303","16370"
"702450","16320"
"210588","15590"
"156642","16000"
"292090","16410"
"738765","16800"
"686483","1600"
"673668","16160"
"991732","16430"
"025737","16000"
"891900","16000"
"491068","16340"
"020667","16600"
"928383","16000"
"202793","16200"
"824944","86400"
"441024","16000"
"402930","16800"
"640620","16000"
"498167","16160"
"916074","16430"
"666713","16290"
"369681","16230"
"253161","16590"
"588733","16300"
"734212","16600"
"439878","16430"
"608366","16290"
"403927","16400"
"408867","16400"
"263945","16800"
"004143","16160"
"369494","16400"
"215581","16600"
"202506","16710"
"887570","16340"
"697524","16330"
"951871","16730"
"157266","16400"
"709530","16000"
"685948","16120"
"358392","16440"
"233336","16120"
"827358","16000"
"545865","16000"
"207797","24360"
"653542","16800"
"476355","16710"
"052368","16710"
"774027","16260"
"972415","16440"
"267880","16410"
"718912","16330"
"469548","16430"
"860573","16400"
"950868","16000"
"696945","16600"
"721935","16320"
"868247","16200"
"876541","16560"
"709853","16000"
"722251","16600"
"800979","16600"
"761090","16410"
"252338","16440"
"140065","16400"
"497626","16300"
"164540","16260"
"069121","16400"
"530001","16430"
"622705","16430"
"309572","16160"
"240469","16260"
"742629","16560"
"234887","16440"
"591706","24320"
"931589","16710"
"110599","16710"
"091376","16600"
"379184","16340"
"478051","16400"
"543212","16000"
"809672","16270"
"071740","16340"
"854791","16290"
"761686","16000"
"592976","16190"
"923225","16410"
"448300","16410"
"672821","16410"
"324826","16000"
"758193","16200"
"975883","16730"
"369692","16600"
"182762","16600"
"749545","16 000"
"274207","16160"
"914060","17100"
"238568","16400"
"579114","16120"
"238664","16440"
"286586","16400"
"851247","16800"
"096004","16000"
"059938","16430"
"034540","16600"
"175781","16430"
"775509","16000"
"664382","16800"
"218377","16340"
"522394","16000"
"250400","16100"
"132048","16000"
"147016","16430"
"091120","16730"
"321970","16000"
"668933","17210"
"480153","16000"
"709581","16430"
"205746","16600"
"984277","16110"
"923246","16000"
"553419","16340"
"141985","16400"
"139516","16110"
"197892","16200"
"613314","16340"
"552275","65260"
"831010","16400"
"731829","16600"
"526865","16100"
"994926","16470"
"735519","16160"
"962970","16400"
"869076","16700"
"565522","16000"
"854939","16110"
"400234","16110"
"686861","16000"
"986165","16600"
"213556","16230"
"475231","16230"
"025720","16230"
"473198","16230"
"068000","16600"
"334790","16230"
"841574","16230"
"219533","16310"
"782002","46300"
"425116","17400"
"285939","16700"
"756474","16230"
"770214","16230"
"900463","16490"
"539488","16410"
"366016","16000"
"987093","16460"
"658921","16120"
"354828","16330"
"779262","16600"
"417811","16600"
"451278","16210"
"845784","NULL"
"504143","16630"
"760191","16440"
"073471","16290"
"222225","16470"
"311275","16590"
"101179","16430"
"843066","16000"
"615443","16140"
"099107","16380"
"499738","16440"
"822614","16600"
"667991","16560"
"077951","16430"
"298854","16170"
"055662","16160"
"305002","16160"
"179602","16000"
"382224","16440"
"686628","16800"
"407554","16800"
"183947","16290"
"144365","16000"
"055100","16160"
"344300","16710"
"032481","16570"
"316686","16600"
"106450","16710"
"497931","16120"
"102880","16400"
"573488","16710"
"145184","16000"
"459735","16590"
"934879","16710"
"728807","16400"
"914132","16000"
"614432","16570"
"097325","16570"
"586276","16000"
"798952","16230"
"058227","16000"
"889597","16430"
"675461","16730"
"042306","16000"
"166509","16430"
"946336","16800"
"116547","33800"
"647006","16000"
"098160","16290"
"130525","16290"
"255559","16290"
"765496","16710"
"750135","16730"
"316913","16730"
"094593","16160"
"381092","16230"
"031887","16250"
"377837","16400"
"234109","16430"
"247449","16440"
"613523","16340"
"683339","16430"
"843192","16440"
"454894","16430"
"718753","16710"
"597740","16440"
"533430","16440"
"976909","16250"
"084589","16440"
"221960","16440"
"856111","16430"
"660434","16160"
"775271","16730"
"487870","16410"
"276661","16400"
"183609","16710"
"803467","16160"
"122426","17520 ARCHIAC"
"773848","16440"
"004030","16400"
"786559","16430"
"480224","16730"
"062602","16000"
"040615","16380"
"109132","16230"
"551408","16000"
"480710","16330"
"058743","16600"
"763531","16380"
"960551","16590"
"844783","16000"
"819978","16110"
"653460","16000"
"196999","16000"
"930890","16300"
"894537","16000"
"145863","16400"
"735858","16250"
"031956","16600"
"165501","16000"
"479537","16710"
"700773","16400"
"458908","16560"
"938846","16730"
"495287","16170"
"133265","16000"
"948175","16400"
"828870","16470"
"858086","16410"
"305715","16570"
"012420","16340"
"333908","16000"
"359213","16440"
"217428","16290"
"648472","16000"
"910238","16470"
"634820","16730"
"587481","16470"
"542611","16470"
"565299","16430"
"636331","16110"
"664105","16710"
"221057","16400"
"619802","16440"
"284182","16400"
"917312","16440"
"836754","16560"
"181506","16130"
"889453","16400"
"276059","16340"
"295521","16410"
"990457","16160"
"178533","16400"
"797121","16410"
"838724","16160"
"359178","16410"
"472194","16400"
"303638","16410"
"118098","16320"
"193000","16440"
"138355","16130"
"145012","16170"
"425982","16440"
"085542","16000"
"326098","16730"
"814188","1600"
"634336","16730"
"870074","16710"
"471420","16570"
"727220","16430"
"910946","16440"
"213025","16320"
"675411","Champniers"
"886086","16400"
"561677","16120"
"040466","16470"
"916161","16600"
"613751","16120"
"496671","16430"
"359449","16000"
"403711","16230"
"830310","16170"
"005005","16250"
"587729","16250"
"899073","16400"
"919738","16440"
"278919","16400"
"376107","16400"
"123562","16600"
"683993","16110"
"273948","16000"
"311740","16120"
"418556","16300"
"393728","16400"
"844453","16160"
"833041","16600"
"272852","16430"
"103814","16730"
"293769","24340"
"767084","16000"
"929033","16000"
"018006","16400"
"768025","16400"
"002339","16380"
"847625","16400"
"555248","16730"
"094702","16470"
"525453","16570"
"231295","16250"
"901757","16470"
"540145","16460"
"584221","33000"
"355598","16170"
"267759","16160"
"619168","16400"
"018734","16160"
"360786","16440"
"294714","16730"
"668660","16710"
"456611","16120"
"744395","16410"
"411990","16230"
"520297","16110"
"014645","16560"
"989775","16440"
"079489","16710"
"838540","16000"
"593500","16300"
"880212","Appt 45"
"749402","16290"
"663359","16410"
"101401","16430"
"671046","16000"
"809236","160000"
"061597","16440"
"912177","16000"
"692511","16340"
"917020","16340"
"253461","16000"
"817303","16710"
"454113","16800"
"332248","16440"
"358232","16430"
"155505","16400"
"734891","16440"
"594890","16600"
"922926","16430"
"731333","16400"
"170142","16400"
"734481","16320"
"040763","16000"
"753129","16130"
"189432","16440"
"629851","16270"
"305667","16000"
"618185","16590"
"546893","16120"
"824691","16410"
"222748","16600"
"222860","16710"
"644474","16160"
"159121","16340"
"139693","16340"
"742140","16600"
"700789","16000"
"109010","16600"
"983944","16160"
"403608","16000"
"834932","16400"
"802629","16410"
"685712","16300"
"361539","16160"
"697896","16440"
"306115","16410"
"179416","16000"
"551325","16430"
"585417","16230"
"485746","NULL"
"806286","16410"
"757506","16410"
"337474","16440"
"678464","16000"
"899731","16000"
"480003","16600"
"001631","16400"
"877143","16800"
"564099","16000"
"233904","16410"
"840490","16110"
"000742","16730"
"924763","16430"
"138978","16220"
"977415","16340"
"952866","16000"
"067425","16410"
"733302","16400"
"184757","16600"
"350045","16000"
"197342","16710"
"434412","16430"
"124214","16250"
"911230","16340"
"041432","16400"
"090081","16000"
"688795","16440"
"516106","16250"
"732717","16440"
"384655","16000"
"319517","16800"
"886763","16380"
"789836","16000"
"974847","16000"
"667676","16380"
"039816","16600"
"049990","16000"
"912224","16000"
"646699","16000"
"552811","16110"
"740635","16100"
"303391","17360"
"250342","16110"
"121744","16000"
"825217","16320"
"807160","16000"
"203144","16000"
"266438","16000"
"256879","16000"
"389262","16000"
"408471","16110"
"776017","86280"
"940847","16000"
"466059","16800"
"382139","16190"
"675772","16000"
"568788","16000"
"436751","16600"
"602396","16440"
"963625","16000"
"134156","16330"
"369695","16470"
"180319","16400"
"870549","16730"
"979870","16140"
"437446","16230"
"073716","16000"
"709274","16730"
"516784","16440"
"548826","16440"
"072550","16320"
"544725","16000"
"040594","16000"
"805955","16100"
"498265","16000"
"769917","16160"
"968946","16400"
"498089","16000"
"724149","16730"
"068229","16000"
"961044","16320"
"312791","16340"
"565837","16290"
"678035","16000"
"067034","16600"
"824474","16730"
"263216","16470"
"051333","16110"
"183572","16000"
"666764","16100"
"195656","16200"
"740344","16000"
"204818","16410"
"428850","16590"
"538961","16560"
"773017","16430"
"676175","16290"
"678450","16440"
"575850","16400"
"542838","16730"
"859012","16120"
"137359","16440"
"419128","16440"
"484545","16800"
"877789","16600"
"783903","16290"
"388370","16160"
"098598","16400"
"306267","16730"
"724649","16730"
"744908","16430"
"856780","16710"
"169015","16170"
"681236","16430"
"851698","16270"
"773136","16300"
"528195","16410"
"390566","16570"
"408150","16730"
"593786","16410"
"899551","16400"
"792285","16320"
"969827","16290"
"605700","16560"
"689732","16110"
"921515","16440"
"230603","16800"
"838713","16010"
"061659","16400"
"547069","16300"
"861149","16430"
"431509","16710"
"954799","16730"
"194137","16320"
"038926","16590"
"900871","16160"
"910431","16160"
"987849","16130"
"924679","16400"
"435245","16000"
"268158","16000"
"881014","16120"
"934736","16800"
"085810","16250"
"338099","16290"
"502132","16400"
"158698","16600"
"242210","16440"
"422712","16000"
"923534","16000"
"778480","16000"
"398702","16000"
"766416","16000"
"509496","16000"
"923340","16000"
"522202","16 000"
"455907","16360"
"859390","16220"
"231916","16410"
"799229","16000"
"309525","16470"
"576791","16400"
"382943","16000"
"968443","16000"
"286090","16000"
"713098","16440"
"164105","16440"
"255094","16600"
"516324","16430"
"269723","16440"
"649297","16000"
"289532","16300"
"626519","16800"
"629661","16000"
"182560","16560"
"360154","16400"
"439222","16730"
"733628","16400"
"983413","16600"
"883186","16560"
"070210","16730"
"655189","16440"
"429907","16590"
"682031","16120"
"208680","16440"
"145434","16430"
"201623","16160"
"703393","16250"
"471146","16730"
"814572","16110"
"952597","16440"
"074755","16160"
"892302","16000"
"287319","16440"
"853810","16000"
"325193","16000"
"355703","16000"
"295317","16600"
"072421","16440"
"852035","16440"
"796954","16800"
"510087","16400"
"810690","16290"
"007349","16340"
"874253","16300"
"002154","16000"
"897811","16000"
"415648","16160"
"691389","16000"
"451952","16440"
"882983","16430"
"745785","16440"
"159278","16160"
"654741","16730"
"092492","16200"
"182893","16220"
"694633","16430"
"290362","16290"
"246997","16470"
"707519","16170"
"691626","16410"
"331225","16590"
"479986","16410"
"180452","16600"
"986507","16120"
"214885","16600"
"138780","16600"
"217812","16000"
"015511","16730"
"540946","16220"
"574341","16600"
"939090","16000"
"688714","16000"
"721276","16330"
"052273","16000"
"444233","16000"
"642893","16440"
"290360","16400"
"212355","16410"
"884538","16600"
"003873","16590"
"227877","16400"
"653509","16440"
"849851","16430"
"866675","16430"
"822487","16330"
"895841","16330"
"936080","16600"
"839063","16330"
"049803","16000"
"616699","16470"
"988058","16110"
"506592","16000"
"105082","16400"
"192973","16430"
"868400","16000"
"535283","16400"
"171740","16710"
"508620","16710"
"264882","16110"
"910554","16410"
"668893","16410"
"615084","16730"
"376427","16410"
"320862","16730"
"692190","16400"
"439928","16000"
"067414","16340"
"433695","16410"
"132609","16000"
"362251","16340"
"313400","16600"
"622767","16000"
"542133","16590"
"177898","16000"
"515147","16000"
"060773","16730"
"213918","16410"
"281393","16000"
"814390","16600"
"799850","16000"
"176152","16710"
"934021","16340"
"407969","16000"
"157193","16000"
"646875","16800"
"366719","16000"
"969307","16800"
"565750","16000"
"081626","16340"
"937322","16440"
"517022","16440"
"422842","16440"
"017347","16400"
"929176","16000"
"396285","16430"
"721334","16000"
"261247","16800"
"722950","16340"
"020167","16440"
"504244","16400"
"822200","16400"
"542593","16410"
"872127","16600"
"353536","16600"
"691196","16000"
"209886","16340"
"443121","16016"
"804380","16016"
"171471","24000"
"754410","16100"
"377081","16000"
"569323","NULL"
"745193","NULL"
"635915","NULL"
"733451","16600"
"218286","16000"
"790215","16000"
"1591591","16000"
"468355","16470"
"140029","16230"
"856566","16170"
"937427","NULL"
"354865","NULL"
"675475","NULL"
"686326","NULL"
"327329","NULL"
"590970","NULL"
"002011","NULL"
"307594","NULL"
"300041","NULL"
"086366","NULL"
"691602","NULL"
"379608","NULL"
"763885","NULL"
"951652","NULL"
"200196","NULL"
"534484","NULL"
"303932","NULL"
"325394","NULL"
"147673","NULL"
"474874","NULL"
"692992","NULL"
"372184","NULL"
"248404","NULL"
"594127","NULL"
"242253","NULL"
"854793","NULL"
"059275","NULL"
"202702","NULL"
"754120","NULL"
"861620","NULL"
"505813","NULL"
"697571","NULL"
"715481","NULL"
"882384","NULL"
"971943","NULL"
"260763","NULL"
"267302","NULL"
"906623","NULL"
"800143","NULL"
"209097","NULL"
"857004","NULL"
"735976","NULL"
"650791","NULL"
"069440","NULL"
"730592","NULL"
"727265","NULL"
"018194","NULL"
"819042","NULL"
"090830","NULL"
"869498","NULL"
"091259","NULL"
"992533","NULL"
"606854","NULL"
"708297","NULL"
"683149","NULL"
"297171","NULL"
"643809","NULL"
"771771","NULL"
"539390","NULL"
"317659","NULL"
"578742","NULL"
"536439","NULL"
"344455","NULL"
"971229","NULL"
"453153","NULL"
"454116","NULL"
"512317","NULL"
"917402","NULL"
"836439","NULL"
"868255","NULL"
"918329","NULL"
"183095","NULL"
"223768","NULL"
"548643","NULL"
"989957","NULL"
"949764","NULL"
"640057","NULL"
"406001","NULL"
"048273","NULL"
"590298","NULL"
"879164","NULL"
"977605","NULL"
"252241","NULL"
"309931","NULL"
"860244","NULL"
"966689","NULL"
"706804","NULL"
"858683","NULL"
"066339","NULL"
"103471","NULL"
"012151","NULL"
"734755","NULL"
"374329","NULL"
"835198","NULL"
"479093","NULL"
"003030","NULL"
"659981","NULL"
"863746","NULL"
"082370","NULL"
"718251","NULL"
"130343","NULL"
"836448","NULL"
"695551","NULL"
"931472","NULL"
"767295","NULL"
"271386","NULL"
"434664","NULL"
"891522","NULL"
"203375","NULL"
"477779","NULL"
"589428","NULL"
"156401","NULL"
"036156","NULL"
"078821","NULL"
"471050","NULL"
"733446","NULL"
"910289","NULL"
"033541","NULL"
"444607","NULL"
"056597","NULL"
"013999","NULL"
"545763","NULL"
"033170","NULL"
"516967","NULL"
"542777","NULL"
"548960","NULL"
"146445","NULL"
"756401","NULL"
"124418","NULL"
"689060","NULL"
"329488","NULL"
"622514","NULL"
"439081","NULL"
"820356","NULL"
"201497","NULL"
"560108","NULL"
"939592","NULL"
"978780","NULL"
"821791","NULL"
"574265","NULL"
"293365","NULL"
"488385","NULL"
"806374","NULL"
"569932","NULL"
"459271","NULL"
"384930","NULL"
"322886","NULL"
"211170","NULL"
"977216","NULL"
"302117","NULL"
"436696","NULL"
"122462","NULL"
"517252","NULL"
"390320","NULL"
"615483","NULL"
"262976","NULL"
"595262","NULL"
"702872","NULL"
"159554","NULL"
"289399","NULL"
"325790","NULL"
"311285","NULL"
"708820","NULL"
"876509","NULL"
"064306","NULL"
"301178","NULL"
"621688","NULL"
"876082","NULL"
"281637","NULL"
"645458","16710"
"874217","16730"
"489283","16110"
"491329","16160"
"915568","16570"
"167793","16290"
"404084","16130"
"120635","16470"
"121293","16430"
"179192","16000"
"546163","16400"
"575449","16800"
"669977","16000"
"419854","16170"
"770479","16600"
"599920","16000"
"475391","16100"
"714923","16200"
"847426","16100"
"298422","16340"
"115862","16110"
"277239","16320"
"755833","16340"
"073679","16470"
"432793","16000"
"599203","16340"
"547240","16250"
"936152","16110"
"448192","16000"
"882239","16000"
"013100","16250"
"622973","16000"
"665349","16230"
"403298","16000"
"177824","16710"
"748900","16400"
"846856","16160"
"239142","16160"
"296079","16410"
"472450","16340"
"978192","16250"
"053250","16440"
"484381","16470"
"513920","16470"
"865337","16590"
"113717","16730"
"278753","16430"
"611079","16600"
"391674","16000"
"913168","16000"
"908126","16000"
"426051","16220"
"633417","16440"
"836628","16730"
"247365","16600"
"205933","16300"
"068028","16800"
"479633","16430"
"373295","16800"
"721389","17490"
"635584","16160"
"650917","16430"
"459645","16600"
"368147","16000"
"398862","16000"
"527822","16000"
"687321","16000"
"822244","16710"
"797379","16160"
"371870","16000"
"309135","16000"
"848141","16000"
"879509","16400"
"183923","16440"
"368196","16000"
"029579","16410"
"426653","16000"
"388803","16430"
"069742","16000"
"087361","16600"
"353734","16340"
"769628","16000"
"134215","16000"
"439133","16600"
"632999","16340"
"601805","16600"
"848492","16600"
"231362","16160"
"891528","16600"
"575723","16400"
"909216","16440"
"709726","16400"
"238862","16000"
"552411","16000"
"911501","16000"
"893253","16430"
"525120","16170"
"149175","16100"
"725987","16100"
"435351","16300"
"906669","16110"
"052152","16600"
"117383","16000"
"320637","16440"
"190898","16330"
"925520","16100"
"209733","16290"
"817966","16160"
"973247","16000"
"213940","16600"
"482617","16230"
"491445","16410"
"222936","16110"
"948312","16000"
"471791","16000"
"322121","16440"
"812973","16000"
"676389","16340"
"447517","16710"
"837748","16000"
"363443","16710"
"681616","16000"
"490264","16170"
"051962","16380"
"056901","16000"
"208751","16160"
"496475","16000"
"005608","16000"
"637557","16000"
"273052","16800"
"777564","16340"
"303952","16600"
"489779","16600"
"837011","16600"
"052286","16400"
"226692","16440"
"120057","16400"
"666528","16730"
"524241","16160"
"899527","16440"
"169570","16160"
"534926","16340"
"328373","16290"
"378344","16170"
"933500","16000"
"411070","16730"
"391118","16000"
"950217","16470"
"007124","16430"
"199408","16800"
"828588","16120"
"882542","16570"
"564312","16400"
"525900","16400"
"501384","16410"
"063778","16000"
"826819","16730"
"143004","16300"
"967613","16100"
"473796","16000"
"443611","16160"
"610182","16410"
"416567","16000"
"596516","16000"
"422192","16570"
"412068","16470"
"988993","16290"
"430660","16290"
"484657","16290"
"030840","16260"
"783835","16710"
"829134","16730"
"967484","16800"
"410502","16220"
"295599","16730"
"764207","16400"
"441939","16380"
"142969","16460"
"273391","16710"
"378427","16380"
"959683","16000"
"521745","16000"
"357395","17520"
"102608","16340"
"715741","16560"
"194074","16400"
"414783","16000"
"549388","16470"
"254265","16440"
"103756","16120"
"520505","16330"
"165969","16300"
"039254","16400"
"544777","16110"
"955544","16470"
"838702","16230"
"173989","16000"
"594733","16600"
"640871","16340"
"989046","16310"
"977866","16340"
"318401","16000"
"200220","16470"
"031226","16710"
"972405","16000"
"052647","16340"
"312499","16000"
"915492","16710"
"493647","16290"
"847007","16160"
"388130","16000"
"825012","16000"
"252948","16400"
"774429","16400"
"742659","16600"
"046364","16400"
"677151","16440"
"849282","16440"
"792975","16710"
"694092","16330"
"419340","16570"
"774280","16340"
"376252","16000"
"975905","16000"
"315342","16430"
"185212","16290"
"000559","16340"
"819968","16000"
"658732","16300"
"844726","16290"
"254038","16250"
"683193","16710"
"902689","16230"
"497204","16470"
"426931","16000"
"950961","16000"
"170810","16000"
"720938","16000"
"546053","16400"
"157908","16400"
"046026","16190"
"566559","16600"
"986662","16440"
"146306","16400"
"942765","16430"
"788749","16470"
"348351","16800"
"859049","16410"
"073707","16290"
"186278","16000"
"286119","16000"
"125280","16000"
"713484","16400"
"639320","16000"
"459616","16600"
"135079","16800"
"683517","16600"
"763384","16000"
"277210","16400"
"499302","16000"
"517251","16560"
"143814","16560"
"837535","16440"
"021239","16440"
"221333","16000"
"582358","16800"
"358253","16000"
"922200","16410"
"986520","16000"
"084838","16400"
"406236","16000"
"160344","16600"
"935990","16120"
"543737","16270"
"271376","16600"
"733748","16600"
"795390","16430"
"548605","16590"
"759804","16400"
"387675","16000"
"467114","16440"
"496080","16410"
"490322","16710"
"991839","16400"
"325543","16430"
"114044","16470"
"546086","16100"
"181665","NULL"
"448908","77410"
"039684","17320"
"402416","16000"
"263958","16410"
"312720","16600"
"495608","16000"
"697851","16710"
"483278","16230"
"482033","16100"
