fk_object;activitepro;noadh
132;Producteur de volailles fermières;NULL
133;NULL;NULL
144;ophtalmologie;NULL
155;NULL;NULL
156;Créations couture;NULL
158;NULL;NULL
173;Distribution articles de fête ;NULL
112;NULL;NULL
201;NULL;NULL
202;NULL;NULL
207;NULL;NULL
191;NULL;NULL
143;Café;NULL
205;NULL;NULL
241;NULL;NULL
242;NULL;NULL
46;NULL;004125
37;NULL;NULL
255;NULL;NULL
257;NULL;NULL
194;NULL;NULL
263;ATTELAGE EQUIN;NULL
264;NULL;NULL
266;NULL;NULL
267;NULL;NULL
259;imprimeur;336699
177;NULL;NULL
281;NULL;NULL
283;epicerie Solidaire ;NULL
284;NULL;NULL
244;BROCANTE ;NULL
176;NULL;NULL
181;SOPHROLOGUE;NULL
231;NULL;NULL
286;NULL;NULL
295;NULL;NULL
274;Culture de céréales (à l'exception du riz), de légumineuses et de graines oléagineuses (0111Z);NULL
296;NULL;NULL
214;BOULANGERIE PATISSERIE ;NULL
304;imprimerie;NULL
305;Gestalt-thérapeute -Psychothérapie-;NULL
306;Association solidaire - Achat et vente de produits d’occasion;NULL
300;producteur de légumes;NULL
307;Poissonnerie ;NULL
271;Enseignement, éducation populaire;NULL
315;VOLAILLER ;NULL
317;NULL;NULL
318;NULL;NULL
322;site et réseau de vente directe de producteurs ;NULL
325;NULL;NULL
326;apiculteur;NULL
327;viticultures ;NULL
148;NULL;NULL
330;NULL;NULL
335;NULL;NULL
336;NULL;NULL
333;NULL;NULL
339;NULL;NULL
340;producteurs de légumes ;NULL
346;Fromages de Chèvre ;NULL
331;boutique de producteurs ;NULL
213;NULL;410000
337;NULL;NULL
353;Salon de thé, et fleuriste ;NULL
137;Restauration rapide;039315
352;boulanger ;NULL
356;Pains, viennoiseries;NULL
312;Fromages de chèvre;NULL
175;NULL;NULL
357;Pizzeria Jeux partage ;NULL
358;micro crèche ;NULL
361;NULL;NULL
362;NULL;NULL
366;Laboratoire d'Arts appliquées Upcycling ;NULL
369;Volailles Oeufs ;NULL
370;Fromages de chèvres ;NULL
372;Crèmerie Fromager ;NULL
45;Psychologue du travail;025122
119;Cuisine végétale et locale sur les marchés;037911
377;NULL;678645
397;Bijoutier;NULL
399;Institut de beauté;NULL
401;Institut de beauté;NULL
403;Institut de beauté;NULL
406;Equipement de la personne;NULL
410;NULL;NULL
409;Equipement de la personne;NULL
412;Equipement de la personne;NULL
413;Equipement de la personne;NULL
415;Equipement de la personne;NULL
404;NULL;NULL
416;Equipement de la personne;NULL
420;Equipement de la personne;NULL
425;cigarette électronique;NULL
430;NULL;NULL
434;Loisirs;NULL
390;Institut de beauté;NULL
391;institut de beauté ;NULL
392;Institut de beauté;NULL
444;Equipement de la personne;NULL
447;VETEMENTS FEMMES;NULL
424;NULL;NULL
455;Equipement de la personne;NULL
428;Equipement de la personne ;NULL
452;vente d'accessoires de fantaisie+ "soins";NULL
459;Coiffure;NULL
460;Antiquaire;NULL
461;institut de beauté ;NULL
470;vente  de chaussure ;NULL
467;Mercerie;NULL
27;NULL;NULL
476;institut de beauté ;NULL
480;Institut de beauté;NULL
482;institut de beauté ;NULL
483;Equipement de la personne ;NULL
485;Coiffeur;NULL
487;Miroitier;NULL
490;NULL;NULL
491;NULL;NULL
493;Coiffeur;NULL
495;Equipement de la personne;NULL
496;NULL;NULL
499;NULL;NULL
502;restauration;NULL
504;restauration;NULL
511; Transformation et conservation de la viande de boucherie (1011Z);NULL
512;commerce de gros de fournitures pour les commerces et les particuliers;NULL
497;Salon de coiffure;NULL
520;NULL;NULL
525;Boulangerie ;NULL
530;NULL;NULL
532;Restauration ;NULL
540;NULL;NULL
481;institut de beauté ;NULL
503;Salon de coiffure;NULL
543;NULL;NULL
321;Artisan cordonnier ;NULL
449;Cours particuliers;NULL
457;institut de beauté ;NULL
396;agence de croisières;NULL
527;NULL;NULL
547;restaurant, bar, café;NULL
423;vente d'accessoires de fantaisie ;NULL
552;NULL;NULL
557;NULL;NULL
554;NULL;NULL
553;NULL;NULL
546;restauration ;NULL
560;NULL;NULL
563;restauration;NULL
566;Commerce alimentaire ;NULL
556;NULL;NULL
469;Fleuriste;NULL
471;Bijouterie;NULL
522;NULL;NULL
477;Galerie - Encadreur;NULL
564;Opticien;NULL
574;Vente de sac et accessoires;NULL
576;Coiffeur;NULL
577;Boulangerie ;NULL
578;Bijouterie;NULL
579;Fleuriste ;NULL
581;Bar tabac;NULL
582;restauration;NULL
583;Equipement de la personne ;NULL
585;Coiffeur;NULL
591;Restaurant;NULL
596;Equipement de la personne ;NULL
602;restauration;NULL
613;Esthéticienne ;NULL
611;Vente pour chiens et chats;NULL
614;Pizzeria;NULL
616;Coiffeur;NULL
509;Pâtisserie;NULL
389;fabrication de meuble ;NULL
630;Loto tabac presse;NULL
628;restauration;NULL
636;Boulangerie ;NULL
633;Restaurant;NULL
637;Restaurant;NULL
639;Coiffeur;NULL
640;Salon de coiffure ;NULL
641;Tabac presse ;NULL
642;Restaurant asiatique;NULL
646;Salon de coiffure ;NULL
645;Laser game;NULL
647;Restaurant;NULL
649;Restaurant pizzeria ;NULL
650;NULL;NULL
651;Restaurant pub brasserie;NULL
638;Salon de coiffure ;NULL
653;Boulangerie patisserie ;NULL
655;Épicerie ;NULL
656;Boulangerie patisserie ;NULL
662;NULL;NULL
663;NULL;NULL
664;NULL;NULL
665;NULL;NULL
667;Reparation de Vélos ;NULL
572;Brasserie ;NULL
626;Producteur de volailles ;NULL
670;restauration;NULL
675;Immerse de détails de textile ;NULL
676;Coiffeur;NULL
674;Boulangerie;NULL
678;Coiffeur;NULL
679;Salon de coiffure ;NULL
681;restauration;NULL
682;restauration;NULL
63;restauration;NULL
683;NULL;NULL
686;Boucherie;NULL
688;Boulangerie;NULL
690;Boulangerie ;NULL
691;Coiffeur;NULL
694;restauration;NULL
697;restauration;NULL
698;NULL;NULL
699;Boucherie ;NULL
701;Boulangerie ;NULL
703;Salon de coiffure ;NULL
704;Boulangerie ;NULL
706;Boulangerie;NULL
707;vente de jeux vidéo;NULL
505;Restaurant;NULL
711;Bistro;NULL
712;Coiffeur;NULL
713;Pharmacie;NULL
719;Salon de coiffure;NULL
722;NULL;NULL
725;Prêt à porter;NULL
726;Salon de coiffure;NULL
727;Salon de toilettage;NULL
728;Salon de coiffure;NULL
729;Alimentaire;NULL
732;Salon de coiffure;NULL
733;NULL;NULL
734;Café tabac;NULL
629;NULL;NULL
736;restauration;NULL
741;Boulangerie;NULL
742;Bar tabac restaurant;NULL
745;Boulangeri;NULL
746;Salon de coiffure;NULL
743;Pharmacie;NULL
752;– Maraîchage Biologique – Transformation de légumes – Entretiens d’Espaces Verts – Second œuvre du bâtiment;NULL
759;institut de beauté;NULL
756;Brasserie;NULL
528;Poissonnerie;NULL
768;Restauration;NULL
769;NULL;NULL
771;Pizzeria;NULL
774;Brasserie;NULL
775;Bar tabac;NULL
776;Couturière;NULL
777;Boulangerie;NULL
778;Salon de coiffure;NULL
542;NULL;NULL
780;Salon de coiffure;NULL
781;Restauration;NULL
718;NULL;202224
680;Tabac presse;NULL
134;NULL;NULL
740;Spa;NULL
744;NULL;NULL
795;Tabac presse;NULL
764;Photographe;NULL
558;Fleuriste;NULL
518;Coiffeur;NULL
544;Coiffeur;NULL
456;DECORATION Maison;NULL
422;VETEMENTS ET ACCESSOIRES;NULL
801;Vente fruits et légumes;NULL
516;NULL;NULL
806;NULL;NULL
489;Boulangerie;NULL
809;pharmacie;NULL
812;Vendeur de chaussures;NULL
360;NULL;NULL
343;NULL;NULL
816;NULL;NULL
817;NULL;NULL
818;NULL;NULL
819;NULL;NULL
716;Relais tabac presse epicerie;NULL
475;Coiffeur;NULL
458;Vetements chaussures accessoires;NULL
603;restauration;NULL
709;restauration;NULL
786;restauration;NULL
695;restauration;NULL
671;restauration;NULL
693;restauration;NULL
625;restauration;NULL
462;Mercerie;NULL
710;restauration;NULL
623;Restaurant;NULL
484;Vetements;NULL
440;Vetements chaussures accessoires;NULL
407;Equipement de la personne;NULL
506;tuning automobile;NULL
411;lingerie;NULL
601;restauration;NULL
599;restauration;NULL
594;restauration;NULL
472;vente de service de conduite auto mobile;NULL
486;Toiletteuse;NULL
450;Fleuriste;NULL
426;Loisirs;NULL
441;vente de jeux vidéo;NULL
387;Bijoutier;NULL
443;service d'apprentissage à la conduite;NULL
631;Fleuriste;NULL
788;Institut de beauté;NULL
791;Agence de voyages;NULL
724;Restauration;NULL
720;Pharmacie;NULL
782;Coiffeur;NULL
538;Opticien;NULL
657;Coiffeur;NULL
696;NULL;NULL
349;menage repassage , espaces verts entretien;NULL
717;NULL;NULL
787;Salon de coiffure;NULL
54;magazine agenda des evenements Charentais;NULL
827;NULL;NULL
828;NULL;NULL
573;Café ;NULL
829;NULL;NULL
830;NULL;NULL
831;NULL;NULL
832;NULL;NULL
833;producteur de fruits et légumes;NULL
805;Salon de coiffure;NULL
835;NULL;NULL
341;NULL;NULL
539;Pâtisserie;NULL
837;NULL;NULL
537;Bijouterie;NULL
839;NULL;NULL
841;NULL;NULL
627;BOUCHERIE CHARCUTERIE;NULL
842;NULL;NULL
843;NULL;NULL
844;NULL;NULL
845;NULL;NULL
658;Coiffeur;NULL
846;NULL;NULL
847;Coiffeur;NULL
848;Boulangerie;NULL
853;Festival Arts;NULL
821;NULL;NULL
851;NULL;NULL
204;Massage, réflexologie plantaire et palmaire;009318
634;Décoration d’intérieur;NULL
605;Salon de coiffure;NULL
146;Boulangerie traiteur;NULL
607;Pizzeria;NULL
580;Salon de coiffure;NULL
859;restaurant;NULL
860;restaurant;NULL
856;NULL;NULL
342;NULL;NULL
863;NULL;NULL
526;Coiffeur;NULL
549;Brasserie;NULL
864;NULL;NULL
865;NULL;NULL
866;NULL;NULL
610;Friperie;NULL
870;theatre;NULL
874;NULL;NULL
858;Salle de Cross Fit tous niveaux;NULL
875;Garage;NULL
550;Galerie d’art;NULL
606;NULL;NULL
652;BAR CAFE;NULL
723;Tabac presse;NULL
772;Bar tabac;NULL
659;coiffeur;NULL
619;Bar tabac;NULL
715;Fleuriste;NULL
622;Esthéticienne;NULL
519;Tabac - Presse;NULL
517;Salon de coiffure;NULL
567;Coiffeur;NULL
738;Restaurant , Bar;NULL
604;Boulangerie;NULL
632;Fleuriste;NULL
348;NULL;NULL
868;Pressing;NULL
834;NULL;NULL
825;NULL;NULL
823;NULL;NULL
810;NULL;NULL
804;NULL;NULL
796;Pharmacie;NULL
773;NULL;NULL
765;NULL;NULL
737;restauration;NULL
735;NULL;NULL
731;Bar-tabac-presse;NULL
730;Salon de coiffure;NULL
714;Coiffeur;NULL
685;NULL;NULL
673;restauration;NULL
617;Restauration;NULL
615;Institut de beauté;NULL
612;NULL;NULL
609;Salon de toilettage;NULL
608;NULL;NULL
595;NULL;NULL
593;NULL;NULL
590;Restaurant;NULL
588;VETEMENTS ET ACCESSOIRES;NULL
883;NULL;NULL
886;NULL;NULL
888;NULL;NULL
889;NULL;NULL
890;NULL;NULL
891;NULL;NULL
892;NULL;NULL
893;NULL;NULL
894;Producteur vins et jus de raisin;NULL
895;NULL;NULL
896;NULL;NULL
898;Commerce de CBD;NULL
761;formation au Lean Management;NULL
586;Design et décoration interieur;NULL
767;Institut beauté;NULL
178;Espace de test agricole;NULL
147;Association aide aux personnes vulnérables;NULL
398;Vêtements, chaussures accessoires haut de gamme;NULL
861;exploitant agricole;NULL
814;Boutique de vêtements;NULL
531;Fabrication de plats préparés - pizzeria;NULL
903;Hôtel;NULL
904;Chocolaterie;NULL
382;apiculteur;NULL
104;Animations artistiques;NULL
124;Hypnothérapeute;078954
523;Tabac presse;NULL
748;Bar, tabac, restaurant;NULL
907;NULL;NULL
909;Alimentation fraîche;NULL
908;Produit de beautés;NULL
876;NULL;NULL
919;NULL;NULL
466;Institut de beauté;NULL
813;NULL;NULL
921;NULL;NULL
923;NULL;NULL
922;NULL;NULL
924;NULL;NULL
926;NULL;NULL
600;CASA ITALIA;NULL
479;Fleuriste;NULL
929;Patisserie;NULL
824;NULL;NULL
83;Café littéraire;036813
669;Boulangerie;NULL
624;Ameublement et décoration;NULL
931;NULL;NULL
154;Créations cuir;NULL
141;Ferme bio;NULL
561;NULL;NULL
934;mairie;NULL
935;association ferme pedagogique;NULL
936;Vente directe de viande limousine;NULL
938;Club de Rugby;NULL
708;restauration;NULL
57;CE du GE16 Emploi;062725
942;Golf et restaurant;NULL
297;Commerce de gros (commerce interentreprises) de bois et de matériaux de construction;708090
811;Commerce de meubles;NULL
951;Plomberie, chauffagiste;NULL
952;Plomberie, chauffagiste;NULL
953;Plomberie, chauffagiste;NULL
954;Electricien;NULL
959;activités des organisations patronales et consulaires;NULL
960;organisation professionnelle;NULL
961;Fabrication d\\'articles de bijouterie fantaisie et articles similaires;NULL
970;NULL;NULL
900;Opticien;NULL
203;NULL;NULL
948;optique lunetterie;486186
946;Fournisseur de fruits et légumes;NULL
290;Materiaux ecologiques pour l'Habitat;NULL
995;Infirmier (cabinet , soins à domicile);NULL
994;Activités de santé humaine non classées ailleurs;NULL
990;Fabrication d\\'articles textiles, sauf habillement;NULL
957;Fabrication de bijoux en polymère et bracelets cuir;NULL
996;Infirmier (cabinet , soins à domicile);NULL
968;Entretien corporel;NULL
159;Bouquinerie;042519
1005;Propriété, jouissance, administration des immeubles et droits immobiliers à destination agricole;NULL
529;Fleuriste;NULL
568;Salon de beauté;NULL
545;toilettage pour chien;NULL
584;Bar;NULL
705;NULL;NULL
700;Coiffeur;NULL
721;Restauration;NULL
618;Bar tabac presse;NULL
22;NULL;NULL
1009;Autres organisations fonctionnant par adhésion volontaire;NULL
1018;Infirmier (cabinet , soins à domicile);NULL
1021;Infirmier (cabinet , soins à domicile);NULL
200;NULL;NULL
371;Boucherie;NULL
1032;l\\'achat la vente la transformation la fabrication et le négoce de tous produits alimentaires;NULL
1033;Activités des organisations professionnelles;NULL
1039;NULL;NULL
1040;Culture de la vigne;NULL
762;NULL;NULL
1048;Marbrerie de décoration fournitures pose et vente de cuisines et salles de bains piscines bungalows;NULL
69;NULL;NULL
1047;production d\\'agneau vendu en 100% local;NULL
1043;Créatrice d\\'objets déco et de bijoux fantaisie;NULL
668;Creation objets;716721
446;SOINS ET PRODUITS;NULL
454;Photographie;408839
465;Formations santé et la sécurité au travail.;738349
488;COMPLEXE DE REMISE EN FORME AQUATIQUE;253058
536;Boucherie volailler, charcuterie .;281912
548;Bar à tapas;381529
587;VETEMENTS ET ACCESSOIRES;028942
597;Maroquinerie;184461
654;Boucherie Charcuterie Traiteur;630076
666;BIJOUTIER;783952
785;Restauration;178651
790;Coiffeur;093229
849;pharmacie d’officine;881818
850;yaourt artisanal bio en pot en verre;NULL
877;Bar Tabac Presse;672867
878;Informatique et gestion de logiciels;224141
884;Pharmacie;159784
917;Café Bar à rhum;865219
944;Travaux d\\installation d\\équipements thermiques et de climatisation;002547
1002;Collectivité chargé de mission,santénbois, politiques contractuelles;451278
1026;Réalisation de travaux du bâtiment,travaux publics mécanique générale agricole, réalisation de prestations de services agricoles.;302735
228;Développement d'applications web.;687631
139;Espace artistique de pleine nature;039612
136;Naturopathe;039117
120;Pain et Fromage de vache;038019
118;Radio;037812
117;Traiteur spécialités réunionaises;NULL
102;Café, salon de thé - Restaurant;038910
95;Jardinier paysagiste;037515
92;Modélisation - Impression 3D - Créations diverses;026913
76;Magnétiseur;002424
60;Epicerie vrac;005124
351;ecrivain public;402133
1030;Clinique chirurgicale, médicale et obstétricale;NULL
260;FROMAGER;458219
435;Bijouterie, montres;001204
381;Producteur de pommes et Oeufs;289133
265;Osteo-énergéticien;093022
436;Chaussures et vêtements de sport;093566
165;Gestion immobilière;741852
872;Distribution d\\\\\\'eau potable Grand Angoulême;591861
1023;NULL;NULL
252;Développement commercial, gestion projets et communication;943017
427;magasin de chaussures;373552
269;Artisanat d'art creatrice;080213
332;Travaux en hauteur, en milieux périlleux & d'accès difficiles Services d'entretien, de nettoyage;562336
385;Boutique de laines naturelles et accessoires pour le tricot;423650
246;Osteopathe;203140
1050;Autres organisations fonctionnant par adhésion volontaire;922926
1053;NULL;NULL
197;Illustratrice, Graphiste;018615
79;Réseau de porteurs et porteuses de projets;036219
162;Naturopathe;645520
1058;Autres organisations fonctionnant par adhésion volontaire;NULL
1059;Tisanes , infusions plantes locales du jardin;NULL
1061;NULL;753923
1057;Activités des agents et courtiers d\\'assurances;NULL
1056;sdfsfs;NULL
535;Épicerie Caviste;NULL
702;Boucherie charcuterie traiteur;NULL
1049;Regie Mairie pour paiement du parking Gesta par les pros uniquement;869421
757;fournisseur de farine;NULL
1065;Mercerie cours de couture et location de machines;NULL
138;Conseillère conjugale et familiale;039513
753;Producteur de pineau;NULL
299;produits ,fruits et légumes produits en charente;NULL
125;Boutique de cupcakes - Salon de thé - Restaurant végétarien/végétalien;564565
1068;Boulangerie pâtisserie;NULL
1069;Blanchisserie-teinturerie de détail;NULL
338;producteur de yaourts fromage blanc et desserts laitiers BIO;NULL
152;produits au lait de chèvres;NULL
151;Fromage de chèvre;NULL
1070;Agences immobilières;856566
1066;Transformation et conservation de fruits;NULL
1075;Commerce de produits laitiers;NULL
1076;Bougies eco-responsables;NULL
1077;Vente à distance sur catalogue spécialisé;NULL
319;Jus et infusions de fruits;NULL
153;Conserverie légumes Bio;NULL
1078;Entretien corporel;NULL
313;fruits et légumes produits en charente;NULL
1080;NULL;NULL
1082;Le négoce en gros et demi-gros de légumes, fruits et primeurs, le transport routier pour compte d\\'autrui;NULL
149;Restaurant;039414
1007;épicerie ordinaire, supérette, animation d\\'opérations promotionnelles, achat, vente d\\'objets de décoration, d\\'arts de la tables;646299
395;Equipement de la personne;548695
1085;NULL;NULL
1086;vente tissus et articles de confection;NULL
1087;Fabrication de futailles, tonnellerie et marchand de bois, cercles, osier, prestation et préparation liées à la tonnellerie tonnellerie d\\'art.;NULL
431;Photographe;927703
751;restauration;589614
500;Médecine Générale acuponcture Phytothérapie;154491
906;Epicerie et restaurant;NULL
354;FERME AQUAPONIQUE;NULL
1089;Boulangerie pâtisserie;NULL
620;Boulangerie;NULL
1090;agricoles, culture de légumes, melons, racines, tubercules, élevage ovins caprins et bovins avec transformation fromagère;NULL
635;restauration;NULL
123;Location de boxes et bureaux - Emballages en carton;038415
1079;fabrication étoffe à mailles couture cours de couture et tricot et maroquinerie;NULL
1081;bar, restaurant et plats cuisinés à emporter;NULL
920;NULL;NULL
826;Pisciculture;NULL
1092;Exploitation de salles cinématographiques;NULL
105;Charcutier traiteur;602313
555;Boulanger;NULL
1067;Restauration;NULL
1074;L'achat et la vente d'articles de décoration, cosmétiques, bijoux fantaisie;NULL
1095;Activité des médecins généralistes;482617
1096;Fabrication d\\'objet divers en bois en tissus en fer broderie tricot Relooking d\\'objet en bois salon de thé vente de biscuits secs achat et vente de bougies et de bijoux fantaisies;NULL
1097;Couverture, charpente, menuiserie ébénisterie;NULL
1091;Exploitation fonds boulangerie pâtisserie viennoiserie confiserie chocolaterie choux tarterie;NULL
1098;Vente au détail et en demi gros de viande de boucherie de charcuterie triperie de volailles lapin et gibier sédentaire et tournées plats à emporter.;NULL
648;Boulangerie;NULL
1101;Restaurant, bar, plats à emporter.;NULL
1102;NULL;NULL
1103;Toutes activités de fabrication, vente et livraison de produits de boulangerie et patisserie biologique;NULL
218;Marbrerie;060024
126;Maraichage;038613
1105;Activités hospitalières;412068
570;MAGASIN DE SPORT;689894
1106;Boulangerie pâtisserie;NULL
1099;Commerce de détail de viandes et de produits à base de viande en magasin spécialisé;NULL
1024;Restauration de type rapide;989089
794;Enseignement aquatique;NULL
1107;Cave à vins et spiriteux;NULL
140;Naturopathe;004223
227;Opticien;057810
1108;Activités des organisations patronales et consulaires;NULL
167;Association art martial Russe (systema);046911
208;Entretien et création de jardins;047118
345;Galerie d'arts et ateliers créatifs;063349
1015;Fabrication d\\'autres meubles et industries connexes de l\\'ameublement;600010
672;restauration;829161
1110;NULL;NULL
1046;Achat et vente de vins et spiritueux, achat et vente de produits du terroir et objets culturels.;572774
1031;Activités des infirmiers et des sages-femmes;337591
1011;produits cosmétiques naturels pour le soin et la beauté de la peau et du cheveu;092022
1013;Commerce de détail en magasin spécialisé d'articles de pêche de loisirs et sports et de tous services dédiés a ces activités (service après vente et repartions se rapportant directement ou indirectement a l'une ou l'autre de ces activités);488783
1008;Étude technique en bâtiment;929932
1001;Entretien corporel;365535
1000;Infirmier (cabinet , soins à domicile);664725
978;Conseil;722210
976;Infirmier (cabinet , soins à domicile);037931
974;Commerce lies au lavage automobile, à la vente de produits et d\\'accessoires pour l\\'entretien automobile;404806
958;Fabrication de bijoux fantaisies à base de pâtes polymère;615397
945;organisation des salons du bien être et du mariage en Charentes;288269
932;Conseil pour les affaires et autres conseils de gestion;732650
873;Boucherie;935700
111;Caviste;060204
294;Cave à vins;677639
376;Communication numérique et imprimés;604567
565;BOUCHERIE CHARCUTERIE;255631
278;Boulangerie Patisserie;676588
367;de la culture à la Vente huiles,des légumes secs, de la farines, des pâtes et du pain;NULL
408;Equipement de la personne;NULL
1041;NULL;NULL
899;Epicerie Vrac zéro dechets;NULL
374;NULL;000000
800;Fournisseur Boissons, alcools et spiritueux;NULL
285;Magasin primeurs et produits locaux;NULL
592;restauration;905174
871;Agence de communication et Web;065812
230;Torrefacteurs café;654321
1035;Conseil et formation en management QSE et RSE;553437
1038;Bar, bar à cocktails;467913
1064;conception vente et aménagement de cuisines;120635
1094;NULL;213940
879;Angouleme Charente Football Club;951877
328;savonnerie cosmetiques bijouterie;100686
975;Autres organisations fonctionnant par adhésion volontaire;747061
1093;Restaurant local de produits locaux;973247
807;Opticien;070261
160;Fabrication de meubles et objets de déco en UPcycling (recyclage);042717
302;institut de beauté et spa;405566
161;Conseil aux entreprises;022620
575;Bijouterie;573651
419;bijouterie;687435
220;Caviste, bistrot;045021
930;Boucherie charcuterie;919089
783;Boulangerie;444362
1104;Fabrication de bière;967613
384;Négociation tarif energie pour les particuliers;186241
562;restauration;204261
855;vente de Cafés, location machines à café;071855
157;NULL;568312
96;Savonnerie;037614
1029;Activités des organisations patronales et consulaires;1591591
56;Cave à vins;081799
739;Bar;148254
1051;Pizzeria artisanale;948080
869;la numérisation ou transfert de film video, de photographie ou diapositive et de support sonore, dépannage, conseil et formation en informatique, création de site web et graphisme;644240
999;soins de beauté du corps et du visage épilation modelages maquillage balnéothérapie soins des mains et des pieds appareils LIFT et LPG cabine UV;959387
185;Micro crèche écologique horaires atypiques pédagogies alternatives;031917
186;Micro crèche écologique horaires atypiques pédagogies alternatives;039216
1017;NULL;NULL
280;NULL;857260
1073;NULL;NULL
840;NULL;656295
258;Expert comptable;346699
445;Fleuriste;926067
507;Association de danse intuitive;197735
1100;Travaux de peinture et de carrelage;948312
429;Direction commerciale externalisée;151015
692;restauration;915419
183;Praticien psycho corporel;045814
763;Avocat d'affaire;623441
292;Attelage equin;696867
31;Association solidaire - Achat et vente de produits d’occasion;027417
276;NULL;NULL
400;Bijouterie joaillerie;382064
438;fleuriste;920634
910;Habillement;922163
169;Expertise comptable;069587
85;Tapissière - Décoratrice - Meubles peints;031521
885;Federation des centre sociaux;709011
334;Base loisirs canoe accrobranches;995588
251;Boutique d'images (affiches, cartes postales, etc..) et d'objets;777444
498;COIFFEUR;094749
107;Conseillère en fleurs de Bach;036912
25;Magasin BIO;058017
510;Salle de sport et remise en forme;776081
501;Salle de sport et de remise en forme;776082
478;Galerie;929014
1084;EARL GARCIN;435351
378;paysan boulanger;135790
1028;Conseil en communication et réalisation de site web;995374
754;Alimentation / restaurant;493081
256;Collectivité Sports Loisirs cultures;538458
344;producteurs bio de produits laitiers (vache);860800
1020;sophrologue;898979
1019;HDS;222225
380;accompagnement psycho corporel;260480
70;Conseils, installation, vente et entretien des moyens de lutte contre l'incendie;057909
956;Création de Bijoux et accessoires;061489
116;Maraicher bio, boulanger bio;036021
687;Tabac relais;144126
779;Poissonnerie;548244
394;vente d'article de billard;952333
799;vetements et accessoires;697911
414;Prêt-à-porter et accessoires;951791
405;VETEMENTS ET ACCESSOIRES;200897
474;DANSE et équipements;245052
660;Restauration;221522
86;Food truck;008319
298;librairie indépendante;816275
854;fruits et légumes produits en charente;161167
494;HOTEL;920642
598;Mode homme;941195
815;achat , revente d'objets et articles d'occasion;156357
226;restauration;851369
643;Bar à bière;777016
272;création graphique, impressions, stickers;932540
386;Restaurant Gastronomique;958923
383;librairie;921658
379;Production et fabrication de produits avec des noix;805045
98;Restauration;040506
101;Fast food végétarien;036120
64;Charcutier - Boucher - Traiteur - Rotisseur;031620
749;Bar - Café;150277
90;Restauration;037020
1036;Discothèque, bar de nuit;238743
99;Restauration rapide - Café jeux;031719
770;Bar - Restaurant;157039
223;Site de vente en ligne de produits de producteurs locaux;016600
758;Restauration;953670
442;Maroquinerie;384549
433;Equipement de la personne;956065
219;jardinage naturel et préservation de lenvironnement;602046
308;chocolats, confitures, fruits secs et confits;561675
87;Boutique de créateurs;036318
1062;Fromagerie, crémerie, épicerie fine;117383
268;STUDIO DE COMMUNICATION et EDITION D'ESTAMPES;965478
797;Bar à jeux;402416
973;Savonnerie Artisanale;678159
1044;Organisation de foires, salons professionnels et congrès;568480
559;Achat revente d'objets de seconde main;947263
287;Librairie;323435
303;Librairie;503232
329;Cosmetiques et savons Bio;765602
798;VETEMENTS ET ACCESSOIRES;216173
1004;Fabrication d'articles textiles, sauf habillement;586075
1006;Fabrication de vêtements de dessous;332232
1003;REFLEXOTHERAPEUTE ET MEDECINE CHINOISE;047381
355;Fabrication de confitures et gourmandises;055313
838;Biscuits et sablés artisanaux;150865
1034;Photgraphie et Communication visuelle;508366
1012;traiteur à domicile, plats cuisines à emporter;237090
1037;achat et revente de produits de bien-être, produits de producteur, et création et produits divers et location de boxes et de salles;845634
901;Concept de restauration Healthy, où tout est à base de fruits et légumes frais;932263
1010;Conciergerie d'entreprise, services aux actifs pour gagner du temps et faire des économies.;770779
1025;Graphiste , Photographe;359362
984;Fabrication d\\'articles textiles, sauf habillement;076615
867;Onglerie;790215
1072;Fabrication d\\'articles en céramique alimentaire et décoratif;893253
862;Thés et infusions distribution magasins de producteurs;770479
943;Atelier Broderie et Cie;390629
508;Elevage volailles;852311
279;BOULANGERIE PATISSERIE;304152
1052;Création artistique relevant des arts plastiques;552275
122;Salon de coiffure;038316
239;Cours de chant;203040
750;café bar restaurant;359874
100;Restauration;032025
94;Réflexologie;037416
1112;Soins d\\'esthétique onglerie maquillage conseil en image massage de relaxation;NULL
1022;Autre mise à disposition de ressources humaines;876092
235;Reflexologie plantaire;056460
97;Production de plantes aromatiques et médicinales;044517
93;Psychologue du travail;037317
84;Créations textiles;031818
1109;coiffure en salon et à domicile barbier vente de produits et accessoires liés à l\\'activité;825012
212;Travaux paysagers;545644
621;restauration;943135
49;Vigneron bio - Cognac;038217
236;Commerces de détail d'optique;582311
58;Outils informatiques de gestion;756153
128;Pâtisserie - Chocolaterie;038811
78;Maraîchage biologique;031323
91;Magasin bio;037218
1115;Vente de tous matériaux de constructions, transport routier de marchandises pour compte d\\'autrui, location de véhicules pour le transport routier de marchandises.;NULL
677;Jardinerie indépendante - plantes, nourriture animalière, fourniture de jardin etc...;NULL
262;bar à vins;556202
1117;épicerie de produits alimentaires et non-alimentaires vendus en vrac, le négoce de tous produits alimentaires et non-alimentaires, l\\'activité de salon de thé;NULL
1116;Le commerce de détail de produits alimentaires, certains vendus en vrac;NULL
130;Maraîchage biologique;039909
980;Restaurant-Pizzeria, vente à emporter, livraison;909216
359;Sensitive Gestalt massage;263814
1118;Restaurant, traiteur, plats à emporter, bar, location de matériels;NULL
1119;restauration, traiteur;NULL
1120;L\\'Atlas, restaurant oriental proposant une cuisine maison.;NULL
661;Bar à huitres;453615
1121;Fabrication d\\'emballages en matières plastiques et papiers;NULL
1122;Fabrication et vente de tous emballages en quelque matière que ce soit, conditionnement à façon de tous produits à l\\'exclusion des produits d\\'entretien et de nettoyage;NULL
301;Pâtisserie;804622
793;Creation site web et design;792062
80;Achat et vente de produits d'occasion;037119
760;BAR PUB;943131
468;Coiffeur;953640
81;Atelier 9, propreté / manutention, espaces verts, maraîchage bio, second œuvre et garage;036714
977;Courtier en assurances;978165
189;Restaurant;262728
150;Maraîchage biologique;039711
784;restauration;158746
464;institut de beauté;865001
166;Plasticienne artiste peintre;033519
966;Promotion et vente de produits fermiers charentais;674951
261;FROMAGER et produits locaux;909083
1088;Lieu de travail, de diffusions et d\\'expérimentations culturelles.;NULL
1123;activités escalade , Padel et Foot;NULL
131;Kinésiologie, constellations familiales et systémiques;001821
492;Décoration Ameublement;964896
110;Atelier de réparation de vélos;038118
1126;Récupération de déchets triés;NULL
789;Bijoutier;200517
114;Producteur de spiruline;037713
82;Boulangerie - Restauration;036615
388;Bijoutier;943004
221;Boucherie Charcuterie Traiteur;697772
822;Boucher Charcutier Traiteur;951393
541;Restaurant;655373
365;Bureautique et fournitures de bureau;747534
755;Alimentation / restaurant;279523
270;Maraicher;366522
955;Fabrication de caramels, et autres produits gourmands;774068
109;Crêperie ambulante, traiteur, ferme pédagogique et vente de produits;007914
998;Fabrication d\\'autres meubles et industries connexes de l\\'ameublement;352682
962;Bijoux réalisés à partir de mécanismes d'horlogerie et créations textiles;825125
1114;vente de poissons, coquillages, crustacés, agrumes, boissons, plats préparés et activité de traiteur;039684
195;Magasin bio;047217
224;Restaurant;281412
986;Production spiritueux;177676
247;ostéopathie Energétique;223040
524;Fleuriste;681342
820;vente de Cafés, location machines à café;058654
551;Coiffure;332561
969;Pile clés réparation smarphone Horlorgerie;933172
514;Boulangerie;928372
243;Epicerie de produits locaux et Peu de produits transformés;030498
273;alimentation bio;163921
88;Artisan Fromager;036516
108;Réseau associatif militant;031224
437;Thés cafés, épicerie fine;960471
1127;Élevage d\\'ovins et de caprins;NULL
364;COIFFEUR et BARBIER;166424
1124;Autres organisations fonctionnant par adhésion volontaire;483278
1054;NULL;NULL
1128;NULL;NULL
248;Fabricant de pain - Fournil;233040
232;BOUCHERIE;094921
225;Espace de coworking bien etre et boutique;056910
448;BOULANGERIE PATISSERIE;913357
368;Pommes , jus, oeufs;289132
164;Epicerie zéro déchet bar et cave à vin;045714
19;magasin de producteurs;429866
127;Elevage caprin et confitures;038712
217;Epicerie de produits locaux;161122
288;Epicerie Vrac;613131
237;viticulture cereales;883325
77;Brioches, viennoiseries, pâtisseries, pains de mie, pains hamburger et des pizzas;004224
836;epicerie;950243
928;Fromager;069634
249;Magasin de producteurs;902021
142;Biscuiterie salon de thé;463355
1125;Fabrication d\\'articles de maroquinerie;482033
103;Culture et transformation de céréales;045678
323;Producteur de légumes bio;022236
1027;Céréales;699118
170;Epîcerie BIOLOGIQUE;336698
275;Magasin de producteurs;303185
747;Boucherie charcuterie superette;215568
1014;agricoles, micro brasserie et débit de boissons;173995
