id;username
22;000426
162;850078
829;477398
102;439680
770;639956
70;026022
364;055313
3449;856762
393;dp75
3445;149301
112;128835
74;002028
508;Jeremy
72;042816
400;Sylvamat
11;022620
12;022621
13;022622
53;000129
52;758475
43;123456
42;012345
55;123456
19;759512
18;012345
17;123456
54;012345
414;738349
95;052914
25;578456
30;123456
31;012345
36;123456
37;012345
39;987654
40;012345
21;022620
23;000327
24;000426
113;770300
90;101214
409;928372
254;030324
100;191297
569;393058
1974;988715
114;041916
2138;983976
440;202224
81;043023
84;417157
116;969389
687;817232
284;100686
133;009813
287;696867
56;123456
94;047910
89;045813
109;050916
121;060024
142;965478
3272;240266
62;025716
597;033519
141;645520
266;405566
1180;520966
61;047118
404;271711
361;995588
96;463355
257;303185
98;602046
2536;678566
531;926067
386;137130
177;850051
616;Pascal.COUSSON
615;DECLIC3736
232;850082
153;022620
187;850067
188;850070
189;850065
163;850044
164;850087
166;850049
167;850043
169;850066
170;850074
171;850071
3516;665204
3191;900927
174;850061
3021;904501
2629;362662
176;850058
178;850060
509;216173
3469;776722
181;850062
213;850036
1138;866591
216;850038
183;850054
223;850086
371;209598
655;0316202
401;423650
395;260480
366;166424
397;163921
441;202224
192;850025
591;031125
605;288269
201;850002
209;850006
87;000327
518;697772
380;187796
131;042123
3274;509674
118;149018
119;104272
127;999431
273;162816
237;850057
186;850076
233;850059
2283;634770
3339;718912
387;390985
3233;676883
792;694842
2285;093120
1742;784171
1653;964050
3690;838540
93;053022
134;004223
128;093022
1626;664116
1642;063981
136;081799
130;883325
476;093229
412;045678
1776;185045
303;336698
369;123123
3435;783458
214;850022
104;099869
234;850063
180;850064
3188;822712
598;674951
3911;002339
165;850072
267;170326
225;850069
1946;068039
3780;565299
229;850091
2627;099603
448;742249
736;069079
367;888888888
239;850046
240;850047
241;850092
242;850052
388;Corine
1735;378658
244;850075
245;850080
246;850081
247;850083
248;850084
249;850085
431;031719
396;765602
2458;546921
265;280890
372;758475
117;542129
120;813725
235;850040
259;471165
160;850089
179;850056
3887;683993
182;850068
373;747474
139;215232
381;888888
226;850073
227;850088
230;850079
156;804975
286;263814
195;850012
1251;244461
454;735615
390;135790
3778;542611
1486;191260
231;850077
2027;293174
1970;062953
159;001821
140;406354
289;613131
123;946818
256;556202
157;807546
282;CU2007
238;850045
132;036318
458;200517
453;402133
1379;395075
3165;869421
2793;611876
3464;270814
278;454970
1023;273186
1739;532647
1428;174782
582;604567
416;032025
185;850090
57;022620
851;487281
280;756153
288;572869
777;188872
279;932540
1369;893570
316;060204
474;186241
466;200897
375;747474
590;644240
374;758475
377;747474
330;056910
510;697772
444;493081
1523;164002
383;888888
1439;652192
702;543614
384;4545465
382;888888
3159;591861
821;656342
407;631420
271;751353
415;032025
602;615397
1357;658505
406;720096
322;036120
2999;037218
1446;957627
376;758475
2286;104243
308;016600
368;245633
455;943004
411;776082
1386;014703
410;776081
456;783952
2113;557256
700;291059
324;001821
340;602046
337;047118
3770;456611
421;776081
327;645520
292;TEST
3867;094593
314;038910
268;503232
318;037812
419;123123
418;952333
424;260480
1450;702625
450;037614
122;036021
263;000000
101;058017
252;037614
511;951393
499;548244.1
425;031719
283;902021
428;094749
475;150865
426;204261
274;004224
427;920642
312;965478
389;401044
325;037416
154;045714
356;Aurelie
135;336698
251;885443
378;xavierbonnefont
319;503232
313;063349
262;030498
328;004223
445;094921
269;304152
91;161122
272;063349
2289;349921
69;037812
3661;845784
399;029811
329;057810
3004;497657
99;687631
155;047217
601;881818
332;093022
75;056910
1414;094900
105;062725
124;038910
253;323435
82;060204
311;060024
370;390985
184;057810
258;203140
108;233040
339;062725
129;080213
543;941195
255;036120
80;037416
103;057909
452;402133
326;045813
320;080213
345;263814
63;590644
342;932540
346;696867
92;039909
3857;382224
305;366522
137;366522
3831;085542
385;45465465
350;mancelivan
341;613131
349;444477
348;943017
581;245052
413;952333
352;038316
260;016600
600;061489
250;069587
85;018615
68;281412
351;mancelivan
362;036912
355;036912
294;004224
353;testo
354;012720
359;454545
358;454545
357;995588
334;000426
224;891686
436;329541
573;156357
434;920642
438;747534
430;44444444
138;711556
578;359874
619;DECLIC2364
459;676588
614;DECLIC3304
505;964896
437;Oublie
570;709011
500;623441
478;042717
447;981641
472;716721
2215;181665
435;453615
1893;310973
439;006222
471;921658
512;215568
534;655373
3660;4512782
1521;996249
604;390629
300;030498
482;042717
485;186241
457;382064
606;008319
479;905174
593;777016
515;951791
3880;098193
924;382420
521;151015
2111;304763
595;181022
3826;068795
3785;664105
2235;850032
1982;861017
467;947263
2080;149053
540;927703
2230;290376
405;247739
443;221522
477;373552
580;065812
484;093229
469;184461
429;453615
497;548244.4
490;548244.4
493;548244.5
498;548244.1
495;548244.2
491;548244.2
496;548244.3
492;548244.3
392;746686
343;902021
504;150865
463;200517
488;697911
547;384549
530;071855
465;697911
520;689894
2206;079596
473;001326
468;947263
481;905174
635;DECLIC2247
222;525831
276;850042
624;DECLIC2699
533;915419
629;DECLIC2737
628;DECLIC3246
172;850041
544;958923
634;declic3427
625;DECLIC3557
535;058654
532;197735
502;689894
541;929014
1142;811440
545;157039
501;151015
613;654990
1966;620864
705;732113
173;850039
525;623441
3166;909083
3168;568480
79;578456
394;805045
3697;540145
549;792062
3369;259100
175;850048
536;548695
516;676588
519;964896
3115;777314
2347;869837
408;741852
572;178651
567;yyu1ct11
2551;866723
2357;130843
2519;219742
596;477991
2576;462052
442;747534
2322;789833
2506;450253
538;943131
2758;037218
550;953640
559;829161
1738;344916
529;070261
3104;439381
632;DECLIC2191
618;DECLIC2279
623;DECLIC3571
622;DECLIC3862
537;920634
2262;273788
2763;302735
3169;572774
2759;699118
522;161167
528;951877
480;161167
626;DECLIC3181
594;069634
542;548244
3167;898979
609;825125
586;034419
2891;041780
2552;426181
2440;660137
158;019713
503;334548
566;604567
86;974881
660;0316201
584;366850
637;Anne
643;Christine
583;919089
640;DECLI3854
911;075144
641;DECLIC3854
588;935700
662;DECLIC2432
627;DECLIC2488
1724;951352
631;DECLIC3179
557;038415
630;DECLIC3200
633;DECLIC3265
644;DECLIC3362
524;493081
648;DECLIC3382
564;224141
552;154491
526;716721
645;DECLIC3473
646;DECLIC3498
507;951791
555;255631
651;DECLIC3569
652;DECLIC3664
620;DECLIC3729
568;374728
649;DECLIC3796
650;DECLIC3823
642;DECLIC3832
636;DECLIC3937
653;DECLIC4089
647;hephaistos
639;jourdain
506;test
638;Vvion
1741;297495
1159;659071
2594;089988
2318;441389
554;253058
558;028942
716;318908
2399;071185
612;774068
2427;723556
2465;345845
2419;754385
2323;504450
2503;198311
565;852311
661;031917
656;002547
599;865001
556;279523
2438;401353
2466;515834
2436;675133
2569;095603
577;865219
654;Jerome
2422;869420
658;933172
2441;479737
2204;019503
2371;793974
2602;050895
2437;404793
2452;323773
2562;047407
553;681342
2363;172728
3170;856523
1016;213328
1475;409123
1459;383795
1008;256605
1464;633707
1449;836160
1419;730966
1418;516845
1424;492039
1006;256739
1433;799832
1440;711763
1479;041758
1463;418630
1445;504393
1437;710755
993;839363
1421;325399
996;849284
1014;987275
1469;334157
948;388688
3173;679124
951;763268
1371;065654
1448;717464
1004;572883
975;494957
1431;561496
1451;578444
1362;080303
987;350325
3172;125493
983;642207
1438;552581
1453;063464
1012;677653
1009;413158
994;846301
952;221862
1462;611195
1003;851515
950;457282
988;954354
1019;635742
1010;050609
1018;603377
1015;137851
999;875161
1002;618224
982;053742
1011;792014
949;737928
985;858750
1021;417264
934;212260
1001;853135
997;267519
978;544855
990;067916
571;158746
980;467964
971;127215
789;586899
1989;584618
1090;147816
1883;911648
788;867855
965;174483
3282;685948
2876;383398
2284;191076
785;521461
790;545992
960;744301
782;647867
1049;209628
787;833600
692;572517
2288;306295
969;905766
956;189827
2197;466328
3817;118098
701;351139
694;975214
1842;358759
1843;475160
954;682128
964;326989
953;365269
961;700469
962;338167
973;645428
967;683526
783;726109
690;395458
957;605420
958;701593
963;086426
968;769062
955;951026
403;753923
1053;568916
576;687435
264;016320
970;419043
333;405566
959;688592
460;943004
972;117404
2282;051192
791;365289
784;201224
487;200897
513;215568
3171;441684
551;281912
360;909446
1111;834855
1092;124487
1110;919133
1095;418373
1113;476445
1096;216465
1108;178099
1087;941959
1472;668290
991;494636
943;222988
947;601876
1007;414178
1470;208954
979;519362
3926;959387
3927;222225
1000;365228
945;226520
894;148254
984;374046
1013;765215
944;961834
899;562336
562;381529
895;039216
1471;011947
1017;144127
896;045814
992;180490
974;537021
995;919687
946;491291
981;163309
898;402416
304;883325
433;204261
1069;076081
3928;922926
897;031620
772;257717
889;427843
818;116017
858;615598
804;658242
811;475387
794;414450
861;950933
872;810285
832;737535
663;DECLIC3475
863;149809
1720;274580
890;949221
848;048552
168;850053
698;300868
855;332119
842;510689
880;052336
822;816729
824;214596
805;315714
870;148427
796;441493
664;DECLIC2713
827;183356
846;929954
835;527860
814;495591
892;885063
875;344965
666;154545
840;112505
773;653760
847;456967
853;479259
806;044292
860;095670
817;442405
869;948644
391;135790
816;029464
886;358804
862;148819
867;683654
826;594740
839;157250
799;785534
801;771360
2065;652006
866;811293
834;794608
843;148071
877;886277
857;233064
873;775483
852;595499
868;311963
865;036195
797;832238
4137;703393
4119;983413
4136;203144
4123;807160
2179;406568
2159;408603
802;830383
4117;733628
841;349624
2214;546836
4120;883186
887;548018
856;750586
4116;439222
781;649768
844;412733
4127;176152
4128;691196
4114;425116
874;903809
4124;655189
4132;145434
780;440324
4115;360154
4125;429907
4133;602396
4126;682031
4135;020167
4129;354828
4131;934021
4134;201623
883;298617
4138;471146
4130;208680
4140;407969
4118;899731
261;635043
815;687058
884;552231
828;401051
4121;753129
775;467095
830;736532
808;249986
4122;070210
4139;814572
4308;267302
4309;906623
4310;800143
4311;209097
4312;857004
4313;735976
4314;650791
4315;069440
4316;730592
4317;727265
4318;018194
4319;819042
4320;090830
4321;869498
4322;091259
4323;992533
4324;606854
4325;708297
4326;683149
4327;297171
4328;643809
4329;771771
4330;539390
4331;317659
4332;578742
4333;536439
810;944028
891;841962
779;396064
800;438591
825;575237
871;385235
1067;164201
819;024688
678;461444
833;414020
813;945804
1068;295809
878;451421
1103;629874
1112;497234
812;086321
1109;832625
837;438058
845;674843
1062;506881
831;242289
798;564553
885;559283
836;533822
823;240632
838;962902
793;947819
882;052459
876;788066
859;381281
881;624661
803;587694
850;542670
1081;961658
1097;723929
1084;891810
1094;864946
864;619275
1080;170768
1088;173713
1099;343966
1089;623063
1071;634741
1077;114679
1115;065297
1119;508553
1116;489571
888;976442
986;589872
1492;255753
1101;273537
1078;784293
1065;708345
1501;541015
1106;107429
1074;790082
1493;382888
1064;138191
1117;326245
1070;939213
1491;540559
1082;428651
1098;009231
2495;777002
1467;638281
4184;654741
1105;366156
4185;092492
1100;374041
1093;211082
1083;573081
1779;106495
1076;797380
579;159784
4334;344455
1120;211416
4335;971229
4336;453153
4337;454116
4338;512317
4339;917402
4340;836439
4341;868255
4342;918329
879;831440
4343;183095
4344;223768
4345;548643
4346;989957
4347;949764
4348;640057
4349;406001
4350;048273
1783;018907
4351;590298
4352;879164
1104;428915
4353;977605
1075;681748
1086;480458
1780;737735
4354;252241
4355;309931
4356;860244
1118;156482
1073;967714
4357;966689
4358;706804
1658;896633
1667;915573
1499;161089
4359;858683
1489;413203
1498;061110
4360;066339
1091;707219
4361;103471
1488;113936
4362;012151
1494;645719
4363;734755
1497;630679
4364;374329
4365;835198
1496;145139
4366;479093
4367;003030
4368;659981
1370;483603
4459;770479
1360;595443
4460;599920
4461;419854
4462;042618
1500;589324
4463;669977
1502;164691
4477;665349
4478;403298
4479;177824
1247;249971
589;001204
786;629525
1188;539624
1199;404003
125;777025
1271;332232
1506;374341
1504;868833
1457;733130
1456;991109
1366;132813
1233;542716
1171;322445
1186;752068
1260;461204
1286;053517
1276;365535
1184;112283
659;747061
1122;735390
1236;508921
1278;349843
1316;571887
1309;965765
1302;646153
1334;699715
1272;352682
1280;029118
1172;771379
1281;840472
1242;308590
1179;320652
1313;053220
1338;757511
1190;827036
1189;000068
1166;700477
1354;30498
1182;680865
1329;058116
1355;16600
1223;319259
1241;623858
1307;052221
1226;418152
1314;027120
1123;804499
1266;941955
1312;053121
1327;054647
1102;204634
1505;982811
1204;417331
1258;095609
1503;531156
1331;056118
494;548244.5
1173;280204
1245;970575
1346;850050
1345;056613
1352;553640
1124;475909
1340;189565
1263;489350
1192;797128
1244;740745
1289;992163
1170;095005
1295;497110
1326;012819
1177;794898
1218;108590
1321;950313
1202;647645
776;436667
1249;251066
1197;754197
1305;056712
1248;002778
1215;667406
1165;881331
1299;416655
1174;804212
1339;058215
1330;052419
1230;821701
1337;050817
1207;416473
563;289133
1342;317857
1323;055218
1349;100610
1287;053319
1341;770375
1194;291277
1294;285611
1225;985475
1196;823449
1290;055515
1347;837617
1176;848362
1254;143416
1283;042212
1311;813929
1216;692424
1193;300622
1121;315345
1257;238333
1297;040074
1255;224596
1205;363573
1317;055317
1343;961260
1320;468612
1350;981630
1351;221092
1324;055119
1264;533028
1259;548356
1274;332561
1163;250250
1178;670179
1213;784735
1222;090838
1301;055416
1211;268672
285;009021
1227;935151
1261;854026
1332;056316
1267;104757
1308;130680
1792;404806
1200;830733
1229;980869
1212;709176
1232;290935
1168;208374
1206;474530
1328;693471
1243;646124
1348;153081
1285;053418
1322;056217
1164;524524
1277;208321
1304;056811
1303;684512
1282;352446
1181;363757
1279;144058
1265;939597
1325;000723
1296;063757
1240;184855
1224;489248
1269;790776
1318;314774
1336;050421
1262;977538
1284;932838
1268;882262
1300;052518
1298;035913
1167;222734
1201;142798
1183;341412
1344;006915
1210;034841
1253;454052
1319;614507
1291;981555
1237;376995
1335;354248
1175;399251
1198;891668
1217;289643
1231;357103
1221;950140
1219;213382
1239;262815
1220;197938
1209;468246
1246;404058
1250;767566
1275;144126
1234;314967
1252;731191
1270;423919
1228;851657
587;008220
1423;008366
1356;45714
1292;666630
1476;589366
1293;747748
1310;032817
1353;55313
1372;223933
1368;762706
1429;555262
4261;568788
1364;038684
1358;048154
1454;911752
1420;861367
1422;432937
1432;735729
1441;429170
1458;571938
446;094921
1444;509750
1478;975910
4369;863746
1480;596342
1447;554446
1442;369080
4370;082370
4371;718251
1365;417770
4372;130343
4373;836448
1187;028762
1481;591646
1484;366517
1465;306564
4374;695551
4375;931472
1427;386170
4376;767295
1474;341866
1466;597216
1468;395409
4377;271386
4378;434664
4379;891522
4380;203375
4381;477779
1460;829429
1477;141587
1436;176394
1359;763043
1361;324628
4382;589428
1483;018022
1452;223357
1778;568609
4383;156401
4384;036156
4385;078821
4386;471050
4387;733446
4388;910289
4389;033541
1425;799646
4390;444607
1455;049834
4391;056597
1482;593064
1443;724653
4392;013999
4393;545763
1473;221912
4394;033170
4395;516967
1430;049786
1487;033783
4396;542777
4397;548960
4398;146445
1363;139511
1426;849508
4399;756401
4400;124418
4401;689060
1169;890818
1773;649508
1373;855852
4402;329488
4403;622514
1435;452495
1374;024316
1495;570563
1367;495371
1461;413149
1698;990772
1673;965553
206;850007
1671;893397
1629;840101
4144;504244
1645;259987
4018;396285
1689;092840
1707;151076
1687;163206
4219;444233
4070;338099
4043;061659
1677;260159
4046;261247
4228;170142
1662;444798
1646;451863
1636;718282
1767;274571
1669;224869
1660;282651
4096;799850
331;203140
1680;397152
3943;732717
3999;783903
1657;059165
1649;553387
4010;851698
1683;766330
1679;316200
4053;194137
4250;675772
4101;713098
1623;530109
1681;859368
3991;575850
4216;177898
4204;138780
1635;440483
1702;415511
4065;250342
1695;894995
1674;990813
4081;766416
4111;041432
1715;533307
4207;362251
1625;573362
1637;277160
1670;256547
1633;841497
3997;484545
4030;281393
4246;692190
1643;785803
4187;694633
1696;571369
1769;385780
4106;825217
4190;171471
977;406089
4006;138978
1685;362191
3982;789836
4241;936080
4082;509496
3942;770214
1638;447955
1678;503334
321;323435
422;928372
423;423650
1663;282797
335;069587
1784;770779
1640;244960
1572;050612
1621;033519
1675;168855
1567;347338
1690;597263
1692;712355
1556;048767
1541;030039
1580;907258
1560;714680
1562;556735
1604;714449
1766;413835
795;871079
1585;810267
1641;467102
1659;426269
1628;937701
1705;285586
1694;553660
4176;025720
4237;542593
1665;378839
4000;731333
1581;361118
1693;842287
1644;146335
1648;005355
1712;544833
4160;313400
1608;075190
1630;646368
820;686817
4020;390566
4229;227877
1586;218394
1584;527204
1590;069529
4171;733302
4052;585417
1569;410614
1589;508398
417;738349
4024;515147
1583;870815
1587;046848
3941;782002
4071;366016
1530;293640
1593;338042
1607;717194
1577;065725
1598;712311
4169;535283
1538;766716
4058;987849
4113;182560
4234;841574
4074;242210
3930;963625
1509;006905
336;057909
4151;969307
4014;528195
4031;605700
1559;577530
4077;778480
3979;183572
1543;629077
4105;516324
4097;422842
4226;884538
1571;250553
4157;510087
1564;183152
4013;081626
461;382064
1651;954281
1515;312550
1613;510649
1508;151706
1595;380060
3860;686628
1511;705261
1654;421644
1514;538550
1578;091164
1703;590551
1512;280083
1609;065494
1565;944052
2929;764522
1594;693107
1704;983188
3958;498265
1510;894048
1582;534362
1603;801710
1601;867857
1570;977324
1573;589561
1600;255890
1672;334813
1631;003018
4060;435245
1768;302008
3950;072550
3955;805955
4037;814390
1610;760984
4258;213556
4057;910431
3986;538961
4249;988058
1606;758491
1588;286587
4224;466059
317;081799
1596;427277
1507;638497
1602;927990
4174;668893
1568;810413
3956;688795
4260;678464
4213;615084
4089;658921
1235;618492
1605;767948
2930;112745
1513;771427
4083;923340
1619;978165
4102;164105
4088;285939
3992;542838
1566;337876
3978;051333
2931;766489
3933;369695
4085;455907
4041;838713
1664;620744
4072;502132
1622;325344
4022;593786
4165;256879
1708;300739
4225;382139
4247;616699
1771;110626
4091;799229
4167;565750
4092;309525
4240;434412
1612;797822
1697;721775
1315;012126
1620;586075
1786;173995
1599;363311
1574;558927
1563;332404
3000;7897897
1575;042420
4180;882983
4154;852035
1716;526165
1709;893961
1701;524477
1777;547109
1632;212719
1688;028809
1710;668303
1652;872780
1639;048101
1624;611963
1699;425314
4220;756474
3983;740344
4178;451952
1627;770736
1650;936874
1717;254779
4039;912224
1647;044124
1668;355103
1634;094675
1713;944978
1770;876337
1790;860800
3998;877789
4236;866675
4252;433695
4059;924679
4196;197342
4112;629661
4205;217812
1691;931467
4084;522202
4004;724649
1785;929932
4056;900871
3938;437446
677;619815
4152;295317
3966;724149
4155;796954
3995;564099
1787;237090
4109;289532
4150;355703
4153;072421
4168;337474
3946;516784
4162;822200
4026;792285
3954;040594
4192;776017
4177;691389
3974;824474
4164;002154
4193;622767
4233;849851
3947;877143
3981;195656
4209;540946
4203;214885
4034;067414
4068;085810
4172;389262
4166;565522
4087;868400
4033;689732
3961;319517
4023;213918
4189;246997
4194;707519
4040;230603
4001;388370
4028;353536
4201;060773
4015;039816
4017;517022
126;476583
4044;547069
1655;262108
560;943135
4206;090081
470;221522
3885;376107
2168;324932
2066;799041
2231;950624
4035;757506
2096;336593
2985;392734
2986;966074
2252;615154
2223;674538
2195;364296
4163;874253
2070;468275
4149;325193
2989;987268
2150;528685
2258;674591
2056;713538
2994;287878
2990;180120
2162;788462
2094;101510
2995;929718
2998;489454
2993;468341
2143;030481
2991;046856
2996;176208
2992;768894
2248;612030
2246;126083
2259;965043
2280;345014
4050;977415
2009;512363
2018;601620
4075;422712
2114;476756
2242;410000
2137;270094
2240;724674
4036;804380
4079;722950
4208;015511
4230;376427
3922;354788
2072;822477
4103;121744
3937;979870
2039;598451
2141;100698
3924;290000
2112;650733
1903;878874
1684;911937
2045;075311
4222;290360
2237;580923
4086;859390
2007;475129
2180;702292
2987;570285
2030;650534
3925;551408
575;573651
3001;033519
2250;367935
2184;821176
2178;295588
1980;954324
2014;312201
1333;056019
2251;471002
2997;865182
1746;016569
2029;267861
699;727545
2050;407526
2109;670815
2044;936404
1375;591058
3756;828870
3773;910238
1750;402482
2129;118512
2131;676202
2270;953223
2051;942659
1998;055123
3939;073716
2167;200524
2148;343141
2002;771648
2272;345014
4009;681236
2787;983723
2127;647915
2200;942687
2031;281691
2163;521325
2149;276403
4214;940847
2963;662094
4051;366719
2188;105947
2161;047307
2241;760857
2108;240407
2059;204099
4197;691626
2024;515478
1999;958400
2889;186105
2243;193416
4245;539488
2227;787077
3662;573488
2053;678059
4104;255094
2193;123320
2203;822655
4210;574341
2026;685655
2430;152319
2034;488741
2896;278535
2156;900561
2074;570436
2221;020509
2016;393542
4007;856780
2239;781375
1940;020816
2000;492738
1941;362765
2086;910572
1934;114882
1939;110572
4199;479986
3934;180319
4212;939090
3932;134156
2948;130260
1936;643862
4094;382943
2846;279864
4223;212355
4005;744908
3972;678035
4076;923534
1935;083096
4011;773136
1393;100759
4078;398702
774;868509
1997;059433
3936;264882
4098;987093
4183;184757
1942;735008
1937;788490
4012;667676
3929;9216582
1938;847023
1726;090094
2264;843994
1141;184546
363;038316
2271;266948
2001;653593
2171;435206
2106;760974
2172;816786
2276;488783
1485;231990
2857;479350
2199;310276
4049;954799
2775;180152
2273;092022
2028;022634
2253;361568
2133;767046
2073;517026
2040;899589
4054;038926
2234;297559
4175;408471
3975;924763
2279;076615
527;805045
4232;001631
2134;610815
4173;415648
2278;630076
298;045714
4239;895841
4218;052273
4063;268158
2160;912145
2155;691489
2120;239259
2130;220151
2154;033785
2020;323043
1561;082494
2013;511570
2038;337533
2228;225372
2878;917874
4021;408150
2087;915076
4064;303391
2902;567616
3948;548826
2301;549056
2224;582615
2236;946186
4179;124214
4100;286090
4159;810690
4248;806286
4156;480003
3964;498089
3994;137359
2010;447851
2140;330328
2229;339040
4255;439928
4238;822487
2115;025563
2166;266210
1214;382911
2978;260507
2021;542783
2263;838732
2124;541785
2216;381328
2804;927806
2274;600010
2128;151237
3904;767084
1550;295114
2035;147515
1714;839013
611;960471
2068;051536
2208;504647
2063;067822
2277;876092
2011;765718
681;614056
2860;849838
2085;274266
2093;386795
2211;712965
1895;694007
1996;866003
1897;026863
1666;117920
2048;150649
1896;067932
2176;106353
1928;438067
2118;351910
1812;759400
1774;190252
1825;975958
1881;327153
1984;191370
1919;397703
1925;731245
1817;119269
4146;516106
1822;835801
1828;258894
1906;991618
1798;048549
1908;270332
1811;799029
1799;591671
1931;645163
1890;855109
1887;860750
1853;348186
1820;935249
4066;881014
1879;012275
3840;634336
1803;644982
1847;527487
1809;505532
1852;202633
1875;700002
3875;619168
1994;973246
4170;897811
1932;125080
3687;775271
1874;547539
1992;302016
1846;115061
1819;335074
1987;820722
3953;544725
1869;549728
1845;673185
1795;227474
1837;641439
1877;602154
1904;897582
1826;302950
561;950243
2968;493819
1857;637401
1821;430350
1990;208303
1922;445807
1860;897479
2974;124336
1794;393015
2917;855521
1866;405313
2828;073900
1859;443577
1802;187834
1911;870643
1884;446393
1886;956435
1804;389394
1880;250355
2205;419261
1816;017774
1848;921498
2841;321974
735;531024
1832;931666
1801;816779
1921;089353
2186;880318
1862;936747
1840;117659
1854;458730
1882;729290
1889;745330
1891;822312
2075;359074
1855;952816
1831;602539
1933;862003
1986;822106
1861;050576
1865;622991
1924;632172
1775;210065
1927;303050
1849;673111
4235;320862
1841;328038
1830;097801
1910;657999
1892;721773
1909;185945
1823;570930
1807;110553
1851;079480
1871;123655
3745;917020
2238;918919
1818;845114
1185;346316
4073;158698
1901;304904
1836;423157
1554;875773
1806;670894
1913;124581
1838;207187
3680;099107
1900;124465
2861;505378
1810;333463
1926;041552
1827;079381
1834;957511
1929;082137
1858;418044
1894;661543
1902;713893
1873;094825
1898;782737
1867;511401
1814;055471
1917;880029
1813;865844
1839;654352
1920;783821
1850;991541
1915;847969
1797;977229
1878;673811
2805;186617
1042;522119
1985;311949
1993;528117
2781;491917
1918;602023
1912;656367
1808;335016
1916;867045
2784;814659
1796;964158
1868;744096
1995;527237
1815;851112
1923;189695
1835;189458
1872;772590
2202;937428
771;225935
2082;905397
2089;712841
1676;576482
1905;482295
2183;765546
1988;229686
1833;918342
1930;102770
1870;778246
2084;610287
1149;387751
2210;380015
2146;012027
657;561675
2249;049068
2187;701543
2076;958653
4217;721276
2058;146854
2006;603487
2247;964026
4045;861149
1592;507686
3935;870549
2142;255072
2194;608508
2207;035928
4256;542133
4095;911230
2100;006646
2043;210103
2101;797954
2083;466226
2189;336425
1005;586281
2012;354264
2257;821325
2275;989089
2233;492582
2225;443157
2196;993433
2218;898132
4231;653509
2132;622979
3952;384655
2170;361734
2067;643637
3996;419128
2092;571046
4107;269723
2055;267812
2105;834652
1686;509574
2042;161239
2165;545644
2145;604271
2190;799856
809;292835
4227;003873
2125;590427
1949;916909
3700;683339
4259;475231
3971;565837
2181;597445
2037;978586
2220;656937
2107;568987
2103;146648
2121;358598
2816;051965
365;055313
2201;328054
2032;621139
2222;309360
2966;974221
2136;967376
2057;766766
295;463355
291;756153
2144;900059
1527;530003
2209;140378
2062;348167
1027;932222
310;018615
2122;333081
2261;877325
2295;375759
2806;274122
2139;452765
2054;049592
585;919089
2158;978321
2088;406028
2116;011870
2104;803799
2943;636702
2812;343007
2025;796864
2174;935907
2831;460153
4215;688714
2254;345014
2119;874937
2817;287240
2957;660396
2060;294325
4181;745785
2923;264963
2268;607207
2033;965092
2046;363013
2810;902565
2244;388232
2022;073786
1114;936010
2293;375153
2008;228053
2852;467705
2135;950959
2097;588213
2823;407678
4141;067425
2928;895057
2052;691574
1782;847016
2269;400143
2802;569762
2126;952850
4251;506592
2213;223170
4029;171740
2281;0226202
2976;466242
2064;552540
4143;074755
2950;804519
2890;338260
2776;724091
2893;875449
2967;232135
2970;183556
2880;696135
2858;033307
2844;350883
2937;449845
2936;915807
2899;840383
4099;968443
1191;426546
2825;872941
2863;709528
854;168265
4038;921515
2299;293806
2926;075409
1533;038940
2292;172938
2768;037713
4061;552811
2877;958086
2961;577895
2962;928526
2023;436690
2914;641013
2955;192934
2815;306118
3990;974847
4016;929176
2047;029445
4186;182893
2859;202067
767;247176
2300;492524
2944;780943
2818;451679
2941;853791
2808;048666
2219;340103
2494;619127
2603;464320
2459;955269
2346;394930
4211;937322
893;654321
2335;428726
2394;213849
2373;221103
1805;846810
4027;969827
2384;487901
4161;007349
2512;115035
2527;102761
2409;219426
2306;854776
2362;464530
3957;840490
2426;271285
2359;217795
2360;918674
2475;789526
2461;028959
2874;981034
2415;022692
2315;272362
2523;572361
2355;591253
2489;580489
2191;062745
2547;077973
2554;349289
2492;897590
2450;067468
2472;633219
4093;576791
2376;436636
2433;496032
2420;969486
2589;128896
2563;016505
2544;712905
2538;342371
2514;213313
2474;754078
4002;098598
2607;162816
2565;178148
2561;101874
2557;020499
2456;785060
1256;116263
2477;355593
2592;046515
2385;338917
2481;913050
2550;405273
2593;223744
2413;855224
2500;865556
2541;833740
2513;805879
2314;955428
2332;146471
2555;814321
2598;157163
2504;533106
2826;851559
3900;809236
3833;179602
2528;903547
2442;358950
2327;598203
2408;275256
2418;278882
2597;361725
2404;921978
2585;259269
2821;536369
1856;854088
2370;500601
3726;196999
1525;018810
2369;903413
3801;355598
2509;008920
2573;726986
2568;234484
2307;904408
2454;889078
2414;989308
2516;142536
2549;437792
2428;400214
2390;995959
2560;294193
2588;505009
2401;130595
2325;265990
2382;859073
2381;678396
2348;950686
2326;422590
2313;150831
2524;499100
2449;972505
1415;579587
2521;589424
2336;267662
2570;597366
2488;061488
2395;061461
2479;973689
2398;725302
2464;382034
4253;105082
2553;031667
2601;312193
2535;769918
4067;934736
2608;807546
2393;466901
3967;068229
2502;324054
2424;941939
2305;918886
2610;850042
2579;433963
2587;028402
2378;197704
1050;331476
2411;745594
2388;572466
2003;342123
4243;049803
1047;015063
2809;223850
2345;437647
2600;179405
2518;852936
2331;635409
2574;573075
2320;874231
4055;646699
4257;219533
2329;698817
2298;179662
2425;806510
2586;349783
4047;910554
1306;052320
2485;571294
2612;850041
2613;785591
2487;724199
2577;607109
3985;428850
2406;427074
2511;513932
2520;924369
2498;755667
4080;192973
768;938426
2353;550088
2374;052361
2333;072947
2566;240499
2837;890382
2328;895724
1203;883068
2606;013818
2526;954339
2364;417316
2497;834577
2532;908550
2545;041273
3965;886763
2451;720325
2309;629517
2343;959509
2478;992037
2530;641700
2439;343678
2421;096141
2505;622093
3993;859012
2405;463738
2392;180581
2483;608102
3987;773017
2614;578292
2316;353174
2351;713841
2572;577438
2358;433918
2354;181579
2330;274269
3959;473198
2431;981161
2486;776652
2321;567762
2434;544538
523;163921
2539;328323
2493;343438
2508;818068
2599;306280
2468;061894
2595;193917
2407;814236
2470;793319
2397;736776
2350;608165
2596;101231
2338;064869
2476;028449
2543;694507
2341;183767
2387;001365
2446;203191
2319;808001
2152;222714
2342;087955
2447;741446
2529;251693
1532;093014
2377;743002
2484;935282
2396;871529
2609;891686
3769;217428
2491;126328
3912;880212
2403;024311
2581;180232
2507;550984
2389;880674
2391;464197
2317;533955
2559;667162
2308;585545
2349;636561
2337;944869
2910;618091
2310;266155
2522;621310
2515;116858
2604;560370
2445;231125
761;601518
2448;583666
2956;549012
2290;723964
2942;733295
2534;251920
2510;767275
2444;186675
2386;452619
2501;819114
2366;277032
2564;685453
2558;328884
2525;466600
2429;098367
2482;337588
2435;859496
3973;067034
2882;709209
4148;853810
4032;049990
4195;132609
4110;626519
1026;398450
2605;691210
2542;898178
2471;760709
2462;639872
2582;156389
4048;431509
2496;900837
2312;510803
2367;421843
2517;917737
2578;601019
3989;678450
2611;804975
2872;551758
2344;016251
2410;147904
3835;765496
3960;769917
2379;589466
1661;991268
2365;145842
2383;179944
1540;763567
420;776082
2540;080541
3765;359213
3879;294714
2580;336150
1536;018681
2783;760663
2453;602172
2546;236162
725;207031
2898;874269
2973;649425
2334;017619
2912;572810
976;500263
2800;403409
2965;959492
2932;201371
2499;823303
1991;145702
2765;845634
2266;282269
2792;738913
2833;242049
2789;915770
2303;750755
2760;031521
2834;628489
2352;150940
2455;029455
2886;014721
2531;016002
2755;1231231
2934;968896
592;922163
3810;593500
617;480234
3672;459735
2981;991834
2571;161027
2400;859324
2324;009788
2416;715814
2583;581484
2895;336702
2791;200445
2814;821799
2913;894350
2901;537948
2657;244154
449;636363
2977;516623
2304;828644
2920;522085
2848;174503
2855;599356
2294;862121
2786;481692
2769;069199
2820;807199
4254;646875
2660;356472
2655;780415
4191;350045
2666;162273
3945;436751
2659;850671
2656;754129
2665;970430
2653;818438
2885;140148
2661;571658
2658;885871
2664;763830
2663;173705
2866;540778
2958;528971
2291;568679
4158;266438
3977;485746
2779;901089
2788;435954
2296;621493
2835;331772
2668;033949
2871;455693
2870;868161
2971;054100
2756;553437
2811;165678
2972;609906
2919;074040
2832;388372
3988;676175
2983;115718
2894;633271
3734;822614
2951;421560
2949;313264
1273;047381
2757;467913
2925;450705
2843;131552
299;058017
2774;388916
2297;466642
2888;555011
2984;082702
2850;835330
2933;158171
1734;723434
2924;350199
2762;238743
2827;791005
2935;732358
3689;276661
2887;011542
1399;214258
2945;959080
2794;262510
462;783952
2952;472153
2662;924122
432;094749
3806;990457
1761;735775
2795;050446
2654;681503
2900;494076
1381;600202
2867;510232
2822;507417
2892;554708
2302;630102
2875;102091
2947;561861
2807;629958
2761;150277
2939;141121
2796;752417
2839;755846
1288;563535
2287;573924
2938;712993
2908;339578
2847;180677
2851;878514
691;924372
1134;794704
2829;047595
3970;443121
2975;957569
1490;698399
2853;618671
2836;218638
849;585462
2803;813795
2854;012419
2780;309820
2918;318397
2940;156690
2884;286479
2799;110235
2767;359362
2845;093915
2906;731572
2770;963387
2879;311372
929;911339
2907;664840
2897;032747
4200;180452
2798;831088
3876;671046
2790;740160
2862;641654
2813;576565
4147;287319
2959;963627
2771;991415
2979;585311
2824;433889
2927;972465
2915;322479
3791;645678
2980;068222
2911;392153
669;622675
2864;087997
2842;430270
2777;149586
4142;952597
1156;730120
2742;769117
737;619809
2954;949140
2683;540697
4188;290362
3940;709274
3754;948175
2616;608795
2903;998413
2838;514708
2617;744228
3944;508620
2751;652041
2460;454715
2785;368740
2635;472328
2637;335819
2739;179923
2732;885948
2688;910942
546;953670
2690;578560
2628;040455
2684;102076
2632;098155
2681;521187
2638;444833
3969;312791
2702;203289
2643;775473
2649;366463
4090;231916
2706;539804
2648;601626
2708;950262
3962;968946
2651;548346
2679;107185
2705;087605
2713;479180
2729;779343
2647;337566
2740;954999
2676;862170
1403;289553
2631;813258
2677;016902
2678;202954
2709;297488
2703;173005
1131;481778
2731;626046
2735;260541
3931;334790
2700;127959
2641;076393
2744;077809
2630;283883
2717;860772
2671;705629
2711;421682
2633;894927
1390;915387
4202;986507
2723;990797
2692;620990
2652;530212
4003;306267
2712;747043
4042;721334
2721;113903
2728;747098
2699;128327
2716;927407
2640;471486
2680;468668
3963;000742
2737;357267
2720;469003
2701;152185
2636;580556
2697;656797
2736;682817
2745;419930
2753;985678
2691;439196
2710;251307
2724;175435
2695;030144
2694;599974
2719;697352
2727;758935
1518;540724
2734;948918
2642;547516
2685;629015
2644;335898
1728;649287
2669;769434
2733;460188
2634;664430
2670;142932
2686;226125
2646;392707
2615;569656
2698;975907
2722;521423
751;261956
2674;831939
2741;940834
2718;853218
2715;802225
2675;735828
2673;838196
2725;268690
732;296801
2687;761779
2693;989569
2726;265247
3709;843066
2714;469609
2730;427060
3895;377837
2123;711142
2704;418734
4008;169015
2696;994503
2743;344998
4062;740635
4019;872127
1864;072935
3951;233904
2339;545576
688;866026
3882;067896
1025;301772
4198;331225
1973;269135
2490;527040
3686;499738
290;022620
1983;056562
3844;750135
71;048018
1756;150685
3708;106450
3807;018734
3764;360786
2650;041697
1148;420103
2457;298459
3675;533430
3889;311740
3784;014322
933;345267
1046;070427
1151;350275
3781;584221
1520;285747
3846;727220
1139;059070
3841;870074
1954;196911
2311;686737
1522;191943
1740;994767
3883;919738
3849;213025
667;571082
3750;058227
3871;587729
1962;803148
1950;073506
2623;043618
451;765602
936;664128
902;090410
928;818801
1135;108444
3665;843192
714;572160
1732;025807
2738;738807
2707;690344
1526;461167
3892;144365
2639;699837
1411;854549
3102;647167
3147;056904
3133;257984
3919;247449
3865;496671
1733;137044
2019;908219
713;433940
3984;204818
4108;649297
3729;145863
4244;157193
3702;454113
1146;938210
3832;663359
4182;159278
1020;879715
3703;405678
1133;027588
1979;568459
1752;207025
1524;412221
4025;899551
4069;952866
3743;987955
718;151346
935;956995
1032;669356
3901;272852
1754;891542
748;681699
1389;745790
2169;688063
3794;560777
762;334961
3758;077951
1972;801523
3663;145184
1037;359576
704;497889
2533;155077
906;041162
3894;393728
2764;508366
2175;324353
1385;687701
3727;930890
916;860737
769;540228
3495;234656
1155;424474
3548;440912
3130;016075
1953;575124
1749;002305
3119;143086
3109;757618
3800;647006
3094;994470
3141;101924
3150;811964
3108;964338
3127;852273
3097;681919
3134;378608
3140;225783
3106;011873
3107;178658
3101;516554
3116;481001
727;402956
3153;299013
3139;212176
3128;539256
3737;586276
3151;038432
3100;325450
3145;399429
3092;021076
3156;485702
3154;906724
3121;553240
3728;894537
1396;249137
3152;878496
2921;177839
3014;368811
3064;893080
2443;397517
3036;658421
3045;745886
3968;961044
3040;766566
3055;078224
3114;655749
59;000129
2069;160440
3051;738191
3085;525959
3037;558233
2212;544393
88;827748
3061;821864
338;687631
3083;272723
3157;656854
3063;591334
3112;352162
3676;912177
3126;572536
3091;907187
3057;262359
489;921658
1531;378070
3113;499552
4404;439081
4405;820356
4406;201497
3081;275143
4407;560108
3047;852927
3068;109095
3038;469990
4408;939592
4409;978780
3056;976189
4410;821791
3075;164661
4411;574265
3078;116746
3050;642230
4412;293365
3053;350466
3080;497663
3088;640231
3076;721915
3059;930006
3066;542639
3070;748147
2746;489069
3072;638424
3034;166803
3099;046387
3149;001862
4413;488385
3110;421524
236;870552
3123;666842
4414;806374
3058;311447
3087;417763
3011;419452
4415;569932
3136;509228
3054;240145
4416;459271
3093;572056
548;956065
3124;478380
3138;903892
3065;612968
3013;724907
3016;430994
3008;770036
4417;384930
3010;159236
4418;322886
1553;518829
3090;688946
4419;211170
4420;977216
1542;369862
3042;266393
3082;892498
1863;185581
3132;556694
3084;425888
1549;428207
3062;835537
3118;213786
3096;895343
2982;530092
3158;316181
3035;530929
3086;780825
3117;689788
3135;434851
2173;625803
3089;843526
3144;743232
4242;839063
4145;892302
3060;430417
2840;692734
1885;166338
3098;396290
3048;776295
2356;222530
3033;864430
3052;338985
2480;574208
1618;817517
3067;533813
3155;387325
3007;800086
1615;954809
344;100686
4221;642893
3073;548587
1788;646299
3044;459303
3043;494223
3137;688525
3142;693406
3095;425748
909;103044
398;985626
3146;069341
3111;344399
3148;175080
3143;538354
3046;850235
3079;735766
1614;885793
3049;073233
3105;716056
3074;862187
3069;475024
1616;579048
3103;586226
3120;369906
2099;616161
3129;746848
3071;478914
2361;717324
2177;051404
3125;157569
1597;774342
379;166424
1617;329840
3005;420611
3028;334879
3029;028358
607;458219
3664;450666
3976;263216
3877;381092
3731;735858
1145;610387
3854;789048
3041;019099
2004;211549
302;233040
1793;036615
4421;302117
4422;436696
4423;122462
4424;517252
4425;390320
919;021477
1407;234055
3654;610189
1528;681998
719;725010
1744;208753
904;269779
3649;498167
3652;182762
3648;292382
3651;314169
3650;916074
2102;515505
3707;101401
3853;040466
1975;615682
760;935005
4264;745193
4262;0000000
1956;653264
3809;797121
2953;615188
1107;062280
745;357935
1040;358686
3863;613751
3771;298854
680;360858
3717;058743
1031;326900
1029;663885
1066;748248
1952;184714
4426;615483
1537;030067
4427;262976
1058;047810
942;899588
726;440505
3816;303638
3684;660434
724;698852
3746;495287
3694;668660
3761;012420
3705;062602
1413;265517
1731;631492
1551;733443
731;967128
4428;595262
3868;403711
672;033824
1718;434087
3716;480710
1737;699082
1547;270793
764;816515
1038;272822
1700;304755
1060;140603
671;478310
3884;278919
1063;805556
3701;786559
3077;605099
3713;102880
3915;555248
3027;370020
3814;786540
1955;533535
925;901869
912;536610
3571;148514
2402;723485
939;880900
743;458177
1041;368589
3917;831010
2467;833267
670;850692
2869;957132
908;619032
3747;101179
3834;326098
1129;368262
3888;273948
3613;857401
3175;489597
3463;933735
3438;103901
3230;462515
3197;093473
3176;596113
3600;110980
3450;361574
3622;741111
3459;553419
3306;766390
3329;972415
1238;794652
3217;369494
3290;034540
3535;435982
3545;510183
3448;897835
3604;409784
3276;182860
3434;693348
3216;369839
3298;603143
3309;476355
3556;845265
3419;466537
3305;932708
3538;991732
3285;549128
3511;921021
3566;854791
4268;754410
212;850019
3557;875736
1888;662753
3431;846034
3508;205354
217;850008
1591;624936
621;538458
3237;257981
3439;414527
4267;8572602
3292;827358
3209;592705
3323;774027
315;556202
4263;569323
3304;954005
3357;445993
3418;445403
3251;780167
3215;004143
210;850011
3633;914686
3362;220048
3621;307955
3399;251070
3539;543212
3219;350711
2232;907817
3567;761686
3484;426441
3625;059938
3295;522394
3350;900075
3257;145206
3202;175763
3343;979243
4429;702872
2766;932263
2375;923454
3260;887570
3331;185470
4430;159554
198;850026
3424;147016
3411;487836
3226;872916
3354;710147
4431;289399
3543;038668
3827;054645
4432;325790
4433;311285
4434;708820
3218;101599
3458;530001
1800;293381
3455;317123
3624;608366
3184;869737
3337;859926
3629;369692
3447;069121
3214;657759
3490;685078
3280;837231
3355;696945
729;612773
3273;042735
3536;478051
3383;876541
3256;581387
3194;408867
1907;094834
4266;8572601
3252;424125
3426;402162
3472;775509
207;850005
3308;653542
3402;442748
3422;479507
3294;991410
3302;843767
3174;055741
307;036021
3189;866840
3558;218377
3352;950868
3416;896056
3278;688880
3569;923225
3279;157266
3263;697524
3644;672209
3636;416288
3200;263945
3603;642578
3441;081759
309;036318
4435;876509
3356;520607
3400;919750
3247;729582
3576;824944
3131;783981
3428;909205
3645;436514
3330;267880
3504;295433
3559;491068
3497;156642
3620;975883
3583;487498
3479;014303
3605;273226
3599;439878
3503;931589
3598;782211
202;850023
3208;457162
3630;482544
3283;043096
3414;437010
3225;399223
3471;091120
1072;682318
3572;385496
3368;374912
3207;656059
3211;966177
3284;701866
3606;801420
3641;875605
4436;064306
3549;904859
3433;260406
3177;332585
4437;301178
3266;192330
4438;621688
4439;876082
3344;484806
3221;905341
3190;540383
3597;817889
3602;786539
3456;298611
3561;008750
3534;211579
3196;267280
3488;887616
3296;207797
221;850029
3287;660421
3588;855991
2909;927599
203;850024
3373;250400
3224;631867
3589;325670
3243;530987
3642;344179
3980;666764
3340;496864
2868;602378
3198;579114
3596;740222
1558;974607
3307;541688
3505;588733
3297;189064
2098;850016
3496;851247
3246;735989
3236;222613
281;010623
3460;096235
2801;802453
3258;361697
3440;329909
1824;302631
712;727014
3565;928383
3532;686483
3587;103558
3481;816075
3555;318655
3528;734212
4265;635915
2095;410253
3585;023325
3590;257783
1656;445188
3541;025737
3277;951871
3502;591706
3408;800979
215;850013
3646;513027
3334;914815
3521;554333
199;850010
2071;022092
3204;836761
3345;274207
3336;003668
204;850020
3551;840531
3395;587392
3241;324063
3195;966160
3618;749545
67;000426
3264;579485
3553;392151
3453;598278
3366;205746
83;059412
483;373552
3324;072713
3239;215581
750;640600
3443;821472
3466;151221
3514;738765
3322;268843
3582;441024
3164;1591591
3318;067443
3437;506185
3519;385829
3405;813037
3573;202793
3179;403927
3647;139516
3574;672821
3634;860633
3420;339941
3581;131074
3578;324826
1772;713816
205;850035
3349;314110
1397;564097
3271;353278
3547;372961
3220;273219
3452;498667
3523;110599
3510;859205
3394;459250
3397;868857
3227;368935
3529;358202
3478;362974
3240;202506
190;850037
3462;309572
3640;563411
3222;473953
3656;322506
3328;943924
3372;345717
3425;552366
1914;324468
3520;202522
196;850027
3451;789005
3192;923246
3281;709530
3517;550757
3391;534826
219;850015
3300;925127
3655;669576
3480;136575
1876;578649
3527;782341
3454;352064
3332;165090
3643;530724
3537;673668
3371;413044
3401;828077
3498;742629
3501;250983
3187;733938
3342;860573
3398;053665
3564;096004
3442;023535
3473;142714
3562;561777
3427;287569
3353;709581
3228;711417
1434;758825
3314;132404
3293;545865
998;672280
3615;879246
3291;233336
3183;666713
3341;469548
3360;811477
3593;872561
1789;444362
301;161122
115;919922
4440;281637
4464;298422
3384;609193
3255;238568
3316;238664
3245;006105
3379;369108
3512;292090
3592;924210
3367;948110
3315;101139
3554;004187
3614;029684
3359;675963
2157;798682
3499;365208
3595;759270
3444;521619
3319;015565
3465;817538
3627;776030
3577;041505
3370;096300
3313;518987
2672;608078
3378;648303
3317;671505
3403;456539
3181;820615
1079;676300
3531;091376
3612;873077
218;850033
3301;889210
3232;621865
3546;809672
3446;858266
1711;104499
3212;502658
3205;352546
3206;921979
3335;506036
3375;411437
3030;289609
3193;184242
3619;307511
3213;384904
3637;141985
3039;101547
3235;948291
3632;554970
200;850030
3635;148807
3489;660303
3412;369681
2752;553385
3570;448300
3361;396167
3579;742130
3526;731038
194;850028
2682;278590
3385;078860
3513;755184
3949;017347
3253;664382
3533;379184
3423;140065
3396;930917
3552;071740
3407;388901
3524;219106
2748;596642
3387;244233
3365;944184
2750;264622
2747;425261
3430;497626
3494;669144
3374;436911
3457;630105
3242;738317
3409;761090
2749;565772
3002;030987
4441;552275
4442;337591
900;093566
574;589614
3584;402930
3468;030001
3421;252338
191;850004
3244;654451
3429;720197
228;850014
966;896978
3390;709853
3601;037568
3268;571265
3203;193564
3223;800712
3376;955907
3530;978353
3467;240469
3594;642227
3201;508861
3364;721935
3229;897451
464;045678
3609;984277
3199;584989
3180;978614
3500;234887
3485;507934
3333;239356
3461;622705
3185;925859
2881;460027
3628;640620
3388;467988
3492;573007
3623;175781
193;850001
3638;695742
3568;592976
3591;759365
3639;480153
3626;668933
3288;004934
3542;891900
3261;997321
3303;412089
2417;667651
3392;793811
539;913357
3631;876568
3265;788571
3607;246367
3267;151908
3269;375943
3506;630896
3386;632560
3658;850003
3248;708354
4444;722210
3348;853698
3611;693497
2463;005003
3483;954419
3507;397521
220;850021
3491;702450
3417;879855
3327;088346
3477;980685
3393;722251
3262;382718
3363;650507
3436;253161
3238;449786
3617;758193
3476;612870
3518;513688
4446;656295
3550;525238
3560;020667
4452;140029
3270;830877
3486;784726
3178;460098
4453;179192
4465;115862
4466;277239
4467;755833
4443;664725
197;850031
3610;321970
3259;712673
3544;979342
3347;265169
3515;706661
3299;075583
3540;392762
3382;716606
2423;514543
2192;622613
3325;914060
665;857260
3404;132048
3580;720888
3358;273413
3563;254380
3389;388485
3289;295031
3406;286586
3254;844808
3575;336663
73;015123
3616;600590
3321;516522
3474;220909
1736;482334
3487;043671
3234;066633
3310;052368
1706;284602
243;850055
3493;210588
3015;828566
3432;164540
3320;102113
3410;190912
3186;494555
2964;926247
3380;868247
3509;508158
3249;411875
3351;079583
3413;436816
3525;100037
3470;147523
211;850017
3338;220775
3586;907097
3311;159408
603;816275
2556;107308
3475;222388
3751;064578
1548;346307
3019;841769
3735;544223
3790;284182
1579;528791
757;148774
2473;688562
3744;938846
914;055713
3824;145012
1382;655502
3673;597740
807;355908
1048;793226
3006;461550
3908;234109
1384;882130
3812;359178
1150;675764
703;288306
2081;240430
2340;234117
3811;838724
1398;870850
2946;380856
106;233227
1408;830611
3346;559095
2380;259169
2819;466431
293;047217
486;184461
2873;089753
3907;018006
3693;065478
3688;487870
3725;653460
3210;104673
3666;615443
1545;891096
3766;042306
2922;734591
3749;133265
3415;348049
2110;962854
923;220112
2667;161695
347;000000
2754;4564564
3017;591200
3740;700773
3682;645788
740;219832
3714;067890
1057;331838
1153;035059
1757;872711
1195;702667
3721;844783
921;242147
754;792349
3026;675681
2620;532345
58;000921
2090;593445
2537;877664
3798;889453
2267;293459
739;225120
1059;244858
2117;168360
708;692950
3896;844453
2245;128194
3825;425982
3859;316913
927;603796
3842;471420
1085;132165
3286;358392
1043;127184
2797;975099
3914;344300
1753;930568
3012;764680
3667;456450
3881;899073
1555;566437
728;357484
2849;855252
930;045836
1383;421785
1981;864429
3843;966722
3760;305715
3823;138355
1899;801430
3608;526200
1965;777085
3890;014645
3715;123754
905;331191
1759;015545
765;342310
1516;785918
1044;108411
1611;690896
2626;213981
706;565148
673;148639
3706;692511
2618;236032
742;515113
1719;533761
763;332203
2077;795760
1751;116885
734;743798
1130;077141
1743;918658
3674;934879
3182;704389
1519;294946
3782;636331
3819;193000
3918;525453
3522;907515
3772;648472
3837;654666
1152;035517
1943;609288
2036;504987
2567;177389
1745;384837
3793;166509
709;182853
3025;478970
720;278294
903;707299
3847;761877
3845;557895
1128;315682
3753;889597
907;155331
668;050867
1977;274790
1126;598770
3787;030225
3839;411990
3789;345897
711;589365
2061;776386
3799;116547
1747;300559
3326;883925
3755;546777
758;295896
3866;359449
747;539442
3862;916161
2591;870830
918;567158
3783;021522
1727;569155
3804;130525
4447;223040
1030;819622
1758;464974
3698;004030
2265;390312
4448;948080
1416;108520
3719;869076
1412;355064
4449;120635
3009;260638
3913;847625
1132;962263
1410;934459
3923;613523
3836;135554
4450;909216
3723;097325
2621;184713
3678;084589
2469;701663
3848;910946
4451;790215
738;197297
3669;454894
3003;008383
2830;721374
749;949862
2689;500310
759;680001
756;269129
693;320745
3873;407554
1951;580178
679;607370
2969;333010
111;326710
1947;513757
1829;913219
3692;803467
2368;291796
2625;764297
2015;082052
1557;036459
937;948505
1961;010220
2916;634891
2005;030027
915;884717
3864;068000
2041;126030
3921;901757
3797;946336
1844;377319
1968;469064
3897;833041
3851;886086
3802;276059
2904;838267
1969;366196
3733;032481
2151;059659
1391;972400
3023;815095
1056;386398
744;991462
1388;927639
3805;295521
1036;938219
3763;675461
3872;775666
3312;995688
697;562260
208;850009
753;076350
1762;026554
2255;869000
1394;383023
1392;495383
1722;928679
3920;231295
675;997247
3732;031956
1409;636490
926;155488
3902;103814
3779;744395
989;357468
3820;332248
4269;040506
2773;058265
3903;293769
4271;3693693
1052;657381
3856;789555
2217;692845
913;991350
1944;002683
4302;505813
1140;074007
4303;697571
1028;668563
1157;747468
3377;095205
2548;279333
2960;514762
2619;809551
4304;715481
3653;828869
3803;098160
4305;882384
3796;181506
3795;836754
1377;165680
4306;971943
723;847092
2256;763038
1022;314562
1417;729541
4307;260763
1395;351624
1963;380236
2905;373890
741;366765
1959;456104
722;144392
3742;458908
766;037282
3482;287938
1035;361518
746;070197
2772;381898
514;216173
3718;763531
1723;438737
689;097901
1055;736644
3031;775212
1125;392857
3861;316686
1960;020790
3822;305002
2575;401747
1144;507741
1143;003604
2883;838619
3852;561677
3250;436885
717;294283
2147;515569
1729;498442
676;246558
710;600494
1405;587245
686;736023
1755;692610
3670;061597
920;791998
3759;199346
3022;855392
1054;594836
941;415315
2778;963107
2622;381802
696;133606
3712;267759
1208;648981
306;304152
3886;123562
3231;793332
1158;883466
1763;722178
3891;418556
3899;789675
2645;254924
3905;929033
1534;860288
1045;110586
2164;450657
4270;218286
3748;798952
3821;055662
3858;520297
3720;960551
4272;937427
1160;162064
940;052199
3020;786319
3850;675411
1544;588107
4273;354865
1404;787304
4274;675475
4275;686326
4276;327329
4277;590970
4278;002011
1730;928561
1033;510566
3815;472194
1147;439618
3722;614432
2226;113264
1400;913036
3768;749402
2412;864006
1387;346971
1517;658968
684;909397
2091;938704
1957;230912
2988;778217
3906;055100
1127;472300
3777;079489
1378;546643
3786;221057
3774;645067
1765;766350
2049;815718
3898;450789
1529;300235
922;372964
3736;165501
1976;694689
1958;086936
2856;335712
1376;915166
3838;814188
3855;456555
2078;050614
1039;926455
3829;186223
2624;699983
2432;028985
3032;653939
3818;817303
3776;587481
1162;459095
2590;801908
3695;497931
3671;718753
1978;195093
1401;061699
2185;133883
715;071145
3018;736998
901;768528
297;303185
3122;360205
3757;858086
3752;546796
2372;534889
4279;307594
4280;300041
4281;086366
3775;634820
685;123733
1576;564115
3730;989775
707;688453
3830;311275
4282;691602
4283;379608
3724;819978
2865;572040
4284;763885
3893;358232
402;410704
3869;830310
3808;178533
3699;914132
3792;917312
3878;031887
3788;619802
1024;443616
4285;951652
695;070680
3909;645077
4286;200196
3870;005005
1760;004001
931;703538
3916;094702
1051;961436
721;051347
3704;480224
1971;503597
3828;255559
3683;123457
2079;662672
1552;443869
2584;998883
3738;479537
1061;043945
1948;882331
1380;384885
1546;692087
752;855827
730;950319
683;902538
1137;061115
3741;645687
3762;333908
2182;815719
3739;667991
3679;221960
938;828925
1161;425629
3710;040615
2153;042927
1682;054798
3910;768025
932;535149
3685;728807
910;434657
3162;1471471
3024;334152
682;192868
1721;698195
1945;238781
1402;875455
1034;478186
3677;976909
1748;336644
3813;122426
1539;562135
1967;290487
1964;634141
1725;071458
1781;562680
1406;521771
2198;196010
1764;215903
3696;773848
3691;183609
3275;907199
2017;107405
1535;146792
674;921288
3711;109132
1136;866630
3668;456077
3767;253461
1791;429866
3874;183947
778;030357
1154;574853
2260;279040
755;521714
733;171985
3681;856111
4287;534484
917;052350
4288;303932
4289;325394
4290;147673
2782;521612
4291;474874
4292;692992
4293;372184
4294;248404
4295;594127
4296;242253
4297;854793
4298;059275
4299;202702
4300;754120
4301;861620
4454;223040
4455;948080
4456;120635
4457;909216
4458;790215
4468;073679
4469;432793
4470;599203
4471;547240
4472;936152
4473;448192
4474;882239
4475;013100
4476;622973
4480;748900
4481;846856
4482;239142
4483;296079
4484;472450
4485;978192
4486;053250
4487;484381
4488;513920
4489;865337
4490;113717
4491;278753
4492;611079
4493;391674
4494;913168
4495;908126
4496;426051
4497;633417
4498;836628
4499;247365
4500;205933
4501;068028
4502;479633
4503;373295
4504;721389
4505;635584
4506;650917
4507;459645
4508;368147
4509;398862
4510;527822
4511;687321
4512;822244
4513;797379
4514;371870
4515;309135
4516;848141
4517;879509
4518;183923
4519;368196
4520;029579
4521;426653
4522;388803
4523;069742
4524;087361
4525;353734
4526;769628
4527;134215
4528;439133
4529;632999
4530;601805
4531;848492
4532;231362
4533;891528
4534;377081
4535;525120
4536;149175
4537;911501
4538;714923
4539;709726
4540;238862
4541;552411
4542;725987
4543;475391
4544;893253
4545;774068
4546;276180
4548;927703
4549;209733
4550;320637
4551;906669
4552;190898
4553;48465465465
4556;213940
4557;435351
4558;117383
4559;346699
4560;948312
4561;826819
4562;063778
4563;501384
4564;525900
4565;564312
4566;882542
4567;828588
4568;199408
4569;007124
4570;950217
4571;391118
4572;411070
4573;933500
4574;378344
4575;328373
4576;534926
4577;169570
4578;899527
4579;524241
4580;666528
4581;120057
4582;226692
4583;837011
4584;489779
4585;303952
4586;777564
4547;644240
4555;973247
4587;273052
4588;637557
4589;005608
4590;496475
4591;208751
4592;056901
4593;051962
4594;490264
4595;681616
4596;363443
4597;837748
4598;447517
4599;676389
4600;925520
4601;143004
4602;052286
4603;733451
4604;610182
4605;443611
4606;484657
4607;596516
4608;416567
4609;770300
4610;838702
4611;173989
4612;441939
4613;594733
4614;640871
4615;989046
4616;764207
4617;142969
4618;273391
4619;959683
4620;521745
4621;977866
4622;357395
4623;318401
4624;200220
4625;847007
4626;715741
4627;194074
4628;414783
4629;410502
4630;031226
4631;972405
4632;549388
4633;254265
4634;955544
4635;052647
4636;103756
4637;520505
4638;295599
4639;312499
4640;915492
4641;165969
4642;039254
4643;544777
4644;493647
4645;378427
4646;102608
4647;012030
4648;967613
4649;825012
4670;683193
4671;902689
3381;855324
4650;855324
4651;851369
4652;252948
4653;774429
4654;491445
4655;046364
4656;774280
4657;376252
4658;694092
4659;419340
4660;975905
4661;315342
4662;221333
4663;792975
4664;185212
4665;000559
4666;819968
4667;658732
4668;844726
4669;254038
4672;497204
4673;426931
4674;950961
4675;170810
4676;720938
4677;546053
4678;157908
4679;046026
4680;566559
4681;986662
4682;146306
4683;942765
4684;788749
4685;348351
4686;859049
4687;073707
4688;186278
4689;286119
4690;125280
4691;713484
4692;639320
4693;459616
4694;135079
4695;683517
4696;763384
4697;277210
4698;499302
4699;517251
4700;143814
4701;837535
4702;021239
4703;582358
4704;358253
4705;922200
4706;986520
4707;084838
4708;406236
4709;160344
4710;935990
4711;543737
4712;271376
4713;733748
4714;795390
4715;548605
4716;759804
4717;467114
4718;496080
4719;490322
4720;991839
4721;325543
4722;655373.2
4723;655373.3
4724;114044
4725;876092
4726;262441
4727;448908
4728;865001
4730;664725
4554;482617
4731;482617
4732;337591
4733;943131
4734;953640
4735;495608
4736;039684
4737;697851
4738;177676
4739;000760
4740;281312
4741;245468
4742;350436
4743;482033
4744;483278
4745;591861
4746;974881
4747;829161
4748;020820
4749;797077
4750;909289
4751;708031
4752;246054
4753;546235
4754;245052
4755;953568
4756;434522
4763;641082
4759;185683
4760;473796
4761;276899
4729;037931
4764;162512
4765;007221
4766;655100
4767;022818
517;951393
4769;437971
4770;611009
4768;039018
4771;039018
4772;764653
296;039909
4773;709796
4774;697332
4758;390142
4762;641082
4445;037931
4757;390142
4775;468355
4776;916147
4777;260000
4778;061489
4779;093566
4780;065812
4781;573823
4783;950243
4784;920634
4785;843861
4786;805893
4787;695646
4788;589614
4789;039448
4790;1561561
4791;279523
4792;156156
4793;586075
4794;704767
4795;845951
4796;397997
4797;781552
4798;075997
4799;711899
4800;675683
4801;961701
4802;618926
4803;202749
4804;521532
4805;650695
4806;306852
4807;768902
4808;193598
4809;155321
4810;383587
4811;910589
4812;056572
4813;651521
4814;090258
4815;352673
4816;435959
4817;860240
4818;389285
4819;211560
4820;136423
4821;771498
4822;364643
4823;020200
4824;425472
4825;602665
4826;146653
4827;468164
4828;768206
4829;865419
4830;246714
4831;462365
4832;630193
4833;409545
4834;290697
4835;619039
4836;925692
4837;150913
4838;854654
4839;283286
4840;703389
4841;270108
4842;929980
4843;557465
4844;701337
4845;569324
4846;025324
4847;745146
4848;853556
4849;665957
4850;592600
4851;623084
4852;235543
4853;193529
4854;434773
4855;622731
4856;305258
4857;825874
4858;970352
4859;031322
4860;031146
4861;857797
4862;315244
4863;432374
4864;209345
4865;363099
4866;895020
4867;168173
4868;940067
4869;691712
4870;379408
4871;127078
4872;917539
4873;497056
4874;192051
4875;357155
4876;242756
4877;291916
4878;357129
4879;850339
4880;226518
4881;565519
4882;351727
4883;274398
4884;014130
4885;597922
4886;448818
4887;010058
4888;206850
4889;170414
4890;628444
4891;073284
4892;055771
4893;528873
4894;025025
4895;318965
4896;900463
4897;058611
4898;043419
4899;695504
4900;777732
4901;417811
4902;640395
4903;874217
4904;021720
4905;332561
4906;315257
4907;917587
4908;069634
4909;268156
4910;599739
4911;520574
4912;162962
4913;582488
4914;787187
4915;210700
4916;510793
4917;697371
4918;019218
4920;396689
4921;409443
4922;235698
4923;847426
4926;283182
4928;687444
4929;726135
323;281412
4930;148464
4931;783835
4927;736486
4932;736486
4933;641867
4934;008022
4935;161882
4936;671169
4925;736275
4937;736275
4951;787576
4939;848755
4919;000537
4940;000537
4941;TOTOAPI25
4943;784542
4944;tototesto
4945;879746
4942;644215
4946;644215
4947;650842
4938;012328
4924;012328
4948;664686
4949;348802
4950;874335
4782;953670
4953;865219
4954;922926
4955;035950
4963;4654654
4952;787576
4956;712488
4957;770779
4958;973247
4959;548244
4960;446819
4961;059808
4962;54156456
4964;555173
4965;508366
4966;464196
4967;893346
4968;959077
4969;933172
4970;779149
4971;764028
4972;350798
4973;290233
4974;898979
4975;806937
4976;782796
4977;408814
4978;031620
4979;0316202
4980;401352
4981;179716
4982;703802
4983;007122
4984;245718
4985;681951
4986;838369
610;678159
4987;678159
4988;024717
608;804622
4989;804622
4990;086907
4991;678828
4992;994109
4993;691771
(4932 rows)
